EESchema Schematic File Version 4
EELAYER 30 0
EELAYER END
$Descr A4 11693 8268
encoding utf-8
Sheet 4 6
Title "Main Board for V3"
Date "2020-04-20"
Rev "1.0"
Comp "VentilAid"
Comment1 "Maciej Żarnowski"
Comment2 ""
Comment3 ""
Comment4 ""
$EndDescr
$Comp
L Connector_Generic:Conn_01x02 J3
U 1 1 5EA365E7
P 4050 3425
F 0 "J3" H 4225 3350 50  0000 C CNN
F 1 "PWR_IN" H 4050 3200 50  0000 C CNN
F 2 "moje_biblioteki:KK_1x2pin_3.96mm" H 4050 3425 50  0001 C CNN
F 3 "~" H 4050 3425 50  0001 C CNN
	1    4050 3425
	-1   0    0    1   
$EndComp
$Comp
L power:GND #PWR036
U 1 1 5EA36B4F
P 4250 3425
F 0 "#PWR036" H 4250 3175 50  0001 C CNN
F 1 "GND" H 4255 3252 50  0000 C CNN
F 2 "" H 4250 3425 50  0001 C CNN
F 3 "" H 4250 3425 50  0001 C CNN
	1    4250 3425
	1    0    0    -1  
$EndComp
$Comp
L Device:Fuse F1
U 1 1 5EA38B0D
P 5025 3325
F 0 "F1" V 4828 3325 50  0000 C CNN
F 1 "ZHL12" V 4919 3325 50  0000 C CNN
F 2 "moje_biblioteki:ZHL12" V 4955 3325 50  0001 C CNN
F 3 "https://www.tme.eu/pl/details/zhl12/gniazda-bezpiecznikowe-pcb/proffuse/" H 5025 3325 50  0001 C CNN
	1    5025 3325
	0    1    1    0   
$EndComp
$Comp
L power:+3V3 #PWR043
U 1 1 5EA3E530
P 2525 5250
F 0 "#PWR043" H 2525 5100 50  0001 C CNN
F 1 "+3V3" H 2540 5423 50  0000 C CNN
F 2 "" H 2525 5250 50  0001 C CNN
F 3 "" H 2525 5250 50  0001 C CNN
	1    2525 5250
	1    0    0    -1  
$EndComp
$Comp
L power:GND #PWR044
U 1 1 5EA40160
P 2525 5350
F 0 "#PWR044" H 2525 5100 50  0001 C CNN
F 1 "GND" H 2530 5177 50  0000 C CNN
F 2 "" H 2525 5350 50  0001 C CNN
F 3 "" H 2525 5350 50  0001 C CNN
	1    2525 5350
	1    0    0    -1  
$EndComp
Wire Wire Line
	2525 5350 2025 5350
Wire Wire Line
	2025 5250 2525 5250
Text HLabel 2025 5950 2    39   Input ~ 0
SPI_MISO
Text HLabel 2025 5850 2    39   Input ~ 0
SPI_MOSI
Text HLabel 1525 6050 0    39   Input ~ 0
SPI_SCK
Text HLabel 1525 6150 0    39   Input ~ 0
SPI_EX_CS1
Text HLabel 2025 6050 2    39   Input ~ 0
SPI_EX_CS2
$Comp
L power:GND #PWR049
U 1 1 5EA4E6AD
P 6675 6400
F 0 "#PWR049" H 6675 6150 50  0001 C CNN
F 1 "GND" H 6680 6227 50  0000 C CNN
F 2 "" H 6675 6400 50  0001 C CNN
F 3 "" H 6675 6400 50  0001 C CNN
	1    6675 6400
	1    0    0    -1  
$EndComp
$Comp
L power:+5V #PWR048
U 1 1 5EA4E9D2
P 7000 5500
F 0 "#PWR048" H 7000 5350 50  0001 C CNN
F 1 "+5V" H 7015 5673 50  0000 C CNN
F 2 "" H 7000 5500 50  0001 C CNN
F 3 "" H 7000 5500 50  0001 C CNN
	1    7000 5500
	-1   0    0    -1  
$EndComp
$Comp
L Device:R R72
U 1 1 5EA59528
P 6675 6100
F 0 "R72" V 6625 6250 50  0000 C CNN
F 1 "10kR" V 6675 6100 50  0000 C CNN
F 2 "Resistor_SMD:R_0603_1608Metric" V 6605 6100 50  0001 C CNN
F 3 "~" H 6675 6100 50  0001 C CNN
	1    6675 6100
	-1   0    0    1   
$EndComp
Wire Wire Line
	6675 6400 6675 6250
$Comp
L Device:R R73
U 1 1 5EA5B425
P 6800 6100
F 0 "R73" V 6750 6250 50  0000 C CNN
F 1 "10kR" V 6800 6100 50  0000 C CNN
F 2 "Resistor_SMD:R_0603_1608Metric" V 6730 6100 50  0001 C CNN
F 3 "~" H 6800 6100 50  0001 C CNN
	1    6800 6100
	-1   0    0    1   
$EndComp
Wire Wire Line
	6800 6400 6675 6400
Connection ~ 6675 6400
Wire Wire Line
	6800 6250 6800 6400
Wire Wire Line
	6675 5950 6675 5900
Wire Wire Line
	6675 5900 6875 5900
Text HLabel 6875 5800 2    39   Input ~ 0
BLDC_TELEM
Text HLabel 2025 6450 2    39   Input ~ 0
I2C_SCL
Text HLabel 1525 6450 0    39   Input ~ 0
I2C_SDA
$Comp
L Connector_Generic:Conn_01x02 J15
U 1 1 5EA0C8F0
P 5400 1525
F 0 "J15" H 5575 1450 50  0000 C CNN
F 1 "PEEP" H 5475 1300 50  0000 C CNN
F 2 "moje_biblioteki:KK_1x2_pin" H 5400 1525 50  0001 C CNN
F 3 "~" H 5400 1525 50  0001 C CNN
	1    5400 1525
	1    0    0    1   
$EndComp
$Comp
L Device:Q_NMOS_GSD Q8
U 1 1 5EA16522
P 5100 2025
F 0 "Q8" H 5304 2071 50  0000 L CNN
F 1 "YJL2304A" H 5304 1980 50  0000 L CNN
F 2 "Package_TO_SOT_SMD:SOT-23" H 5300 2125 50  0001 C CNN
F 3 "~" H 5100 2025 50  0001 C CNN
	1    5100 2025
	1    0    0    -1  
$EndComp
$Comp
L Device:D_Schottky D3
U 1 1 5EA18325
P 4875 1575
F 0 "D3" V 4829 1654 50  0000 L CNN
F 1 "STPS340U" V 4920 1654 50  0000 L CNN
F 2 "Diode_SMD:D_SMB" H 4875 1575 50  0001 C CNN
F 3 "https://www.tme.eu/pl/details/stps340u/diody-schottky-smd/stmicroelectronics/" H 4875 1575 50  0001 C CNN
	1    4875 1575
	0    1    1    0   
$EndComp
Wire Wire Line
	5200 1825 5200 1725
Wire Wire Line
	4875 1725 5200 1725
Connection ~ 5200 1725
Wire Wire Line
	5200 1725 5200 1525
Wire Wire Line
	5200 1425 4875 1425
Connection ~ 4875 1425
Wire Wire Line
	4875 1425 4650 1425
$Comp
L power:+12V #PWR061
U 1 1 5EA1B2F6
P 3475 1425
F 0 "#PWR061" H 3475 1275 50  0001 C CNN
F 1 "+12V" H 3490 1598 50  0000 C CNN
F 2 "" H 3475 1425 50  0001 C CNN
F 3 "" H 3475 1425 50  0001 C CNN
	1    3475 1425
	1    0    0    -1  
$EndComp
Text HLabel 4350 2025 0    39   Input ~ 0
DC_PWM
$Comp
L Device:R R75
U 1 1 5EA1C98E
P 4750 2025
F 0 "R75" V 4675 2025 50  0000 C CNN
F 1 "330R" V 4750 2025 50  0000 C CNN
F 2 "Resistor_SMD:R_0603_1608Metric" V 4680 2025 50  0001 C CNN
F 3 "~" H 4750 2025 50  0001 C CNN
	1    4750 2025
	0    1    1    0   
$EndComp
$Comp
L Device:R R74
U 1 1 5EA1D47B
P 4500 2175
F 0 "R74" H 4570 2221 50  0000 L CNN
F 1 "10kR" H 4570 2130 50  0000 L CNN
F 2 "Resistor_SMD:R_0603_1608Metric" V 4430 2175 50  0001 C CNN
F 3 "~" H 4500 2175 50  0001 C CNN
	1    4500 2175
	1    0    0    -1  
$EndComp
Wire Wire Line
	4600 2025 4500 2025
Connection ~ 4500 2025
Wire Wire Line
	4500 2025 4350 2025
$Comp
L power:GND #PWR060
U 1 1 5EA1E4E4
P 4500 2325
F 0 "#PWR060" H 4500 2075 50  0001 C CNN
F 1 "GND" H 4505 2152 50  0000 C CNN
F 2 "" H 4500 2325 50  0001 C CNN
F 3 "" H 4500 2325 50  0001 C CNN
	1    4500 2325
	1    0    0    -1  
$EndComp
Wire Wire Line
	4500 2325 5200 2325
Wire Wire Line
	5200 2325 5200 2225
Connection ~ 4500 2325
$Comp
L Device:C C21
U 1 1 5EA2014D
P 4650 1575
F 0 "C21" H 4675 1650 50  0000 L CNN
F 1 "100nF 50V" V 4650 1775 50  0000 L CNN
F 2 "Capacitor_SMD:C_0603_1608Metric" H 4688 1425 50  0001 C CNN
F 3 "~" H 4650 1575 50  0001 C CNN
	1    4650 1575
	1    0    0    -1  
$EndComp
Connection ~ 4650 1425
$Comp
L Device:CP C20
U 1 1 5EA2148C
P 4425 1575
F 0 "C20" H 4425 1650 50  0000 L CNN
F 1 "47uF 50V" V 4425 1750 50  0000 L CNN
F 2 "Capacitor_SMD:CP_Elec_6.3x7.7" H 4463 1425 50  0001 C CNN
F 3 "~" H 4425 1575 50  0001 C CNN
	1    4425 1575
	1    0    0    -1  
$EndComp
Wire Wire Line
	4650 1425 4425 1425
$Comp
L power:GND #PWR059
U 1 1 5EA22C53
P 4425 1725
F 0 "#PWR059" H 4425 1475 50  0001 C CNN
F 1 "GND" H 4430 1552 50  0000 C CNN
F 2 "" H 4425 1725 50  0001 C CNN
F 3 "" H 4425 1725 50  0001 C CNN
	1    4425 1725
	1    0    0    -1  
$EndComp
Wire Wire Line
	4425 1725 4650 1725
Connection ~ 4425 1725
Text HLabel 1525 6350 0    39   Input ~ 0
ADC2
Text HLabel 2025 6550 2    39   Input ~ 0
ENC1
Text HLabel 1525 6550 0    39   Input ~ 0
ENC2
Text Notes 4625 3050 0    39   ~ 0
6A@12V fuse recommended
$Comp
L power:GND #PWR010
U 1 1 5EC79163
P 4650 5900
F 0 "#PWR010" H 4650 5650 50  0001 C CNN
F 1 "GND" H 4655 5727 50  0000 C CNN
F 2 "" H 4650 5900 50  0001 C CNN
F 3 "" H 4650 5900 50  0001 C CNN
	1    4650 5900
	1    0    0    -1  
$EndComp
Text HLabel 3875 5700 0    39   Input ~ 0
RASP_RX
Text HLabel 4375 5700 2    39   Input ~ 0
RASP_GPIO_1
Text HLabel 3875 5800 0    39   Input ~ 0
RASP_GPIO_2
Text HLabel 4375 5600 2    39   Input ~ 0
RASP_TX
Text HLabel 4375 5800 2    39   Input ~ 0
LED_OUT
$Comp
L Connector_Generic:Conn_02x05_Odd_Even J1
U 1 1 5EDDC67D
P 4075 5700
F 0 "J1" H 4125 6117 50  0000 C CNN
F 1 "FRONT_PANEL" H 4125 6026 50  0000 C CNN
F 2 "Connector_IDC:IDC-Header_2x05_P2.54mm_Latch6.5mm_Vertical" H 4075 5700 50  0001 C CNN
F 3 "~" H 4075 5700 50  0001 C CNN
	1    4075 5700
	1    0    0    -1  
$EndComp
Wire Wire Line
	4375 5900 4650 5900
$Comp
L power:GND #PWR011
U 1 1 5EDE4A62
P 3175 5500
F 0 "#PWR011" H 3175 5250 50  0001 C CNN
F 1 "GND" H 3180 5327 50  0000 C CNN
F 2 "" H 3175 5500 50  0001 C CNN
F 3 "" H 3175 5500 50  0001 C CNN
	1    3175 5500
	1    0    0    -1  
$EndComp
Wire Wire Line
	3175 5500 3875 5500
Wire Wire Line
	4375 5500 4650 5500
Wire Wire Line
	3325 5900 3875 5900
Wire Wire Line
	3875 5500 3875 5600
Connection ~ 3875 5500
Text GLabel 4900 3500 2    39   Input ~ 0
VIN
$Comp
L power:+12V #PWR0101
U 1 1 5EBAB537
P 4925 4175
F 0 "#PWR0101" H 4925 4025 50  0001 C CNN
F 1 "+12V" H 4940 4348 50  0000 C CNN
F 2 "" H 4925 4175 50  0001 C CNN
F 3 "" H 4925 4175 50  0001 C CNN
	1    4925 4175
	1    0    0    -1  
$EndComp
Wire Wire Line
	5175 3325 5500 3325
Wire Wire Line
	4875 3325 4725 3325
Wire Wire Line
	4900 3500 4725 3500
Wire Wire Line
	4725 3500 4725 3325
Connection ~ 4725 3325
Wire Wire Line
	4725 3325 4250 3325
$Comp
L Device:Polyfuse F2
U 1 1 5F9C358D
P 4050 1425
F 0 "F2" V 3825 1425 50  0000 C CNN
F 1 " 0ZCF0200FF2C" V 3916 1425 50  0000 C CNN
F 2 "Fuse:Fuse_2920_7451Metric" H 4100 1225 50  0001 L CNN
F 3 "https://www.tme.eu/pl/details/0zcf0200ff2c/bezpieczniki-polimerowe-smd/bel-fuse/" H 4050 1425 50  0001 C CNN
	1    4050 1425
	0    1    1    0   
$EndComp
Wire Wire Line
	4200 1425 4250 1425
Connection ~ 4425 1425
Wire Wire Line
	3900 1425 3850 1425
Connection ~ 4725 3500
Text GLabel 5500 3325 2    39   Input ~ 0
+MOTOR
$Comp
L Device:Polyfuse F3
U 1 1 5F9CB38E
P 4050 1750
F 0 "F3" V 3975 1700 50  0000 C CNN
F 1 " 0ZCJ0075AF2E" V 4050 1225 50  0000 C CNN
F 2 "Fuse:Fuse_1206_3216Metric" H 4100 1550 50  0001 L CNN
F 3 "https://www.tme.eu/pl/details/0zcj0075af2e/bezpieczniki-polimerowe-smd/bel-fuse/" H 4050 1750 50  0001 C CNN
	1    4050 1750
	0    1    1    0   
$EndComp
Wire Wire Line
	4250 1750 4250 1425
Connection ~ 4250 1425
Wire Wire Line
	4250 1425 4425 1425
Wire Wire Line
	3900 1750 3850 1750
Wire Wire Line
	3850 1750 3850 1425
Connection ~ 3850 1425
Wire Wire Line
	3850 1425 3475 1425
Wire Wire Line
	4200 1750 4250 1750
Text HLabel 6425 5600 2    39   Input ~ 0
CS6
Text HLabel 6875 5900 2    39   Input ~ 0
MOTOR_PWM
Text HLabel 5475 5900 0    39   Input ~ 0
SERVO0_PWM
Text HLabel 5475 5800 0    39   Input ~ 0
SERVO1_PWM
Text GLabel 6700 5200 2    39   Input ~ 0
+MOTOR
$Comp
L power:GND #PWR038
U 1 1 5F9ACFCC
P 5750 5200
F 0 "#PWR038" H 5750 4950 50  0001 C CNN
F 1 "GND" H 5755 5027 50  0000 C CNN
F 2 "" H 5750 5200 50  0001 C CNN
F 3 "" H 5750 5200 50  0001 C CNN
	1    5750 5200
	1    0    0    -1  
$EndComp
Text HLabel 5475 5700 0    39   Input ~ 0
SPI_MISO
Text HLabel 5475 5600 0    39   Input ~ 0
SPI_SCK
Text HLabel 6425 5700 2    39   Input ~ 0
RPM_MEASUREMENT
Text HLabel 2025 6350 2    39   Input ~ 0
ADC3
Text HLabel 1525 5750 0    39   Input ~ 0
PB13
Text HLabel 2025 5650 2    39   Input ~ 0
PB14
Text HLabel 1525 5550 0    39   Input ~ 0
PA12
Text HLabel 1525 5450 0    39   Input ~ 0
PC9
Text HLabel 1525 5650 0    39   Input ~ 0
PC7
Text HLabel 2025 5550 2    39   Input ~ 0
PC8
Text HLabel 2025 5750 2    39   Input ~ 0
PC10
Text HLabel 1525 5850 0    39   Input ~ 0
PC11
Text HLabel 1525 5950 0    39   Input ~ 0
PC12
Text HLabel 2025 6250 2    39   Input ~ 0
PC13
Text HLabel 2025 6150 2    39   Input ~ 0
PC14
Text HLabel 1525 6250 0    39   Input ~ 0
PC15
Text HLabel 2025 5450 2    39   Input ~ 0
USART3_TX
$Comp
L Connector_Generic:Conn_02x14_Odd_Even J2
U 1 1 5FAF27B8
P 1725 5850
F 0 "J2" H 1775 6667 50  0000 C CNN
F 1 "EXT" H 1775 6576 50  0000 C CNN
F 2 "Connector_PinSocket_2.54mm:PinSocket_2x14_P2.54mm_Vertical" H 1725 5850 50  0001 C CNN
F 3 "~" H 1725 5850 50  0001 C CNN
	1    1725 5850
	1    0    0    -1  
$EndComp
$Comp
L Connector_Generic:Conn_02x08_Odd_Even J4
U 1 1 5FAF6159
P 6125 5600
F 0 "J4" H 6175 4975 50  0000 C CNN
F 1 "MOTOR" H 6175 5066 50  0000 C CNN
F 2 "Connector_IDC:IDC-Header_2x08_P2.54mm_Latch6.5mm_Vertical" H 6175 6025 50  0001 C CNN
F 3 "~" H 6125 5600 50  0001 C CNN
	1    6125 5600
	1    0    0    1   
$EndComp
Wire Wire Line
	6700 5200 6425 5200
Wire Wire Line
	6425 5200 6425 5300
Connection ~ 6425 5200
Connection ~ 6425 5300
Wire Wire Line
	6425 5300 6425 5400
Wire Wire Line
	5925 5200 5925 5300
Connection ~ 5925 5200
Connection ~ 5925 5300
Wire Wire Line
	5925 5300 5925 5400
Wire Wire Line
	7000 5500 6425 5500
Wire Wire Line
	6675 5900 6425 5900
Connection ~ 6675 5900
Wire Wire Line
	6425 5800 6800 5800
Wire Wire Line
	6800 5950 6800 5800
Connection ~ 6800 5800
Wire Wire Line
	6800 5800 6875 5800
$Comp
L power:GND #PWR037
U 1 1 5FB0E685
P 5725 6400
F 0 "#PWR037" H 5725 6150 50  0001 C CNN
F 1 "GND" H 5730 6227 50  0000 C CNN
F 2 "" H 5725 6400 50  0001 C CNN
F 3 "" H 5725 6400 50  0001 C CNN
	1    5725 6400
	1    0    0    -1  
$EndComp
$Comp
L Device:R R18
U 1 1 5FB0E68B
P 5725 6100
F 0 "R18" V 5675 6250 50  0000 C CNN
F 1 "10kR" V 5725 6100 50  0000 C CNN
F 2 "Resistor_SMD:R_0603_1608Metric" V 5655 6100 50  0001 C CNN
F 3 "~" H 5725 6100 50  0001 C CNN
	1    5725 6100
	-1   0    0    1   
$EndComp
Wire Wire Line
	5725 6400 5725 6250
$Comp
L Device:R R19
U 1 1 5FB0E692
P 5850 6100
F 0 "R19" V 5800 6250 50  0000 C CNN
F 1 "10kR" V 5850 6100 50  0000 C CNN
F 2 "Resistor_SMD:R_0603_1608Metric" V 5780 6100 50  0001 C CNN
F 3 "~" H 5850 6100 50  0001 C CNN
	1    5850 6100
	-1   0    0    1   
$EndComp
Wire Wire Line
	5850 6400 5725 6400
Connection ~ 5725 6400
Wire Wire Line
	5850 6250 5850 6400
Wire Wire Line
	5725 5950 5725 5900
Wire Wire Line
	5725 5900 5925 5900
Wire Wire Line
	5725 5900 5475 5900
Connection ~ 5725 5900
Wire Wire Line
	5475 5800 5850 5800
Wire Wire Line
	5850 5950 5850 5800
Connection ~ 5850 5800
Wire Wire Line
	5850 5800 5925 5800
Text GLabel 4650 5375 1    39   Input ~ 0
+PANEL
Wire Wire Line
	4650 5375 4650 5500
Text GLabel 5400 3850 2    39   Input ~ 0
+PANEL
$Comp
L Device:Polyfuse F6
U 1 1 5FB3D6D5
P 5050 3850
F 0 "F6" V 4825 3850 50  0000 C CNN
F 1 " 0ZCF0200FF2C" V 4916 3850 50  0000 C CNN
F 2 "Fuse:Fuse_2920_7451Metric" H 5100 3650 50  0001 L CNN
F 3 "https://www.tme.eu/pl/details/0zcf0200ff2c/bezpieczniki-polimerowe-smd/bel-fuse/" H 5050 3850 50  0001 C CNN
	1    5050 3850
	0    1    1    0   
$EndComp
Wire Wire Line
	5400 3850 5200 3850
Wire Wire Line
	4900 3850 4725 3850
Wire Wire Line
	4725 3500 4725 3850
Wire Wire Line
	4725 3850 4725 4175
Wire Wire Line
	4725 4175 4925 4175
Connection ~ 4725 3850
$Comp
L power:GND #PWR0102
U 1 1 5FC1CDFC
P 1025 5350
F 0 "#PWR0102" H 1025 5100 50  0001 C CNN
F 1 "GND" H 1030 5177 50  0000 C CNN
F 2 "" H 1025 5350 50  0001 C CNN
F 3 "" H 1025 5350 50  0001 C CNN
	1    1025 5350
	-1   0    0    -1  
$EndComp
Wire Wire Line
	1025 5350 1525 5350
Wire Wire Line
	1525 5250 1025 5250
$Comp
L power:+5V #PWR0103
U 1 1 5FC230B4
P 1025 5250
F 0 "#PWR0103" H 1025 5100 50  0001 C CNN
F 1 "+5V" H 1040 5423 50  0000 C CNN
F 2 "" H 1025 5250 50  0001 C CNN
F 3 "" H 1025 5250 50  0001 C CNN
	1    1025 5250
	1    0    0    -1  
$EndComp
Wire Wire Line
	5750 5200 5925 5200
Wire Wire Line
	5925 5400 5925 5500
Connection ~ 5925 5400
Text GLabel 3325 5900 0    39   Input ~ 0
+PANEL
$Comp
L Device:R R?
U 1 1 5FC7C72A
P 5625 5600
AR Path="/5E997976/5FC7C72A" Ref="R?"  Part="1" 
AR Path="/5EA35A8B/5FC7C72A" Ref="R20"  Part="1" 
F 0 "R20" V 5600 5750 50  0000 C CNN
F 1 "0R" V 5625 5600 50  0000 C CNN
F 2 "Resistor_SMD:R_0603_1608Metric" V 5555 5600 50  0001 C CNN
F 3 "~" H 5625 5600 50  0001 C CNN
	1    5625 5600
	0    1    1    0   
$EndComp
$Comp
L Device:R R?
U 1 1 5FC7C731
P 5625 5700
AR Path="/5E997976/5FC7C731" Ref="R?"  Part="1" 
AR Path="/5EA35A8B/5FC7C731" Ref="R21"  Part="1" 
F 0 "R21" V 5600 5850 50  0000 C CNN
F 1 "0R" V 5625 5700 50  0000 C CNN
F 2 "Resistor_SMD:R_0603_1608Metric" V 5555 5700 50  0001 C CNN
F 3 "~" H 5625 5700 50  0001 C CNN
	1    5625 5700
	0    1    1    0   
$EndComp
Wire Wire Line
	5775 5600 5925 5600
Wire Wire Line
	5925 5700 5775 5700
$EndSCHEMATC
