EESchema Schematic File Version 4
EELAYER 30 0
EELAYER END
$Descr A4 11693 8268
encoding utf-8
Sheet 5 6
Title "Main Board for V3"
Date "2020-04-20"
Rev "1.0"
Comp "VentilAid"
Comment1 "Maciej Żarnowski"
Comment2 ""
Comment3 ""
Comment4 ""
$EndDescr
Text HLabel 2800 3775 0    39   Input ~ 0
ALARM_RESET
$Comp
L VentilAidMainBoard-rescue:NE555-Timer U7
U 1 1 5E9DEA03
P 5750 3425
AR Path="/5E9DEA03" Ref="U7"  Part="1" 
AR Path="/5E9D6032/5E9DEA03" Ref="U7"  Part="1" 
F 0 "U7" H 5450 3850 50  0000 C CNN
F 1 "NE555 DNP" H 5500 3775 50  0000 C CNN
F 2 "Package_SO:SO-8_5.3x6.2mm_P1.27mm" H 5750 3425 50  0001 C CNN
F 3 "http://www.ti.com/lit/ds/symlink/ne555.pdf" H 5750 3425 50  0001 C CNN
	1    5750 3425
	1    0    0    -1  
$EndComp
$Comp
L Device:C C22
U 1 1 5E9E6680
P 3075 3625
F 0 "C22" H 2960 3579 50  0000 R CNN
F 1 "1uF 10V DNP" H 2960 3670 50  0000 R CNN
F 2 "Capacitor_SMD:C_0603_1608Metric" H 3113 3475 50  0001 C CNN
F 3 "~" H 3075 3625 50  0001 C CNN
	1    3075 3625
	-1   0    0    1   
$EndComp
$Comp
L Device:D D4
U 1 1 5E9E6A53
P 3075 3275
F 0 "D4" H 3050 3025 50  0000 L CNN
F 1 "STPS340U DNP" H 2775 3150 50  0000 L CNN
F 2 "Diode_SMD:D_SMB" H 3075 3275 50  0001 C CNN
F 3 "~" H 3075 3275 50  0001 C CNN
	1    3075 3275
	0    1    1    0   
$EndComp
Wire Wire Line
	2800 3775 3075 3775
$Comp
L Device:R R76
U 1 1 5E9E7DC1
P 3075 3925
F 0 "R76" H 3145 3971 50  0000 L CNN
F 1 "10kR DNP" H 3145 3880 50  0000 L CNN
F 2 "Resistor_SMD:R_0603_1608Metric" V 3005 3925 50  0001 C CNN
F 3 "~" H 3075 3925 50  0001 C CNN
	1    3075 3925
	1    0    0    -1  
$EndComp
Connection ~ 3075 3775
$Comp
L power:GND #PWR062
U 1 1 5E9E827E
P 3075 4075
F 0 "#PWR062" H 3075 3825 50  0001 C CNN
F 1 "GND" H 3080 3902 50  0000 C CNN
F 2 "" H 3075 4075 50  0001 C CNN
F 3 "" H 3075 4075 50  0001 C CNN
	1    3075 4075
	1    0    0    -1  
$EndComp
Wire Wire Line
	3075 3475 3075 3425
$Comp
L Device:R R77
U 1 1 5E9E8950
P 3675 3275
F 0 "R77" V 3600 3475 50  0000 L CNN
F 1 "100kR DNP" V 3675 3450 50  0000 L CNN
F 2 "Resistor_SMD:R_0603_1608Metric" V 3605 3275 50  0001 C CNN
F 3 "~" H 3675 3275 50  0001 C CNN
	1    3675 3275
	1    0    0    -1  
$EndComp
$Comp
L Device:R R78
U 1 1 5E9E96C5
P 4125 3425
F 0 "R78" V 3918 3425 50  0000 C CNN
F 1 "10kR DNP" V 4009 3425 50  0000 C CNN
F 2 "Resistor_SMD:R_0603_1608Metric" V 4055 3425 50  0001 C CNN
F 3 "~" H 4125 3425 50  0001 C CNN
	1    4125 3425
	0    1    1    0   
$EndComp
Wire Wire Line
	3975 3425 3675 3425
Connection ~ 3675 3425
$Comp
L Transistor_BJT:2N3906 Q9
U 1 1 5E9EAC5E
P 4475 3425
F 0 "Q9" H 4525 3800 50  0000 L CNN
F 1 "2N3906 DNP" H 4350 3700 50  0000 L CNN
F 2 "Package_TO_SOT_THT:TO-92_Inline" H 4675 3350 50  0001 L CIN
F 3 "https://www.fairchildsemi.com/datasheets/2N/2N3906.pdf" H 4475 3425 50  0001 L CNN
	1    4475 3425
	1    0    0    -1  
$EndComp
Wire Wire Line
	3075 3125 3400 3125
Wire Wire Line
	3075 3425 3675 3425
Connection ~ 3075 3425
Wire Wire Line
	4575 3625 3400 3625
Wire Wire Line
	3400 3625 3400 3125
Connection ~ 3400 3125
Wire Wire Line
	3400 3125 3675 3125
Wire Wire Line
	5250 3225 4575 3225
Wire Wire Line
	5250 3225 5250 2375
Wire Wire Line
	5250 2375 7100 2375
Wire Wire Line
	7100 2375 7100 3625
Wire Wire Line
	7100 3625 6850 3625
Connection ~ 5250 3225
$Comp
L Device:C C26
U 1 1 5E9EFE6C
P 7100 3775
F 0 "C26" H 7100 3850 50  0000 L CNN
F 1 "1uF DNP" V 7150 3950 50  0000 L CNN
F 2 "Capacitor_SMD:C_0603_1608Metric" H 7138 3625 50  0001 C CNN
F 3 "~" H 7100 3775 50  0001 C CNN
	1    7100 3775
	1    0    0    -1  
$EndComp
Connection ~ 7100 3625
$Comp
L Device:CP C25
U 1 1 5E9F0D38
P 6850 3775
F 0 "C25" H 6850 3850 50  0000 L CNN
F 1 "47uF >16V DNP" V 6850 3975 50  0000 L CNN
F 2 "Capacitor_SMD:CP_Elec_6.3x7.7" H 6888 3625 50  0001 C CNN
F 3 "~" H 6850 3775 50  0001 C CNN
	1    6850 3775
	1    0    0    -1  
$EndComp
Connection ~ 6850 3625
Wire Wire Line
	6850 3625 6550 3625
$Comp
L power:GND #PWR068
U 1 1 5E9F158E
P 6850 3925
F 0 "#PWR068" H 6850 3675 50  0001 C CNN
F 1 "GND" H 6855 3752 50  0000 C CNN
F 2 "" H 6850 3925 50  0001 C CNN
F 3 "" H 6850 3925 50  0001 C CNN
	1    6850 3925
	1    0    0    -1  
$EndComp
Wire Wire Line
	6850 3925 7100 3925
Connection ~ 6850 3925
$Comp
L Device:R R79
U 1 1 5E9F23E6
P 6550 3775
F 0 "R79" V 6650 3725 50  0000 L CNN
F 1 "100kR DNP" V 6475 3650 50  0000 L CNN
F 2 "Resistor_SMD:R_0603_1608Metric" V 6480 3775 50  0001 C CNN
F 3 "~" H 6550 3775 50  0001 C CNN
	1    6550 3775
	1    0    0    -1  
$EndComp
Connection ~ 6550 3625
Wire Wire Line
	6550 3625 6250 3625
Wire Wire Line
	6850 3925 6550 3925
NoConn ~ 6250 3425
$Comp
L Device:C C23
U 1 1 5E9F3CBE
P 5025 3575
F 0 "C23" H 5140 3621 50  0000 L CNN
F 1 "100nF 50V DNP" V 4900 3150 50  0000 L CNN
F 2 "Capacitor_SMD:C_0603_1608Metric" H 5063 3425 50  0001 C CNN
F 3 "~" H 5025 3575 50  0001 C CNN
	1    5025 3575
	1    0    0    -1  
$EndComp
$Comp
L power:GND #PWR065
U 1 1 5E9F47F2
P 5750 3825
F 0 "#PWR065" H 5750 3575 50  0001 C CNN
F 1 "GND" H 5755 3652 50  0000 C CNN
F 2 "" H 5750 3825 50  0001 C CNN
F 3 "" H 5750 3825 50  0001 C CNN
	1    5750 3825
	1    0    0    -1  
$EndComp
$Comp
L power:GND #PWR064
U 1 1 5E9F51E2
P 5025 3725
F 0 "#PWR064" H 5025 3475 50  0001 C CNN
F 1 "GND" H 5030 3552 50  0000 C CNN
F 2 "" H 5025 3725 50  0001 C CNN
F 3 "" H 5025 3725 50  0001 C CNN
	1    5025 3725
	1    0    0    -1  
$EndComp
Wire Wire Line
	5025 3425 5250 3425
Wire Wire Line
	5250 3625 5250 4125
$Comp
L power:+3V3 #PWR063
U 1 1 5E9F6EA2
P 4700 4125
F 0 "#PWR063" H 4700 3975 50  0001 C CNN
F 1 "+3V3" H 4715 4298 50  0000 C CNN
F 2 "" H 4700 4125 50  0001 C CNN
F 3 "" H 4700 4125 50  0001 C CNN
	1    4700 4125
	1    0    0    -1  
$EndComp
Wire Wire Line
	4700 4125 5250 4125
$Comp
L power:+3V3 #PWR067
U 1 1 5E9F89B3
P 6300 2625
F 0 "#PWR067" H 6300 2475 50  0001 C CNN
F 1 "+3V3" H 6315 2798 50  0000 C CNN
F 2 "" H 6300 2625 50  0001 C CNN
F 3 "" H 6300 2625 50  0001 C CNN
	1    6300 2625
	1    0    0    -1  
$EndComp
$Comp
L Device:C C24
U 1 1 5E9F96D0
P 6100 2775
F 0 "C24" H 6215 2821 50  0000 L CNN
F 1 "100nF 50V DNP" V 5950 2500 50  0000 L CNN
F 2 "Capacitor_SMD:C_0603_1608Metric" H 6138 2625 50  0001 C CNN
F 3 "~" H 6100 2775 50  0001 C CNN
	1    6100 2775
	1    0    0    -1  
$EndComp
Wire Wire Line
	6300 2625 6100 2625
Wire Wire Line
	5750 2625 5750 3025
Connection ~ 6100 2625
Wire Wire Line
	6100 2625 5750 2625
$Comp
L power:GND #PWR066
U 1 1 5E9FD174
P 6100 2925
F 0 "#PWR066" H 6100 2675 50  0001 C CNN
F 1 "GND" H 6105 2752 50  0000 C CNN
F 2 "" H 6100 2925 50  0001 C CNN
F 3 "" H 6100 2925 50  0001 C CNN
	1    6100 2925
	1    0    0    -1  
$EndComp
$Comp
L Device:Q_NMOS_GSD Q10
U 1 1 5E9FE3AE
P 8100 2925
F 0 "Q10" H 8304 2971 50  0000 L CNN
F 1 "YJL2304A DNP" H 8304 2880 50  0000 L CNN
F 2 "Package_TO_SOT_SMD:SOT-23" H 8300 3025 50  0001 C CNN
F 3 "~" H 8100 2925 50  0001 C CNN
	1    8100 2925
	1    0    0    -1  
$EndComp
$Comp
L power:+3V3 #PWR069
U 1 1 5E9FF3BD
P 7775 2525
F 0 "#PWR069" H 7775 2375 50  0001 C CNN
F 1 "+3V3" H 7790 2698 50  0000 C CNN
F 2 "" H 7775 2525 50  0001 C CNN
F 3 "" H 7775 2525 50  0001 C CNN
	1    7775 2525
	1    0    0    -1  
$EndComp
$Comp
L Device:Buzzer BZ2
U 1 1 5EA01072
P 8650 2625
F 0 "BZ2" H 8802 2654 50  0000 L CNN
F 1 "Buzzer DNP" H 8802 2563 50  0000 L CNN
F 2 "moje_biblioteki:buzzer_D12mm_P7.6mm" V 8625 2725 50  0001 C CNN
F 3 "https://www.tme.eu/pl/details/ld-bzeg-1205/sygnalizatory-elektromag-z-generatorem/loudity/" V 8625 2725 50  0001 C CNN
	1    8650 2625
	1    0    0    -1  
$EndComp
$Comp
L Device:R R81
U 1 1 5EA01C64
P 7675 2925
F 0 "R81" V 7450 2925 50  0000 C CNN
F 1 "330R DNP" V 7525 2925 50  0000 C CNN
F 2 "Resistor_SMD:R_0603_1608Metric" V 7605 2925 50  0001 C CNN
F 3 "~" H 7675 2925 50  0001 C CNN
	1    7675 2925
	0    1    1    0   
$EndComp
Wire Wire Line
	6625 2925 6625 3225
Wire Wire Line
	6625 3225 6250 3225
Wire Wire Line
	7900 2925 7825 2925
$Comp
L Device:R R80
U 1 1 5EA0432B
P 7525 3075
F 0 "R80" V 7325 2825 50  0000 L CNN
F 1 "10kR DNP" V 7425 2825 50  0000 L CNN
F 2 "Resistor_SMD:R_0603_1608Metric" V 7455 3075 50  0001 C CNN
F 3 "~" H 7525 3075 50  0001 C CNN
	1    7525 3075
	1    0    0    -1  
$EndComp
Connection ~ 7525 2925
Wire Wire Line
	6625 2925 7525 2925
$Comp
L power:GND #PWR070
U 1 1 5EA0789B
P 8200 3225
F 0 "#PWR070" H 8200 2975 50  0001 C CNN
F 1 "GND" H 8205 3052 50  0000 C CNN
F 2 "" H 8200 3225 50  0001 C CNN
F 3 "" H 8200 3225 50  0001 C CNN
	1    8200 3225
	1    0    0    -1  
$EndComp
Wire Wire Line
	8200 3125 8200 3225
Wire Wire Line
	8200 3225 7525 3225
Connection ~ 8200 3225
Wire Wire Line
	8200 2725 8550 2725
Wire Wire Line
	8550 2525 8200 2525
$Comp
L Device:R R82
U 1 1 5EA09D1E
P 8050 2525
F 0 "R82" V 7850 2500 50  0000 C CNN
F 1 "0R DNP" V 7925 2575 50  0000 C CNN
F 2 "Resistor_SMD:R_0603_1608Metric" V 7980 2525 50  0001 C CNN
F 3 "~" H 8050 2525 50  0001 C CNN
	1    8050 2525
	0    1    1    0   
$EndComp
Wire Wire Line
	7775 2525 7900 2525
Text Notes 5175 2025 0    79   ~ 0
Missing pulse detector\nIf program hangs up it doesn't change ALARM_RESET pin state\nAfter 500ms alarm should sound
$EndSCHEMATC
