EESchema Schematic File Version 4
EELAYER 30 0
EELAYER END
$Descr A4 11693 8268
encoding utf-8
Sheet 3 7
Title "Main Board for V3"
Date "2020-04-20"
Rev "1.0"
Comp "VentilAid"
Comment1 "Maciej Żarnowski"
Comment2 ""
Comment3 ""
Comment4 ""
$EndDescr
Text HLabel 1125 1075 0    39   Input ~ 0
LED1_R
$Comp
L Device:Q_NMOS_GSD Q1
U 1 1 5EAD443C
P 2125 1075
F 0 "Q1" H 2330 1121 50  0000 L CNN
F 1 "YJL2304A" H 2330 1030 50  0000 L CNN
F 2 "Package_TO_SOT_SMD:SOT-23" H 2325 1175 50  0001 C CNN
F 3 "~" H 2125 1075 50  0001 C CNN
	1    2125 1075
	1    0    0    -1  
$EndComp
$Comp
L Device:R R20
U 1 1 5EAD51C6
P 1625 1075
F 0 "R20" V 1550 1075 50  0000 C CNN
F 1 "330R" V 1625 1075 50  0000 C CNN
F 2 "Resistor_SMD:R_0603_1608Metric" V 1555 1075 50  0001 C CNN
F 3 "~" H 1625 1075 50  0001 C CNN
	1    1625 1075
	0    1    1    0   
$EndComp
$Comp
L Device:R R17
U 1 1 5EAD57A3
P 1350 1225
F 0 "R17" H 1280 1179 50  0000 R CNN
F 1 "10kR" V 1350 1325 50  0000 R CNN
F 2 "Resistor_SMD:R_0603_1608Metric" V 1280 1225 50  0001 C CNN
F 3 "~" H 1350 1225 50  0001 C CNN
	1    1350 1225
	-1   0    0    1   
$EndComp
Wire Wire Line
	1350 1375 2225 1375
Wire Wire Line
	2225 1375 2225 1275
Wire Wire Line
	1925 1075 1775 1075
Wire Wire Line
	1475 1075 1350 1075
Connection ~ 1350 1075
Wire Wire Line
	1350 1075 1125 1075
$Comp
L power:GND #PWR09
U 1 1 5EAD5D5A
P 2225 1375
F 0 "#PWR09" H 2225 1125 50  0001 C CNN
F 1 "GND" H 2230 1202 50  0000 C CNN
F 2 "" H 2225 1375 50  0001 C CNN
F 3 "" H 2225 1375 50  0001 C CNN
	1    2225 1375
	1    0    0    -1  
$EndComp
Connection ~ 2225 1375
Text GLabel 2425 875  2    39   Input ~ 0
LED1_R_PWR
Wire Wire Line
	2425 875  2225 875 
Text HLabel 1125 1800 0    39   Input ~ 0
LED1_G
$Comp
L Device:Q_NMOS_GSD Q2
U 1 1 5EADDE86
P 2125 1800
F 0 "Q2" H 2330 1846 50  0000 L CNN
F 1 "YJL2304A" H 2330 1755 50  0000 L CNN
F 2 "Package_TO_SOT_SMD:SOT-23" H 2325 1900 50  0001 C CNN
F 3 "~" H 2125 1800 50  0001 C CNN
	1    2125 1800
	1    0    0    -1  
$EndComp
$Comp
L Device:R R21
U 1 1 5EADDE8C
P 1625 1800
F 0 "R21" V 1550 1800 50  0000 C CNN
F 1 "330R" V 1625 1800 50  0000 C CNN
F 2 "Resistor_SMD:R_0603_1608Metric" V 1555 1800 50  0001 C CNN
F 3 "~" H 1625 1800 50  0001 C CNN
	1    1625 1800
	0    1    1    0   
$EndComp
$Comp
L Device:R R18
U 1 1 5EADDE92
P 1350 1950
F 0 "R18" H 1280 1904 50  0000 R CNN
F 1 "10kR" V 1350 2050 50  0000 R CNN
F 2 "Resistor_SMD:R_0603_1608Metric" V 1280 1950 50  0001 C CNN
F 3 "~" H 1350 1950 50  0001 C CNN
	1    1350 1950
	-1   0    0    1   
$EndComp
Wire Wire Line
	1350 2100 2225 2100
Wire Wire Line
	2225 2100 2225 2000
Wire Wire Line
	1925 1800 1775 1800
Wire Wire Line
	1475 1800 1350 1800
Connection ~ 1350 1800
Wire Wire Line
	1350 1800 1125 1800
$Comp
L power:GND #PWR010
U 1 1 5EADDE9E
P 2225 2100
F 0 "#PWR010" H 2225 1850 50  0001 C CNN
F 1 "GND" H 2230 1927 50  0000 C CNN
F 2 "" H 2225 2100 50  0001 C CNN
F 3 "" H 2225 2100 50  0001 C CNN
	1    2225 2100
	1    0    0    -1  
$EndComp
Connection ~ 2225 2100
Text GLabel 2425 1600 2    39   Input ~ 0
LED1_G_PWR
Wire Wire Line
	2425 1600 2225 1600
Text HLabel 1125 2525 0    39   Input ~ 0
LED1_B
$Comp
L Device:Q_NMOS_GSD Q3
U 1 1 5EAE14C2
P 2125 2525
F 0 "Q3" H 2330 2571 50  0000 L CNN
F 1 "YJL2304A" H 2330 2480 50  0000 L CNN
F 2 "Package_TO_SOT_SMD:SOT-23" H 2325 2625 50  0001 C CNN
F 3 "~" H 2125 2525 50  0001 C CNN
	1    2125 2525
	1    0    0    -1  
$EndComp
$Comp
L Device:R R22
U 1 1 5EAE14C8
P 1625 2525
F 0 "R22" V 1550 2525 50  0000 C CNN
F 1 "330R" V 1625 2525 50  0000 C CNN
F 2 "Resistor_SMD:R_0603_1608Metric" V 1555 2525 50  0001 C CNN
F 3 "~" H 1625 2525 50  0001 C CNN
	1    1625 2525
	0    1    1    0   
$EndComp
$Comp
L Device:R R19
U 1 1 5EAE14CE
P 1350 2675
F 0 "R19" H 1280 2629 50  0000 R CNN
F 1 "10kR" V 1350 2775 50  0000 R CNN
F 2 "Resistor_SMD:R_0603_1608Metric" V 1280 2675 50  0001 C CNN
F 3 "~" H 1350 2675 50  0001 C CNN
	1    1350 2675
	-1   0    0    1   
$EndComp
Wire Wire Line
	1350 2825 2225 2825
Wire Wire Line
	2225 2825 2225 2725
Wire Wire Line
	1925 2525 1775 2525
Wire Wire Line
	1475 2525 1350 2525
Connection ~ 1350 2525
Wire Wire Line
	1350 2525 1125 2525
$Comp
L power:GND #PWR011
U 1 1 5EAE14DA
P 2225 2825
F 0 "#PWR011" H 2225 2575 50  0001 C CNN
F 1 "GND" H 2230 2652 50  0000 C CNN
F 2 "" H 2225 2825 50  0001 C CNN
F 3 "" H 2225 2825 50  0001 C CNN
	1    2225 2825
	1    0    0    -1  
$EndComp
Connection ~ 2225 2825
Text GLabel 2425 2325 2    39   Input ~ 0
LED1_B_PWR
Wire Wire Line
	2425 2325 2225 2325
Text HLabel 3625 1075 0    39   Input ~ 0
LED2_R
$Comp
L Device:Q_NMOS_GSD Q4
U 1 1 5EAFB7F2
P 4625 1075
F 0 "Q4" H 4830 1121 50  0000 L CNN
F 1 "YJL2304A" H 4830 1030 50  0000 L CNN
F 2 "Package_TO_SOT_SMD:SOT-23" H 4825 1175 50  0001 C CNN
F 3 "~" H 4625 1075 50  0001 C CNN
	1    4625 1075
	1    0    0    -1  
$EndComp
$Comp
L Device:R R26
U 1 1 5EAFB7F8
P 4125 1075
F 0 "R26" V 4050 1075 50  0000 C CNN
F 1 "330R" V 4125 1075 50  0000 C CNN
F 2 "Resistor_SMD:R_0603_1608Metric" V 4055 1075 50  0001 C CNN
F 3 "~" H 4125 1075 50  0001 C CNN
	1    4125 1075
	0    1    1    0   
$EndComp
$Comp
L Device:R R23
U 1 1 5EAFB7FE
P 3850 1225
F 0 "R23" H 3780 1179 50  0000 R CNN
F 1 "10kR" V 3850 1325 50  0000 R CNN
F 2 "Resistor_SMD:R_0603_1608Metric" V 3780 1225 50  0001 C CNN
F 3 "~" H 3850 1225 50  0001 C CNN
	1    3850 1225
	-1   0    0    1   
$EndComp
Wire Wire Line
	3850 1375 4725 1375
Wire Wire Line
	4725 1375 4725 1275
Wire Wire Line
	4425 1075 4275 1075
Wire Wire Line
	3975 1075 3850 1075
Connection ~ 3850 1075
Wire Wire Line
	3850 1075 3625 1075
$Comp
L power:GND #PWR012
U 1 1 5EAFB80A
P 4725 1375
F 0 "#PWR012" H 4725 1125 50  0001 C CNN
F 1 "GND" H 4730 1202 50  0000 C CNN
F 2 "" H 4725 1375 50  0001 C CNN
F 3 "" H 4725 1375 50  0001 C CNN
	1    4725 1375
	1    0    0    -1  
$EndComp
Connection ~ 4725 1375
Text GLabel 4925 875  2    39   Input ~ 0
LED2_R_PWR
Wire Wire Line
	4925 875  4725 875 
Text HLabel 3625 1800 0    39   Input ~ 0
LED2_G
$Comp
L Device:Q_NMOS_GSD Q5
U 1 1 5EAFB814
P 4625 1800
F 0 "Q5" H 4830 1846 50  0000 L CNN
F 1 "YJL2304A" H 4830 1755 50  0000 L CNN
F 2 "Package_TO_SOT_SMD:SOT-23" H 4825 1900 50  0001 C CNN
F 3 "~" H 4625 1800 50  0001 C CNN
	1    4625 1800
	1    0    0    -1  
$EndComp
$Comp
L Device:R R27
U 1 1 5EAFB81A
P 4125 1800
F 0 "R27" V 4050 1800 50  0000 C CNN
F 1 "330R" V 4125 1800 50  0000 C CNN
F 2 "Resistor_SMD:R_0603_1608Metric" V 4055 1800 50  0001 C CNN
F 3 "~" H 4125 1800 50  0001 C CNN
	1    4125 1800
	0    1    1    0   
$EndComp
$Comp
L Device:R R24
U 1 1 5EAFB820
P 3850 1950
F 0 "R24" H 3780 1904 50  0000 R CNN
F 1 "10kR" V 3850 2050 50  0000 R CNN
F 2 "Resistor_SMD:R_0603_1608Metric" V 3780 1950 50  0001 C CNN
F 3 "~" H 3850 1950 50  0001 C CNN
	1    3850 1950
	-1   0    0    1   
$EndComp
Wire Wire Line
	3850 2100 4725 2100
Wire Wire Line
	4725 2100 4725 2000
Wire Wire Line
	4425 1800 4275 1800
Wire Wire Line
	3975 1800 3850 1800
Connection ~ 3850 1800
Wire Wire Line
	3850 1800 3625 1800
$Comp
L power:GND #PWR013
U 1 1 5EAFB82C
P 4725 2100
F 0 "#PWR013" H 4725 1850 50  0001 C CNN
F 1 "GND" H 4730 1927 50  0000 C CNN
F 2 "" H 4725 2100 50  0001 C CNN
F 3 "" H 4725 2100 50  0001 C CNN
	1    4725 2100
	1    0    0    -1  
$EndComp
Connection ~ 4725 2100
Text GLabel 4925 1600 2    39   Input ~ 0
LED2_G_PWR
Wire Wire Line
	4925 1600 4725 1600
Text HLabel 3625 2525 0    39   Input ~ 0
LED2_B
$Comp
L Device:Q_NMOS_GSD Q6
U 1 1 5EAFB836
P 4625 2525
F 0 "Q6" H 4830 2571 50  0000 L CNN
F 1 "YJL2304A" H 4830 2480 50  0000 L CNN
F 2 "Package_TO_SOT_SMD:SOT-23" H 4825 2625 50  0001 C CNN
F 3 "~" H 4625 2525 50  0001 C CNN
	1    4625 2525
	1    0    0    -1  
$EndComp
$Comp
L Device:R R28
U 1 1 5EAFB83C
P 4125 2525
F 0 "R28" V 4050 2525 50  0000 C CNN
F 1 "330R" V 4125 2525 50  0000 C CNN
F 2 "Resistor_SMD:R_0603_1608Metric" V 4055 2525 50  0001 C CNN
F 3 "~" H 4125 2525 50  0001 C CNN
	1    4125 2525
	0    1    1    0   
$EndComp
$Comp
L Device:R R25
U 1 1 5EAFB842
P 3850 2675
F 0 "R25" H 3780 2629 50  0000 R CNN
F 1 "10kR" V 3850 2775 50  0000 R CNN
F 2 "Resistor_SMD:R_0603_1608Metric" V 3780 2675 50  0001 C CNN
F 3 "~" H 3850 2675 50  0001 C CNN
	1    3850 2675
	-1   0    0    1   
$EndComp
Wire Wire Line
	3850 2825 4725 2825
Wire Wire Line
	4725 2825 4725 2725
Wire Wire Line
	4425 2525 4275 2525
Wire Wire Line
	3975 2525 3850 2525
Connection ~ 3850 2525
Wire Wire Line
	3850 2525 3625 2525
$Comp
L power:GND #PWR014
U 1 1 5EAFB84E
P 4725 2825
F 0 "#PWR014" H 4725 2575 50  0001 C CNN
F 1 "GND" H 4730 2652 50  0000 C CNN
F 2 "" H 4725 2825 50  0001 C CNN
F 3 "" H 4725 2825 50  0001 C CNN
	1    4725 2825
	1    0    0    -1  
$EndComp
Connection ~ 4725 2825
Text GLabel 4925 2325 2    39   Input ~ 0
LED2_B_PWR
Wire Wire Line
	4925 2325 4725 2325
$Comp
L Device:LED_RGB D1
U 1 1 5EB106E9
P 6825 1825
F 0 "D1" H 6825 1358 50  0000 C CNN
F 1 "LED1" H 6825 1449 50  0000 C CNN
F 2 "LED_SMD:LED_RGB_5050-6" H 6825 1775 50  0001 C CNN
F 3 "~" H 6825 1775 50  0001 C CNN
	1    6825 1825
	-1   0    0    1   
$EndComp
$Comp
L Device:R R29
U 1 1 5EB12518
P 7525 1625
F 0 "R29" V 7450 1625 50  0000 C CNN
F 1 "1kR" V 7525 1625 50  0000 C CNN
F 2 "Resistor_SMD:R_0603_1608Metric" V 7455 1625 50  0001 C CNN
F 3 "~" H 7525 1625 50  0001 C CNN
	1    7525 1625
	0    1    1    0   
$EndComp
$Comp
L Device:R R30
U 1 1 5EB12DB9
P 7525 1825
F 0 "R30" V 7450 1825 50  0000 C CNN
F 1 "1kR" V 7525 1825 50  0000 C CNN
F 2 "Resistor_SMD:R_0603_1608Metric" V 7455 1825 50  0001 C CNN
F 3 "~" H 7525 1825 50  0001 C CNN
	1    7525 1825
	0    1    1    0   
$EndComp
$Comp
L Device:R R31
U 1 1 5EB12F8A
P 7525 2025
F 0 "R31" V 7450 2025 50  0000 C CNN
F 1 "1kR" V 7525 2025 50  0000 C CNN
F 2 "Resistor_SMD:R_0603_1608Metric" V 7455 2025 50  0001 C CNN
F 3 "~" H 7525 2025 50  0001 C CNN
	1    7525 2025
	0    1    1    0   
$EndComp
$Comp
L power:+3V3 #PWR015
U 1 1 5EB1350C
P 6625 1425
F 0 "#PWR015" H 6625 1275 50  0001 C CNN
F 1 "+3V3" H 6640 1598 50  0000 C CNN
F 2 "" H 6625 1425 50  0001 C CNN
F 3 "" H 6625 1425 50  0001 C CNN
	1    6625 1425
	1    0    0    -1  
$EndComp
Text GLabel 7675 2025 2    39   Input ~ 0
LED1_R_PWR
Text GLabel 7675 1825 2    39   Input ~ 0
LED1_G_PWR
Text GLabel 7675 1625 2    39   Input ~ 0
LED1_B_PWR
Text GLabel 7675 3625 2    39   Input ~ 0
LED2_R_PWR
Text GLabel 7675 3425 2    39   Input ~ 0
LED2_G_PWR
Text GLabel 7675 3225 2    39   Input ~ 0
LED2_B_PWR
$Comp
L Connector_Generic:Conn_01x04 J1
U 1 1 5EB1CB23
P 6875 1100
F 0 "J1" H 6793 675 50  0000 C CNN
F 1 "LED1_EX" H 6793 766 50  0000 C CNN
F 2 "moje_biblioteki:KK_1x4_pin" H 6875 1100 50  0001 C CNN
F 3 "~" H 6875 1100 50  0001 C CNN
	1    6875 1100
	-1   0    0    1   
$EndComp
$Comp
L power:+3V3 #PWR017
U 1 1 5EB1D9D7
P 7325 900
F 0 "#PWR017" H 7325 750 50  0001 C CNN
F 1 "+3V3" H 7340 1073 50  0000 C CNN
F 2 "" H 7325 900 50  0001 C CNN
F 3 "" H 7325 900 50  0001 C CNN
	1    7325 900 
	1    0    0    -1  
$EndComp
Wire Wire Line
	7325 900  7075 900 
Wire Wire Line
	6625 1425 6625 1625
Wire Wire Line
	7375 1625 7025 1625
Wire Wire Line
	7025 1825 7275 1825
Wire Wire Line
	7375 2025 7175 2025
Connection ~ 6625 1625
Wire Wire Line
	6625 1625 6625 1825
Connection ~ 6625 1825
Wire Wire Line
	6625 1825 6625 2025
Wire Wire Line
	7375 1625 7375 1000
Wire Wire Line
	7375 1000 7075 1000
Connection ~ 7375 1625
Wire Wire Line
	7075 1100 7275 1100
Wire Wire Line
	7275 1100 7275 1825
Connection ~ 7275 1825
Wire Wire Line
	7275 1825 7375 1825
Wire Wire Line
	7075 1200 7175 1200
Wire Wire Line
	7175 1200 7175 2025
Connection ~ 7175 2025
Wire Wire Line
	7175 2025 7025 2025
$Comp
L Device:LED_RGB D2
U 1 1 5EB450DC
P 6825 3425
F 0 "D2" H 6825 2958 50  0000 C CNN
F 1 "LED1" H 6825 3049 50  0000 C CNN
F 2 "LED_SMD:LED_RGB_5050-6" H 6825 3375 50  0001 C CNN
F 3 "~" H 6825 3375 50  0001 C CNN
	1    6825 3425
	-1   0    0    1   
$EndComp
$Comp
L Device:R R32
U 1 1 5EB450E2
P 7525 3225
F 0 "R32" V 7450 3225 50  0000 C CNN
F 1 "1kR" V 7525 3225 50  0000 C CNN
F 2 "Resistor_SMD:R_0603_1608Metric" V 7455 3225 50  0001 C CNN
F 3 "~" H 7525 3225 50  0001 C CNN
	1    7525 3225
	0    1    1    0   
$EndComp
$Comp
L Device:R R33
U 1 1 5EB450E8
P 7525 3425
F 0 "R33" V 7450 3425 50  0000 C CNN
F 1 "1kR" V 7525 3425 50  0000 C CNN
F 2 "Resistor_SMD:R_0603_1608Metric" V 7455 3425 50  0001 C CNN
F 3 "~" H 7525 3425 50  0001 C CNN
	1    7525 3425
	0    1    1    0   
$EndComp
$Comp
L Device:R R34
U 1 1 5EB450EE
P 7525 3625
F 0 "R34" V 7450 3625 50  0000 C CNN
F 1 "1kR" V 7525 3625 50  0000 C CNN
F 2 "Resistor_SMD:R_0603_1608Metric" V 7455 3625 50  0001 C CNN
F 3 "~" H 7525 3625 50  0001 C CNN
	1    7525 3625
	0    1    1    0   
$EndComp
$Comp
L power:+3V3 #PWR016
U 1 1 5EB450F4
P 6625 3025
F 0 "#PWR016" H 6625 2875 50  0001 C CNN
F 1 "+3V3" H 6640 3198 50  0000 C CNN
F 2 "" H 6625 3025 50  0001 C CNN
F 3 "" H 6625 3025 50  0001 C CNN
	1    6625 3025
	1    0    0    -1  
$EndComp
$Comp
L Connector_Generic:Conn_01x04 J2
U 1 1 5EB450FA
P 6875 2700
F 0 "J2" H 6793 2275 50  0000 C CNN
F 1 "LED2_EX" H 6793 2366 50  0000 C CNN
F 2 "moje_biblioteki:KK_1x4_pin" H 6875 2700 50  0001 C CNN
F 3 "~" H 6875 2700 50  0001 C CNN
	1    6875 2700
	-1   0    0    1   
$EndComp
$Comp
L power:+3V3 #PWR018
U 1 1 5EB45100
P 7325 2500
F 0 "#PWR018" H 7325 2350 50  0001 C CNN
F 1 "+3V3" H 7340 2673 50  0000 C CNN
F 2 "" H 7325 2500 50  0001 C CNN
F 3 "" H 7325 2500 50  0001 C CNN
	1    7325 2500
	1    0    0    -1  
$EndComp
Wire Wire Line
	7325 2500 7075 2500
Wire Wire Line
	6625 3025 6625 3225
Wire Wire Line
	7375 3225 7025 3225
Wire Wire Line
	7025 3425 7275 3425
Wire Wire Line
	7375 3625 7175 3625
Connection ~ 6625 3225
Wire Wire Line
	6625 3225 6625 3425
Connection ~ 6625 3425
Wire Wire Line
	6625 3425 6625 3625
Wire Wire Line
	7375 3225 7375 2600
Wire Wire Line
	7375 2600 7075 2600
Connection ~ 7375 3225
Wire Wire Line
	7075 2700 7275 2700
Wire Wire Line
	7275 2700 7275 3425
Connection ~ 7275 3425
Wire Wire Line
	7275 3425 7375 3425
Wire Wire Line
	7075 2800 7175 2800
Wire Wire Line
	7175 2800 7175 3625
Connection ~ 7175 3625
Wire Wire Line
	7175 3625 7025 3625
$EndSCHEMATC
