EESchema Schematic File Version 4
EELAYER 30 0
EELAYER END
$Descr A4 11693 8268
encoding utf-8
Sheet 6 6
Title ""
Date ""
Rev ""
Comp ""
Comment1 ""
Comment2 ""
Comment3 ""
Comment4 ""
$EndDescr
$Comp
L power:+12V #PWR071
U 1 1 5EB4ADF2
P 2375 2400
F 0 "#PWR071" H 2375 2250 50  0001 C CNN
F 1 "+12V" H 2390 2573 50  0000 C CNN
F 2 "" H 2375 2400 50  0001 C CNN
F 3 "" H 2375 2400 50  0001 C CNN
	1    2375 2400
	1    0    0    -1  
$EndComp
$Comp
L power:+5V #PWR074
U 1 1 5EB4BBDF
P 5550 2400
F 0 "#PWR074" H 5550 2250 50  0001 C CNN
F 1 "+5V" H 5565 2573 50  0000 C CNN
F 2 "" H 5550 2400 50  0001 C CNN
F 3 "" H 5550 2400 50  0001 C CNN
	1    5550 2400
	1    0    0    -1  
$EndComp
$Comp
L power:+3V3 #PWR077
U 1 1 5EB4D294
P 8975 2400
F 0 "#PWR077" H 8975 2250 50  0001 C CNN
F 1 "+3V3" H 8990 2573 50  0000 C CNN
F 2 "" H 8975 2400 50  0001 C CNN
F 3 "" H 8975 2400 50  0001 C CNN
	1    8975 2400
	1    0    0    -1  
$EndComp
$Comp
L _moje:AMSR-78-NZ U8
U 1 1 5EB4E9C9
P 4775 2450
F 0 "U8" H 4775 2765 50  0000 C CNN
F 1 " R-78E5.0-1.0 RECOM " H 4775 2674 50  0000 C CNN
F 2 "moje_biblioteki:AMSR_78_NZ" H 4775 1850 50  0001 C CNN
F 3 "https://www.tme.eu/pl/details/r-78e5.0-1.0/przetworniki-dc-dc/recom/" H 4775 2350 50  0001 C CNN
	1    4775 2450
	1    0    0    -1  
$EndComp
$Comp
L power:GND #PWR073
U 1 1 5EB4F4AE
P 4775 2750
F 0 "#PWR073" H 4775 2500 50  0001 C CNN
F 1 "GND" H 4780 2577 50  0000 C CNN
F 2 "" H 4775 2750 50  0001 C CNN
F 3 "" H 4775 2750 50  0001 C CNN
	1    4775 2750
	1    0    0    -1  
$EndComp
$Comp
L Device:C C30
U 1 1 5EB502BB
P 5300 2550
F 0 "C30" H 5300 2625 50  0000 L CNN
F 1 "10uF 10V" V 5300 1950 50  0000 L CNN
F 2 "Capacitor_SMD:C_0603_1608Metric" H 5338 2400 50  0001 C CNN
F 3 "~" H 5300 2550 50  0001 C CNN
	1    5300 2550
	1    0    0    -1  
$EndComp
Wire Wire Line
	5125 2400 5300 2400
Connection ~ 5300 2400
Wire Wire Line
	5300 2400 5550 2400
Wire Wire Line
	5300 2700 5300 2750
Connection ~ 4775 2750
$Comp
L Device:C C29
U 1 1 5EB51936
P 4250 2550
F 0 "C29" H 4365 2596 50  0000 L CNN
F 1 "10uF 50V" V 4250 2875 50  0000 L CNN
F 2 "Capacitor_SMD:C_1210_3225Metric" H 4288 2400 50  0001 C CNN
F 3 "https://www.tme.eu/pl/details/cl32b106kbjnnne/kondensatory-mlcc-smd-1210/samsung/" H 4250 2550 50  0001 C CNN
	1    4250 2550
	1    0    0    -1  
$EndComp
$Comp
L Device:L L2
U 1 1 5EB53250
P 3900 2400
F 0 "L2" V 4090 2400 50  0000 C CNN
F 1 "12uH RLS-126" V 3999 2400 50  0000 C CNN
F 2 "moje_biblioteki:RLS-126" H 3900 2400 50  0001 C CNN
F 3 "https://pl.mouser.com/ProductDetail/RECOM-Power/RLS-126?qs=gZXFycFWdAMcIZPu0z1CRg%3D%3D" H 3900 2400 50  0001 C CNN
	1    3900 2400
	0    -1   -1   0   
$EndComp
Wire Wire Line
	4050 2400 4250 2400
Connection ~ 4250 2400
Wire Wire Line
	4250 2400 4325 2400
Wire Wire Line
	4250 2750 4250 2700
Wire Wire Line
	4250 2750 4775 2750
Wire Wire Line
	4775 2750 5300 2750
$Comp
L Device:C C28
U 1 1 5EB53BC0
P 3625 2550
F 0 "C28" H 3740 2596 50  0000 L CNN
F 1 "10uF 50V" V 3625 2875 50  0000 L CNN
F 2 "Capacitor_SMD:C_1210_3225Metric" H 3663 2400 50  0001 C CNN
F 3 "https://www.tme.eu/pl/details/cl32b106kbjnnne/kondensatory-mlcc-smd-1210/samsung/" H 3625 2550 50  0001 C CNN
	1    3625 2550
	1    0    0    -1  
$EndComp
Wire Wire Line
	3750 2400 3625 2400
Wire Wire Line
	3625 2700 3625 2750
Wire Wire Line
	3625 2750 4250 2750
Connection ~ 4250 2750
$Comp
L Regulator_Linear:AZ1117-3.3 U9
U 1 1 5EB5F625
P 8025 2400
F 0 "U9" H 8025 2642 50  0000 C CNN
F 1 "AZ1117-3.3" H 8025 2551 50  0000 C CNN
F 2 "Package_TO_SOT_SMD:SOT-223-3_TabPin2" H 8025 2650 50  0001 C CIN
F 3 "https://www.diodes.com/assets/Datasheets/AZ1117.pdf" H 8025 2400 50  0001 C CNN
	1    8025 2400
	1    0    0    -1  
$EndComp
$Comp
L power:GND #PWR076
U 1 1 5EB60F2B
P 8025 2700
F 0 "#PWR076" H 8025 2450 50  0001 C CNN
F 1 "GND" H 8030 2527 50  0000 C CNN
F 2 "" H 8025 2700 50  0001 C CNN
F 3 "" H 8025 2700 50  0001 C CNN
	1    8025 2700
	1    0    0    -1  
$EndComp
$Comp
L Device:Ferrite_Bead FB2
U 1 1 5EB61D2E
P 6925 2400
F 0 "FB2" V 6651 2400 50  0000 C CNN
F 1 "BLM18EG101TN1D" V 6742 2400 50  0000 C CNN
F 2 "Resistor_SMD:R_0603_1608Metric" V 6855 2400 50  0001 C CNN
F 3 "~" H 6925 2400 50  0001 C CNN
	1    6925 2400
	0    1    1    0   
$EndComp
Wire Wire Line
	7075 2400 7100 2400
Connection ~ 5550 2400
$Comp
L Device:C C32
U 1 1 5EB639A0
P 7100 2550
F 0 "C32" H 7100 2625 50  0000 L CNN
F 1 "100nF 50V" V 7100 1950 50  0000 L CNN
F 2 "Capacitor_SMD:C_0603_1608Metric" H 7138 2400 50  0001 C CNN
F 3 "~" H 7100 2550 50  0001 C CNN
	1    7100 2550
	1    0    0    -1  
$EndComp
Connection ~ 7100 2400
$Comp
L Device:C C33
U 1 1 5EB65158
P 7400 2550
F 0 "C33" H 7400 2625 50  0000 L CNN
F 1 "1uF 16V" V 7400 2025 50  0000 L CNN
F 2 "Capacitor_SMD:C_0603_1608Metric" H 7438 2400 50  0001 C CNN
F 3 "~" H 7400 2550 50  0001 C CNN
	1    7400 2550
	1    0    0    -1  
$EndComp
Wire Wire Line
	7100 2400 7400 2400
Connection ~ 7400 2400
Wire Wire Line
	7400 2400 7725 2400
Wire Wire Line
	7100 2700 7400 2700
Connection ~ 8025 2700
Connection ~ 7400 2700
Wire Wire Line
	7400 2700 8025 2700
$Comp
L Device:C C34
U 1 1 5EB67777
P 8375 2550
F 0 "C34" H 8375 2625 50  0000 L CNN
F 1 "100nF 50V" V 8375 1950 50  0000 L CNN
F 2 "Capacitor_SMD:C_0603_1608Metric" H 8413 2400 50  0001 C CNN
F 3 "~" H 8375 2550 50  0001 C CNN
	1    8375 2550
	1    0    0    -1  
$EndComp
$Comp
L Device:C C35
U 1 1 5EB6777D
P 8675 2550
F 0 "C35" H 8675 2625 50  0000 L CNN
F 1 "1uF 16V" V 8675 2025 50  0000 L CNN
F 2 "Capacitor_SMD:C_0603_1608Metric" H 8713 2400 50  0001 C CNN
F 3 "~" H 8675 2550 50  0001 C CNN
	1    8675 2550
	1    0    0    -1  
$EndComp
Wire Wire Line
	8025 2700 8375 2700
Connection ~ 8375 2700
Wire Wire Line
	8375 2700 8675 2700
Text Notes 5250 2375 0    39   ~ 0
1A@5V
Text Notes 8725 2375 0    39   ~ 0
1A@3V
Wire Wire Line
	8325 2400 8375 2400
Connection ~ 8675 2400
Wire Wire Line
	8675 2400 8975 2400
Connection ~ 8375 2400
Wire Wire Line
	8375 2400 8675 2400
$Comp
L Device:R R85
U 1 1 5EB6A186
P 5550 2550
F 0 "R85" H 5600 2625 50  0000 L CNN
F 1 "47kR" V 5550 2450 50  0000 L CNN
F 2 "Resistor_SMD:R_0603_1608Metric" V 5480 2550 50  0001 C CNN
F 3 "~" H 5550 2550 50  0001 C CNN
	1    5550 2550
	1    0    0    -1  
$EndComp
$Comp
L Device:R R86
U 1 1 5EB6B327
P 5550 2850
F 0 "R86" H 5600 2925 50  0000 L CNN
F 1 "4k7R" V 5550 2750 50  0000 L CNN
F 2 "Resistor_SMD:R_0603_1608Metric" V 5480 2850 50  0001 C CNN
F 3 "~" H 5550 2850 50  0001 C CNN
	1    5550 2850
	1    0    0    -1  
$EndComp
$Comp
L Device:C C31
U 1 1 5EB6BF7E
P 5800 2850
F 0 "C31" H 5800 2925 50  0000 L CNN
F 1 "100nF 50V" V 5800 2250 50  0000 L CNN
F 2 "Capacitor_SMD:C_0603_1608Metric" H 5838 2700 50  0001 C CNN
F 3 "~" H 5800 2850 50  0001 C CNN
	1    5800 2850
	1    0    0    -1  
$EndComp
Wire Wire Line
	5550 3000 5800 3000
$Comp
L power:GND #PWR075
U 1 1 5EB6D4D5
P 5975 3000
F 0 "#PWR075" H 5975 2750 50  0001 C CNN
F 1 "GND" H 5980 2827 50  0000 C CNN
F 2 "" H 5975 3000 50  0001 C CNN
F 3 "" H 5975 3000 50  0001 C CNN
	1    5975 3000
	1    0    0    -1  
$EndComp
Wire Wire Line
	5975 3000 5800 3000
Connection ~ 5800 3000
Wire Wire Line
	5800 2700 5550 2700
Connection ~ 5550 2700
Text HLabel 5800 2700 2    39   Input ~ 0
5V_MEAS
$Comp
L Device:R R83
U 1 1 5EB75EFA
P 4600 1100
F 0 "R83" H 4650 1175 50  0000 L CNN
F 1 "47kR" V 4600 1000 50  0000 L CNN
F 2 "Resistor_SMD:R_0603_1608Metric" V 4530 1100 50  0001 C CNN
F 3 "~" H 4600 1100 50  0001 C CNN
	1    4600 1100
	1    0    0    -1  
$EndComp
$Comp
L Device:R R84
U 1 1 5EB75F00
P 4600 1400
F 0 "R84" H 4650 1475 50  0000 L CNN
F 1 "4k7R" V 4600 1300 50  0000 L CNN
F 2 "Resistor_SMD:R_0603_1608Metric" V 4530 1400 50  0001 C CNN
F 3 "~" H 4600 1400 50  0001 C CNN
	1    4600 1400
	1    0    0    -1  
$EndComp
$Comp
L Device:C C27
U 1 1 5EB75F06
P 4850 1400
F 0 "C27" H 4850 1475 50  0000 L CNN
F 1 "100nF 50V" V 4850 800 50  0000 L CNN
F 2 "Capacitor_SMD:C_0603_1608Metric" H 4888 1250 50  0001 C CNN
F 3 "~" H 4850 1400 50  0001 C CNN
	1    4850 1400
	1    0    0    -1  
$EndComp
Wire Wire Line
	4600 1550 4850 1550
$Comp
L power:GND #PWR072
U 1 1 5EB75F0D
P 5025 1550
F 0 "#PWR072" H 5025 1300 50  0001 C CNN
F 1 "GND" H 5030 1377 50  0000 C CNN
F 2 "" H 5025 1550 50  0001 C CNN
F 3 "" H 5025 1550 50  0001 C CNN
	1    5025 1550
	1    0    0    -1  
$EndComp
Wire Wire Line
	5025 1550 4850 1550
Connection ~ 4850 1550
Wire Wire Line
	4850 1250 4600 1250
Connection ~ 4600 1250
Text HLabel 4850 1250 2    39   Input ~ 0
12V_MEAS
$Comp
L Device:Polyfuse F?
U 1 1 5F9D3147
P 6350 2400
AR Path="/5EA35A8B/5F9D3147" Ref="F?"  Part="1" 
AR Path="/5EB48B18/5F9D3147" Ref="F5"  Part="1" 
F 0 "F5" V 6275 2350 50  0000 C CNN
F 1 " 0ZCJ0025AF2E" H 5950 2400 50  0000 C CNN
F 2 "Fuse:Fuse_1206_3216Metric" H 6400 2200 50  0001 L CNN
F 3 "https://www.tme.eu/pl/details/0zcj0025af2e/bezpieczniki-polimerowe-smd/bel-fuse/" H 6350 2400 50  0001 C CNN
	1    6350 2400
	0    1    1    0   
$EndComp
Wire Wire Line
	5550 2400 6200 2400
Wire Wire Line
	6500 2400 6775 2400
Connection ~ 3625 2400
$Comp
L Device:Polyfuse F4
U 1 1 5F9DCE17
P 2700 2400
F 0 "F4" V 2475 2400 50  0000 C CNN
F 1 "SD035-16" V 2566 2400 50  0000 C CNN
F 2 "Fuse:Fuse_1812_4532Metric" H 2750 2200 50  0001 L CNN
F 3 "https://www.tme.eu/pl/details/sd035-16/bezpieczniki-polimerowe-smd/ece/" H 2700 2400 50  0001 C CNN
	1    2700 2400
	0    1    1    0   
$EndComp
Wire Wire Line
	2375 2400 2550 2400
Wire Wire Line
	2850 2400 3625 2400
Wire Wire Line
	4600 950  4325 950 
Wire Wire Line
	4325 950  4325 2400
Connection ~ 4325 2400
Wire Wire Line
	4325 2400 4425 2400
$EndSCHEMATC
