EESchema Schematic File Version 4
EELAYER 30 0
EELAYER END
$Descr A4 11693 8268
encoding utf-8
Sheet 2 6
Title "Main Board for V3"
Date "2020-04-20"
Rev "1.0"
Comp "VentilAid"
Comment1 "Maciej Żarnowski"
Comment2 ""
Comment3 ""
Comment4 ""
$EndDescr
$Comp
L _moje:ABPMRRN060MDSA3 U1
U 1 1 5FA81AB4
P 2000 1975
F 0 "U1" H 2000 2340 50  0000 C CNN
F 1 "ABPMRRN060MDSA3" H 2000 2249 50  0000 C CNN
F 2 "moje_biblioteki:ABPMRRN060MDSA3" H 2000 1975 50  0001 C CNN
F 3 "https://www.tme.eu/pl/details/abpmrrn060mdsa3/czujniki-cisnienia/honeywell/" H 2000 1975 50  0001 C CNN
	1    2000 1975
	1    0    0    -1  
$EndComp
$Comp
L _moje:HSCDRRV001PGSA3 U2
U 1 1 5FA81ABA
P 2000 2900
F 0 "U2" H 2000 3315 50  0000 C CNN
F 1 "HSCDRRV001PGSA3" H 2000 3224 50  0000 C CNN
F 2 "moje_biblioteki:HSCDRRV001PGSA3" H 2000 2900 50  0001 C CNN
F 3 "https://www.tme.eu/pl/details/hscdrrv001pgsa3/czujniki-cisnienia/honeywell/" H 2000 2900 50  0001 C CNN
	1    2000 2900
	1    0    0    -1  
$EndComp
Text HLabel 1525 2950 0    39   Input ~ 0
MISO
Wire Wire Line
	1525 2950 1650 2950
Text HLabel 1525 3050 0    39   Input ~ 0
SCLK
Wire Wire Line
	1525 3050 1650 3050
NoConn ~ 2350 2850
NoConn ~ 2350 2950
NoConn ~ 2350 3050
$Comp
L power:GND #PWR01
U 1 1 5FA81ADB
P 1350 2400
F 0 "#PWR01" H 1350 2150 50  0001 C CNN
F 1 "GND" H 1355 2227 50  0000 C CNN
F 2 "" H 1350 2400 50  0001 C CNN
F 3 "" H 1350 2400 50  0001 C CNN
	1    1350 2400
	1    0    0    -1  
$EndComp
$Comp
L power:+3V3 #PWR02
U 1 1 5FA81AE1
P 1350 2850
F 0 "#PWR02" H 1350 2700 50  0001 C CNN
F 1 "+3V3" H 1365 3023 50  0000 C CNN
F 2 "" H 1350 2850 50  0001 C CNN
F 3 "" H 1350 2850 50  0001 C CNN
	1    1350 2850
	1    0    0    -1  
$EndComp
Wire Wire Line
	1550 2750 1650 2750
Text HLabel 2475 1975 2    39   Input ~ 0
MISO
Wire Wire Line
	2475 1975 2350 1975
Text HLabel 2475 1875 2    39   Input ~ 0
SCLK
Wire Wire Line
	2475 1875 2350 1875
NoConn ~ 2350 2075
$Comp
L power:GND #PWR04
U 1 1 5FA81B0D
P 1675 1425
F 0 "#PWR04" H 1675 1175 50  0001 C CNN
F 1 "GND" H 1680 1252 50  0000 C CNN
F 2 "" H 1675 1425 50  0001 C CNN
F 3 "" H 1675 1425 50  0001 C CNN
	1    1675 1425
	1    0    0    -1  
$EndComp
$Comp
L Device:C C1
U 1 1 5FA81B13
P 1675 1275
F 0 "C1" V 1775 1450 50  0000 L CNN
F 1 "100nF 50V" V 1850 1475 50  0000 L CNN
F 2 "Capacitor_SMD:C_0603_1608Metric" H 1713 1125 50  0001 C CNN
F 3 "~" H 1675 1275 50  0001 C CNN
	1    1675 1275
	1    0    0    -1  
$EndComp
Wire Wire Line
	1675 1425 1550 1425
Wire Wire Line
	1550 1425 1550 1875
Wire Wire Line
	1550 1875 1650 1875
Wire Wire Line
	1650 1975 1450 1975
Wire Wire Line
	1450 1975 1450 1125
Wire Wire Line
	1675 1125 1450 1125
$Comp
L power:+3V3 #PWR03
U 1 1 5FA81B1F
P 1250 1125
F 0 "#PWR03" H 1250 975 50  0001 C CNN
F 1 "+3V3" H 1265 1298 50  0000 C CNN
F 2 "" H 1250 1125 50  0001 C CNN
F 3 "" H 1250 1125 50  0001 C CNN
	1    1250 1125
	1    0    0    -1  
$EndComp
Connection ~ 1675 1125
Connection ~ 1675 1425
$Comp
L Device:R R1
U 1 1 5FA81B32
P 1250 1775
F 0 "R1" V 1200 1600 50  0000 C CNN
F 1 "10kR" V 1250 1775 50  0000 C CNN
F 2 "Resistor_SMD:R_0603_1608Metric" V 1180 1775 50  0001 C CNN
F 3 "~" H 1250 1775 50  0001 C CNN
	1    1250 1775
	1    0    0    -1  
$EndComp
Wire Wire Line
	1250 1925 1250 2075
Wire Wire Line
	1250 1125 1450 1125
Wire Wire Line
	1250 1125 1250 1625
Connection ~ 1450 1125
Connection ~ 1250 2075
Text HLabel 1175 2075 0    39   Input ~ 0
CS1
Wire Wire Line
	1175 2075 1250 2075
Wire Wire Line
	2350 2750 2475 2750
Wire Wire Line
	1350 2850 1650 2850
Wire Wire Line
	1350 2400 1550 2400
Wire Wire Line
	1550 2400 1550 2750
Text HLabel 2475 2750 2    39   Input ~ 0
CS1
Wire Wire Line
	1250 2075 1650 2075
$Comp
L _moje:ABPMRRN060MDSA3 U3
U 1 1 5FAFDBAF
P 3900 1975
F 0 "U3" H 3900 2340 50  0000 C CNN
F 1 "ABPMRRN060MDSA3" H 3900 2249 50  0000 C CNN
F 2 "moje_biblioteki:ABPMRRN060MDSA3" H 3900 1975 50  0001 C CNN
F 3 "https://www.tme.eu/pl/details/abpmrrn060mdsa3/czujniki-cisnienia/honeywell/" H 3900 1975 50  0001 C CNN
	1    3900 1975
	1    0    0    -1  
$EndComp
$Comp
L _moje:HSCDRRV001PGSA3 U4
U 1 1 5FAFDBB5
P 3900 2900
F 0 "U4" H 3900 3315 50  0000 C CNN
F 1 "HSCDRRV001PGSA3" H 3900 3224 50  0000 C CNN
F 2 "moje_biblioteki:HSCDRRV001PGSA3" H 3900 2900 50  0001 C CNN
F 3 "https://www.tme.eu/pl/details/hscdrrv001pgsa3/czujniki-cisnienia/honeywell/" H 3900 2900 50  0001 C CNN
	1    3900 2900
	1    0    0    -1  
$EndComp
Text HLabel 3425 2950 0    39   Input ~ 0
MISO
Wire Wire Line
	3425 2950 3550 2950
Text HLabel 3425 3050 0    39   Input ~ 0
SCLK
Wire Wire Line
	3425 3050 3550 3050
NoConn ~ 4250 2850
NoConn ~ 4250 2950
NoConn ~ 4250 3050
$Comp
L power:GND #PWR05
U 1 1 5FAFDBC2
P 3250 2400
F 0 "#PWR05" H 3250 2150 50  0001 C CNN
F 1 "GND" H 3255 2227 50  0000 C CNN
F 2 "" H 3250 2400 50  0001 C CNN
F 3 "" H 3250 2400 50  0001 C CNN
	1    3250 2400
	1    0    0    -1  
$EndComp
$Comp
L power:+3V3 #PWR06
U 1 1 5FAFDBC8
P 3250 2850
F 0 "#PWR06" H 3250 2700 50  0001 C CNN
F 1 "+3V3" H 3265 3023 50  0000 C CNN
F 2 "" H 3250 2850 50  0001 C CNN
F 3 "" H 3250 2850 50  0001 C CNN
	1    3250 2850
	1    0    0    -1  
$EndComp
Wire Wire Line
	3450 2750 3550 2750
Text HLabel 4375 1975 2    39   Input ~ 0
MISO
Wire Wire Line
	4375 1975 4250 1975
Text HLabel 4375 1875 2    39   Input ~ 0
SCLK
Wire Wire Line
	4375 1875 4250 1875
NoConn ~ 4250 2075
$Comp
L power:GND #PWR08
U 1 1 5FAFDBD4
P 3575 1425
F 0 "#PWR08" H 3575 1175 50  0001 C CNN
F 1 "GND" H 3580 1252 50  0000 C CNN
F 2 "" H 3575 1425 50  0001 C CNN
F 3 "" H 3575 1425 50  0001 C CNN
	1    3575 1425
	1    0    0    -1  
$EndComp
$Comp
L Device:C C2
U 1 1 5FAFDBDA
P 3575 1275
F 0 "C2" H 3690 1321 50  0000 L CNN
F 1 "100nF 50V" H 3690 1230 50  0000 L CNN
F 2 "Capacitor_SMD:C_0603_1608Metric" H 3613 1125 50  0001 C CNN
F 3 "~" H 3575 1275 50  0001 C CNN
	1    3575 1275
	1    0    0    -1  
$EndComp
Wire Wire Line
	3575 1425 3450 1425
Wire Wire Line
	3450 1425 3450 1875
Wire Wire Line
	3450 1875 3550 1875
Wire Wire Line
	3550 1975 3350 1975
Wire Wire Line
	3350 1975 3350 1125
Wire Wire Line
	3575 1125 3350 1125
$Comp
L power:+3V3 #PWR07
U 1 1 5FAFDBE6
P 3575 1125
F 0 "#PWR07" H 3575 975 50  0001 C CNN
F 1 "+3V3" H 3590 1298 50  0000 C CNN
F 2 "" H 3575 1125 50  0001 C CNN
F 3 "" H 3575 1125 50  0001 C CNN
	1    3575 1125
	1    0    0    -1  
$EndComp
Connection ~ 3575 1125
Connection ~ 3575 1425
$Comp
L Device:R R2
U 1 1 5FAFDBEE
P 3150 1775
F 0 "R2" V 3100 1600 50  0000 C CNN
F 1 "10kR" V 3150 1775 50  0000 C CNN
F 2 "Resistor_SMD:R_0603_1608Metric" V 3080 1775 50  0001 C CNN
F 3 "~" H 3150 1775 50  0001 C CNN
	1    3150 1775
	1    0    0    -1  
$EndComp
Wire Wire Line
	3150 1925 3150 2075
Wire Wire Line
	3150 1125 3350 1125
Wire Wire Line
	3150 1125 3150 1625
Connection ~ 3350 1125
Connection ~ 3150 2075
Text HLabel 3075 2075 0    39   Input ~ 0
CS2
Wire Wire Line
	3075 2075 3150 2075
Wire Wire Line
	4250 2750 4375 2750
Wire Wire Line
	3250 2850 3550 2850
Wire Wire Line
	3250 2400 3450 2400
Wire Wire Line
	3450 2400 3450 2750
Text HLabel 4375 2750 2    39   Input ~ 0
CS2
Wire Wire Line
	3150 2075 3550 2075
$Comp
L _moje:ABPMRRN060MDSA3 U10
U 1 1 5FB04483
P 5750 1975
F 0 "U10" H 5750 2340 50  0000 C CNN
F 1 "ABPMRRN060MDSA3" H 5750 2249 50  0000 C CNN
F 2 "moje_biblioteki:ABPMRRN060MDSA3" H 5750 1975 50  0001 C CNN
F 3 "https://www.tme.eu/pl/details/abpmrrn060mdsa3/czujniki-cisnienia/honeywell/" H 5750 1975 50  0001 C CNN
	1    5750 1975
	1    0    0    -1  
$EndComp
$Comp
L _moje:HSCDRRV001PGSA3 U11
U 1 1 5FB04489
P 5750 2900
F 0 "U11" H 5750 3315 50  0000 C CNN
F 1 "HSCDRRV001PGSA3" H 5750 3224 50  0000 C CNN
F 2 "moje_biblioteki:HSCDRRV001PGSA3" H 5750 2900 50  0001 C CNN
F 3 "https://www.tme.eu/pl/details/hscdrrv001pgsa3/czujniki-cisnienia/honeywell/" H 5750 2900 50  0001 C CNN
	1    5750 2900
	1    0    0    -1  
$EndComp
Text HLabel 5275 2950 0    39   Input ~ 0
MISO
Wire Wire Line
	5275 2950 5400 2950
Text HLabel 5275 3050 0    39   Input ~ 0
SCLK
Wire Wire Line
	5275 3050 5400 3050
NoConn ~ 6100 2850
NoConn ~ 6100 2950
NoConn ~ 6100 3050
$Comp
L power:GND #PWR013
U 1 1 5FB04496
P 5100 2400
F 0 "#PWR013" H 5100 2150 50  0001 C CNN
F 1 "GND" H 5105 2227 50  0000 C CNN
F 2 "" H 5100 2400 50  0001 C CNN
F 3 "" H 5100 2400 50  0001 C CNN
	1    5100 2400
	1    0    0    -1  
$EndComp
$Comp
L power:+3V3 #PWR014
U 1 1 5FB0449C
P 5100 2850
F 0 "#PWR014" H 5100 2700 50  0001 C CNN
F 1 "+3V3" H 5115 3023 50  0000 C CNN
F 2 "" H 5100 2850 50  0001 C CNN
F 3 "" H 5100 2850 50  0001 C CNN
	1    5100 2850
	1    0    0    -1  
$EndComp
Wire Wire Line
	5300 2750 5400 2750
Text HLabel 6225 1975 2    39   Input ~ 0
MISO
Wire Wire Line
	6225 1975 6100 1975
Text HLabel 6225 1875 2    39   Input ~ 0
SCLK
Wire Wire Line
	6225 1875 6100 1875
NoConn ~ 6100 2075
$Comp
L power:GND #PWR016
U 1 1 5FB044A8
P 5425 1425
F 0 "#PWR016" H 5425 1175 50  0001 C CNN
F 1 "GND" H 5430 1252 50  0000 C CNN
F 2 "" H 5425 1425 50  0001 C CNN
F 3 "" H 5425 1425 50  0001 C CNN
	1    5425 1425
	1    0    0    -1  
$EndComp
$Comp
L Device:C C3
U 1 1 5FB044AE
P 5425 1275
F 0 "C3" H 5540 1321 50  0000 L CNN
F 1 "100nF 50V" H 5540 1230 50  0000 L CNN
F 2 "Capacitor_SMD:C_0603_1608Metric" H 5463 1125 50  0001 C CNN
F 3 "~" H 5425 1275 50  0001 C CNN
	1    5425 1275
	1    0    0    -1  
$EndComp
Wire Wire Line
	5425 1425 5300 1425
Wire Wire Line
	5300 1425 5300 1875
Wire Wire Line
	5300 1875 5400 1875
Wire Wire Line
	5400 1975 5200 1975
Wire Wire Line
	5200 1975 5200 1125
Wire Wire Line
	5425 1125 5200 1125
$Comp
L power:+3V3 #PWR015
U 1 1 5FB044BA
P 5425 1125
F 0 "#PWR015" H 5425 975 50  0001 C CNN
F 1 "+3V3" H 5440 1298 50  0000 C CNN
F 2 "" H 5425 1125 50  0001 C CNN
F 3 "" H 5425 1125 50  0001 C CNN
	1    5425 1125
	1    0    0    -1  
$EndComp
Connection ~ 5425 1125
Connection ~ 5425 1425
$Comp
L Device:R R3
U 1 1 5FB044C2
P 5000 1775
F 0 "R3" V 4950 1600 50  0000 C CNN
F 1 "10kR" V 5000 1775 50  0000 C CNN
F 2 "Resistor_SMD:R_0603_1608Metric" V 4930 1775 50  0001 C CNN
F 3 "~" H 5000 1775 50  0001 C CNN
	1    5000 1775
	1    0    0    -1  
$EndComp
Wire Wire Line
	5000 1925 5000 2075
Wire Wire Line
	5000 1125 5200 1125
Wire Wire Line
	5000 1125 5000 1625
Connection ~ 5200 1125
Connection ~ 5000 2075
Text HLabel 4925 2075 0    39   Input ~ 0
CS3
Wire Wire Line
	4925 2075 5000 2075
Wire Wire Line
	6100 2750 6225 2750
Wire Wire Line
	5100 2850 5400 2850
Wire Wire Line
	5100 2400 5300 2400
Wire Wire Line
	5300 2400 5300 2750
Text HLabel 6225 2750 2    39   Input ~ 0
CS3
Wire Wire Line
	5000 2075 5400 2075
$Comp
L _moje:ABPMRRN060MDSA3 U12
U 1 1 5FB0B399
P 7650 1975
F 0 "U12" H 7650 2340 50  0000 C CNN
F 1 "ABPMRRN060MDSA3" H 7650 2249 50  0000 C CNN
F 2 "moje_biblioteki:ABPMRRN060MDSA3" H 7650 1975 50  0001 C CNN
F 3 "https://www.tme.eu/pl/details/abpmrrn060mdsa3/czujniki-cisnienia/honeywell/" H 7650 1975 50  0001 C CNN
	1    7650 1975
	1    0    0    -1  
$EndComp
$Comp
L _moje:HSCDRRV001PGSA3 U13
U 1 1 5FB0B39F
P 7650 2900
F 0 "U13" H 7650 3315 50  0000 C CNN
F 1 "HSCDRRV001PGSA3" H 7650 3224 50  0000 C CNN
F 2 "moje_biblioteki:HSCDRRV001PGSA3" H 7650 2900 50  0001 C CNN
F 3 "https://www.tme.eu/pl/details/hscdrrv001pgsa3/czujniki-cisnienia/honeywell/" H 7650 2900 50  0001 C CNN
	1    7650 2900
	1    0    0    -1  
$EndComp
Text HLabel 7175 2950 0    39   Input ~ 0
MISO
Wire Wire Line
	7175 2950 7300 2950
Text HLabel 7175 3050 0    39   Input ~ 0
SCLK
Wire Wire Line
	7175 3050 7300 3050
NoConn ~ 8000 2850
NoConn ~ 8000 2950
NoConn ~ 8000 3050
$Comp
L power:GND #PWR017
U 1 1 5FB0B3AC
P 7000 2400
F 0 "#PWR017" H 7000 2150 50  0001 C CNN
F 1 "GND" H 7005 2227 50  0000 C CNN
F 2 "" H 7000 2400 50  0001 C CNN
F 3 "" H 7000 2400 50  0001 C CNN
	1    7000 2400
	1    0    0    -1  
$EndComp
$Comp
L power:+3V3 #PWR018
U 1 1 5FB0B3B2
P 7000 2850
F 0 "#PWR018" H 7000 2700 50  0001 C CNN
F 1 "+3V3" H 7015 3023 50  0000 C CNN
F 2 "" H 7000 2850 50  0001 C CNN
F 3 "" H 7000 2850 50  0001 C CNN
	1    7000 2850
	1    0    0    -1  
$EndComp
Wire Wire Line
	7200 2750 7300 2750
Text HLabel 8125 1975 2    39   Input ~ 0
MISO
Wire Wire Line
	8125 1975 8000 1975
Text HLabel 8125 1875 2    39   Input ~ 0
SCLK
Wire Wire Line
	8125 1875 8000 1875
NoConn ~ 8000 2075
$Comp
L power:GND #PWR047
U 1 1 5FB0B3BE
P 7325 1425
F 0 "#PWR047" H 7325 1175 50  0001 C CNN
F 1 "GND" H 7330 1252 50  0000 C CNN
F 2 "" H 7325 1425 50  0001 C CNN
F 3 "" H 7325 1425 50  0001 C CNN
	1    7325 1425
	1    0    0    -1  
$EndComp
$Comp
L Device:C C4
U 1 1 5FB0B3C4
P 7325 1275
F 0 "C4" H 7440 1321 50  0000 L CNN
F 1 "100nF 50V" H 7440 1230 50  0000 L CNN
F 2 "Capacitor_SMD:C_0603_1608Metric" H 7363 1125 50  0001 C CNN
F 3 "~" H 7325 1275 50  0001 C CNN
	1    7325 1275
	1    0    0    -1  
$EndComp
Wire Wire Line
	7325 1425 7200 1425
Wire Wire Line
	7200 1425 7200 1875
Wire Wire Line
	7200 1875 7300 1875
Wire Wire Line
	7300 1975 7100 1975
Wire Wire Line
	7100 1975 7100 1125
Wire Wire Line
	7325 1125 7100 1125
$Comp
L power:+3V3 #PWR046
U 1 1 5FB0B3D0
P 7325 1125
F 0 "#PWR046" H 7325 975 50  0001 C CNN
F 1 "+3V3" H 7340 1298 50  0000 C CNN
F 2 "" H 7325 1125 50  0001 C CNN
F 3 "" H 7325 1125 50  0001 C CNN
	1    7325 1125
	1    0    0    -1  
$EndComp
Connection ~ 7325 1125
Connection ~ 7325 1425
$Comp
L Device:R R4
U 1 1 5FB0B3D8
P 6900 1775
F 0 "R4" V 6850 1600 50  0000 C CNN
F 1 "10kR" V 6900 1775 50  0000 C CNN
F 2 "Resistor_SMD:R_0603_1608Metric" V 6830 1775 50  0001 C CNN
F 3 "~" H 6900 1775 50  0001 C CNN
	1    6900 1775
	1    0    0    -1  
$EndComp
Wire Wire Line
	6900 1925 6900 2075
Wire Wire Line
	6900 1125 7100 1125
Wire Wire Line
	6900 1125 6900 1625
Connection ~ 7100 1125
Connection ~ 6900 2075
Text HLabel 6825 2075 0    39   Input ~ 0
CS4
Wire Wire Line
	6825 2075 6900 2075
Wire Wire Line
	8000 2750 8125 2750
Wire Wire Line
	7000 2850 7300 2850
Wire Wire Line
	7000 2400 7200 2400
Wire Wire Line
	7200 2400 7200 2750
Text HLabel 8125 2750 2    39   Input ~ 0
CS4
Wire Wire Line
	6900 2075 7300 2075
$Comp
L _moje:ABPMRRN060MDSA3 U14
U 1 1 5FB12B45
P 9650 1975
F 0 "U14" H 9650 2340 50  0000 C CNN
F 1 "ABPMRRN060MDSA3" H 9650 2249 50  0000 C CNN
F 2 "moje_biblioteki:ABPMRRN060MDSA3" H 9650 1975 50  0001 C CNN
F 3 "https://www.tme.eu/pl/details/abpmrrn060mdsa3/czujniki-cisnienia/honeywell/" H 9650 1975 50  0001 C CNN
	1    9650 1975
	1    0    0    -1  
$EndComp
$Comp
L _moje:HSCDRRV001PGSA3 U15
U 1 1 5FB12B4B
P 9650 2900
F 0 "U15" H 9650 3315 50  0000 C CNN
F 1 "HSCDRRV001PGSA3" H 9650 3224 50  0000 C CNN
F 2 "moje_biblioteki:HSCDRRV001PGSA3" H 9650 2900 50  0001 C CNN
F 3 "https://www.tme.eu/pl/details/hscdrrv001pgsa3/czujniki-cisnienia/honeywell/" H 9650 2900 50  0001 C CNN
	1    9650 2900
	1    0    0    -1  
$EndComp
Text HLabel 9175 2950 0    39   Input ~ 0
MISO
Wire Wire Line
	9175 2950 9300 2950
Text HLabel 9175 3050 0    39   Input ~ 0
SCLK
Wire Wire Line
	9175 3050 9300 3050
NoConn ~ 10000 2850
NoConn ~ 10000 2950
NoConn ~ 10000 3050
$Comp
L power:GND #PWR050
U 1 1 5FB12B58
P 9000 2400
F 0 "#PWR050" H 9000 2150 50  0001 C CNN
F 1 "GND" H 9005 2227 50  0000 C CNN
F 2 "" H 9000 2400 50  0001 C CNN
F 3 "" H 9000 2400 50  0001 C CNN
	1    9000 2400
	1    0    0    -1  
$EndComp
$Comp
L power:+3V3 #PWR051
U 1 1 5FB12B5E
P 9000 2850
F 0 "#PWR051" H 9000 2700 50  0001 C CNN
F 1 "+3V3" H 9015 3023 50  0000 C CNN
F 2 "" H 9000 2850 50  0001 C CNN
F 3 "" H 9000 2850 50  0001 C CNN
	1    9000 2850
	1    0    0    -1  
$EndComp
Wire Wire Line
	9200 2750 9300 2750
Text HLabel 10125 1975 2    39   Input ~ 0
MISO
Wire Wire Line
	10125 1975 10000 1975
Text HLabel 10125 1875 2    39   Input ~ 0
SCLK
Wire Wire Line
	10125 1875 10000 1875
NoConn ~ 10000 2075
$Comp
L power:GND #PWR084
U 1 1 5FB12B6A
P 9325 1425
F 0 "#PWR084" H 9325 1175 50  0001 C CNN
F 1 "GND" H 9330 1252 50  0000 C CNN
F 2 "" H 9325 1425 50  0001 C CNN
F 3 "" H 9325 1425 50  0001 C CNN
	1    9325 1425
	1    0    0    -1  
$EndComp
$Comp
L Device:C C17
U 1 1 5FB12B70
P 9325 1275
F 0 "C17" H 9440 1321 50  0000 L CNN
F 1 "100nF 50V" H 9440 1230 50  0000 L CNN
F 2 "Capacitor_SMD:C_0603_1608Metric" H 9363 1125 50  0001 C CNN
F 3 "~" H 9325 1275 50  0001 C CNN
	1    9325 1275
	1    0    0    -1  
$EndComp
Wire Wire Line
	9325 1425 9200 1425
Wire Wire Line
	9200 1425 9200 1875
Wire Wire Line
	9200 1875 9300 1875
Wire Wire Line
	9300 1975 9100 1975
Wire Wire Line
	9100 1975 9100 1125
Wire Wire Line
	9325 1125 9100 1125
$Comp
L power:+3V3 #PWR083
U 1 1 5FB12B7C
P 9325 1125
F 0 "#PWR083" H 9325 975 50  0001 C CNN
F 1 "+3V3" H 9340 1298 50  0000 C CNN
F 2 "" H 9325 1125 50  0001 C CNN
F 3 "" H 9325 1125 50  0001 C CNN
	1    9325 1125
	1    0    0    -1  
$EndComp
Connection ~ 9325 1125
Connection ~ 9325 1425
$Comp
L Device:R R5
U 1 1 5FB12B84
P 8900 1775
F 0 "R5" V 8850 1600 50  0000 C CNN
F 1 "10kR" V 8900 1775 50  0000 C CNN
F 2 "Resistor_SMD:R_0603_1608Metric" V 8830 1775 50  0001 C CNN
F 3 "~" H 8900 1775 50  0001 C CNN
	1    8900 1775
	1    0    0    -1  
$EndComp
Wire Wire Line
	8900 1925 8900 2075
Wire Wire Line
	8900 1125 9100 1125
Wire Wire Line
	8900 1125 8900 1625
Connection ~ 9100 1125
Connection ~ 8900 2075
Text HLabel 8825 2075 0    39   Input ~ 0
CS5
Wire Wire Line
	8825 2075 8900 2075
Wire Wire Line
	10000 2750 10125 2750
Wire Wire Line
	9000 2850 9300 2850
Wire Wire Line
	9000 2400 9200 2400
Wire Wire Line
	9200 2400 9200 2750
Text HLabel 10125 2750 2    39   Input ~ 0
CS5
Wire Wire Line
	8900 2075 9300 2075
$Comp
L Device:C C39
U 1 1 5FB5FDB4
P 2025 1275
F 0 "C39" V 2125 1350 50  0000 L CNN
F 1 "100nF 50V" V 2200 1350 50  0000 L CNN
F 2 "Capacitor_SMD:C_0603_1608Metric" H 2063 1125 50  0001 C CNN
F 3 "~" H 2025 1275 50  0001 C CNN
	1    2025 1275
	1    0    0    -1  
$EndComp
Wire Wire Line
	1675 1125 2025 1125
Wire Wire Line
	1675 1425 2025 1425
Connection ~ 1250 1125
$Comp
L Device:C C40
U 1 1 5FB6A163
P 3925 1275
F 0 "C40" V 4025 1350 50  0000 L CNN
F 1 "100nF 50V" V 4100 1350 50  0000 L CNN
F 2 "Capacitor_SMD:C_0603_1608Metric" H 3963 1125 50  0001 C CNN
F 3 "~" H 3925 1275 50  0001 C CNN
	1    3925 1275
	1    0    0    -1  
$EndComp
Wire Wire Line
	3575 1125 3925 1125
Wire Wire Line
	3575 1425 3925 1425
$Comp
L Device:C C41
U 1 1 5FB6E9E4
P 5775 1275
F 0 "C41" V 5875 1350 50  0000 L CNN
F 1 "100nF 50V" V 5950 1350 50  0000 L CNN
F 2 "Capacitor_SMD:C_0603_1608Metric" H 5813 1125 50  0001 C CNN
F 3 "~" H 5775 1275 50  0001 C CNN
	1    5775 1275
	1    0    0    -1  
$EndComp
Wire Wire Line
	5425 1125 5775 1125
Wire Wire Line
	5425 1425 5775 1425
$Comp
L Device:C C42
U 1 1 5FB735E9
P 7675 1275
F 0 "C42" V 7775 1350 50  0000 L CNN
F 1 "100nF 50V" V 7850 1350 50  0000 L CNN
F 2 "Capacitor_SMD:C_0603_1608Metric" H 7713 1125 50  0001 C CNN
F 3 "~" H 7675 1275 50  0001 C CNN
	1    7675 1275
	1    0    0    -1  
$EndComp
Wire Wire Line
	7325 1125 7675 1125
Wire Wire Line
	7325 1425 7675 1425
$Comp
L Device:C C43
U 1 1 5FB7839C
P 9675 1275
F 0 "C43" V 9775 1350 50  0000 L CNN
F 1 "100nF 50V" V 9850 1350 50  0000 L CNN
F 2 "Capacitor_SMD:C_0603_1608Metric" H 9713 1125 50  0001 C CNN
F 3 "~" H 9675 1275 50  0001 C CNN
	1    9675 1275
	1    0    0    -1  
$EndComp
Wire Wire Line
	9325 1125 9675 1125
Wire Wire Line
	9325 1425 9675 1425
$EndSCHEMATC
