EESchema Schematic File Version 4
EELAYER 30 0
EELAYER END
$Descr A4 11693 8268
encoding utf-8
Sheet 3 6
Title "Main Board for V3"
Date "2020-04-20"
Rev "1.0"
Comp "VentilAid"
Comment1 "Maciej Żarnowski"
Comment2 ""
Comment3 ""
Comment4 ""
$EndDescr
$Comp
L MCU_ST_STM32F1:STM32F103RCTx U6
U 1 1 5E997D34
P 5825 3650
F 0 "U6" H 5825 1761 50  0000 C CNN
F 1 "STM32F103RCTx" H 5825 1670 50  0000 C CNN
F 2 "Package_QFP:LQFP-64_10x10mm_P0.5mm" H 5225 1950 50  0001 R CNN
F 3 "http://www.st.com/st-web-ui/static/active/en/resource/technical/document/datasheet/CD00191185.pdf" H 5825 3650 50  0001 C CNN
	1    5825 3650
	1    0    0    -1  
$EndComp
$Comp
L Device:Crystal_GND24_Small Y1
U 1 1 5E99A338
P 4375 3400
F 0 "Y1" V 4329 3544 50  0000 L CNN
F 1 "8MHz" V 4420 3544 50  0000 L CNN
F 2 "Crystal:Crystal_SMD_5032-4Pin_5.0x3.2mm" H 4375 3400 50  0001 C CNN
F 3 "~" H 4375 3400 50  0001 C CNN
	1    4375 3400
	0    1    1    0   
$EndComp
Wire Wire Line
	4475 3400 4275 3400
$Comp
L power:GND #PWR025
U 1 1 5E99B139
P 4025 3400
F 0 "#PWR025" H 4025 3150 50  0001 C CNN
F 1 "GND" H 4030 3227 50  0000 C CNN
F 2 "" H 4025 3400 50  0001 C CNN
F 3 "" H 4025 3400 50  0001 C CNN
	1    4025 3400
	1    0    0    -1  
$EndComp
Connection ~ 4275 3400
Wire Wire Line
	5000 3300 5000 3350
Wire Wire Line
	5000 3350 5125 3350
Wire Wire Line
	5125 3450 5000 3450
Wire Wire Line
	5000 3450 5000 3500
Wire Wire Line
	5000 3500 4525 3500
NoConn ~ 5125 3550
Wire Wire Line
	6025 1850 5925 1850
Connection ~ 5825 1850
Wire Wire Line
	5825 1850 5725 1850
Connection ~ 5925 1850
Wire Wire Line
	5925 1850 5825 1850
Wire Wire Line
	5725 1850 5625 1850
Connection ~ 5725 1850
$Comp
L Device:C C14
U 1 1 5E99EFBC
P 5250 1700
F 0 "C14" H 5250 1775 50  0000 L CNN
F 1 "100nF 50V" V 5250 1900 50  0000 L CNN
F 2 "Capacitor_SMD:C_0603_1608Metric" H 5288 1550 50  0001 C CNN
F 3 "~" H 5250 1700 50  0001 C CNN
	1    5250 1700
	1    0    0    -1  
$EndComp
Wire Wire Line
	5625 1850 5625 1550
Wire Wire Line
	5625 1550 5250 1550
Connection ~ 5625 1850
$Comp
L Device:C C13
U 1 1 5E9A0CCD
P 5025 1700
F 0 "C13" H 5025 1775 50  0000 L CNN
F 1 "100nF 50V" V 5025 1900 50  0000 L CNN
F 2 "Capacitor_SMD:C_0603_1608Metric" H 5063 1550 50  0001 C CNN
F 3 "~" H 5025 1700 50  0001 C CNN
	1    5025 1700
	1    0    0    -1  
$EndComp
$Comp
L Device:C C12
U 1 1 5E9A163E
P 4800 1700
F 0 "C12" H 4800 1775 50  0000 L CNN
F 1 "100nF 50V" V 4800 1900 50  0000 L CNN
F 2 "Capacitor_SMD:C_0603_1608Metric" H 4838 1550 50  0001 C CNN
F 3 "~" H 4800 1700 50  0001 C CNN
	1    4800 1700
	1    0    0    -1  
$EndComp
$Comp
L Device:C C11
U 1 1 5E9A1D22
P 4575 1700
F 0 "C11" H 4575 1775 50  0000 L CNN
F 1 "100nF 50V" V 4575 1900 50  0000 L CNN
F 2 "Capacitor_SMD:C_0603_1608Metric" H 4613 1550 50  0001 C CNN
F 3 "~" H 4575 1700 50  0001 C CNN
	1    4575 1700
	1    0    0    -1  
$EndComp
$Comp
L Device:C C10
U 1 1 5E9A2358
P 4350 1700
F 0 "C10" H 4350 1775 50  0000 L CNN
F 1 "100nF 50V" V 4350 1900 50  0000 L CNN
F 2 "Capacitor_SMD:C_0603_1608Metric" H 4388 1550 50  0001 C CNN
F 3 "~" H 4350 1700 50  0001 C CNN
	1    4350 1700
	1    0    0    -1  
$EndComp
Wire Wire Line
	5250 1550 5025 1550
Connection ~ 5250 1550
Connection ~ 4575 1550
Wire Wire Line
	4575 1550 4350 1550
Connection ~ 4800 1550
Wire Wire Line
	4800 1550 4575 1550
Connection ~ 5025 1550
Wire Wire Line
	5025 1550 4800 1550
$Comp
L power:+3V3 #PWR026
U 1 1 5E9A2FF9
P 4075 1550
F 0 "#PWR026" H 4075 1400 50  0001 C CNN
F 1 "+3V3" H 4090 1723 50  0000 C CNN
F 2 "" H 4075 1550 50  0001 C CNN
F 3 "" H 4075 1550 50  0001 C CNN
	1    4075 1550
	1    0    0    -1  
$EndComp
Wire Wire Line
	4075 1550 4350 1550
Connection ~ 4350 1550
Wire Wire Line
	5250 1850 5025 1850
Connection ~ 4575 1850
Wire Wire Line
	4575 1850 4350 1850
Connection ~ 4800 1850
Wire Wire Line
	4800 1850 4575 1850
Connection ~ 5025 1850
Wire Wire Line
	5025 1850 4800 1850
Wire Wire Line
	4350 1850 4075 1850
Connection ~ 4350 1850
$Comp
L power:GND #PWR027
U 1 1 5E9A53D0
P 4075 1850
F 0 "#PWR027" H 4075 1600 50  0001 C CNN
F 1 "GND" H 4080 1677 50  0000 C CNN
F 2 "" H 4075 1850 50  0001 C CNN
F 3 "" H 4075 1850 50  0001 C CNN
	1    4075 1850
	1    0    0    -1  
$EndComp
$Comp
L Device:L L1
U 1 1 5E9A5825
P 6025 1700
F 0 "L1" H 6025 1925 50  0000 L CNN
F 1 "BLM18HE152SZ1D" V 5975 1600 50  0000 L CNN
F 2 "Inductor_SMD:L_0603_1608Metric" H 6025 1700 50  0001 C CNN
F 3 "~" H 6025 1700 50  0001 C CNN
	1    6025 1700
	1    0    0    -1  
$EndComp
Connection ~ 6025 1850
$Comp
L Device:C C15
U 1 1 5E9A5FF0
P 6300 1700
F 0 "C15" H 6300 1775 50  0000 L CNN
F 1 "100nF 50V" V 6300 1900 50  0000 L CNN
F 2 "Capacitor_SMD:C_0603_1608Metric" H 6338 1550 50  0001 C CNN
F 3 "~" H 6300 1700 50  0001 C CNN
	1    6300 1700
	1    0    0    -1  
$EndComp
Wire Wire Line
	6025 1550 6125 1550
Wire Wire Line
	6125 1550 6125 1850
Wire Wire Line
	6125 1550 6300 1550
Connection ~ 6125 1550
$Comp
L Device:C C16
U 1 1 5E9A7B82
P 6525 1700
F 0 "C16" H 6525 1775 50  0000 L CNN
F 1 "1uF 10V" V 6525 1900 50  0000 L CNN
F 2 "Capacitor_SMD:C_0603_1608Metric" H 6563 1550 50  0001 C CNN
F 3 "~" H 6525 1700 50  0001 C CNN
	1    6525 1700
	1    0    0    -1  
$EndComp
Wire Wire Line
	6525 1550 6300 1550
Connection ~ 6300 1550
$Comp
L power:GND #PWR031
U 1 1 5E9A86F8
P 6800 1625
F 0 "#PWR031" H 6800 1375 50  0001 C CNN
F 1 "GND" H 6805 1452 50  0000 C CNN
F 2 "" H 6800 1625 50  0001 C CNN
F 3 "" H 6800 1625 50  0001 C CNN
	1    6800 1625
	1    0    0    -1  
$EndComp
Wire Wire Line
	6700 1850 6525 1850
Connection ~ 6525 1850
Wire Wire Line
	6525 1850 6300 1850
Wire Wire Line
	6800 1625 6700 1625
Wire Wire Line
	6700 1625 6700 1850
Text HLabel 2175 3750 0    39   Input ~ 0
ADC0
Text HLabel 2175 3850 0    39   Input ~ 0
ADC1
Text HLabel 2175 3950 0    39   Input ~ 0
ADC2
Text HLabel 2175 4050 0    39   Input ~ 0
ADC3
$Comp
L Device:C C5
U 1 1 5E9ACDF6
P 2175 4375
F 0 "C5" H 2175 4450 50  0000 L CNN
F 1 "10nF 50V" V 2175 4575 50  0000 L CNN
F 2 "Capacitor_SMD:C_0603_1608Metric" H 2213 4225 50  0001 C CNN
F 3 "~" H 2175 4375 50  0001 C CNN
	1    2175 4375
	-1   0    0    1   
$EndComp
$Comp
L Device:R R35
U 1 1 5E9AE250
P 2025 4375
F 0 "R35" H 2075 4450 50  0000 L CNN
F 1 "1MR" V 2025 4300 50  0000 L CNN
F 2 "Resistor_SMD:R_0603_1608Metric" V 1955 4375 50  0001 C CNN
F 3 "~" H 2025 4375 50  0001 C CNN
	1    2025 4375
	-1   0    0    1   
$EndComp
$Comp
L power:GNDA #PWR019
U 1 1 5E9AE894
P 1650 4525
F 0 "#PWR019" H 1650 4275 50  0001 C CNN
F 1 "GNDA" H 1655 4352 50  0000 C CNN
F 2 "" H 1650 4525 50  0001 C CNN
F 3 "" H 1650 4525 50  0001 C CNN
	1    1650 4525
	1    0    0    -1  
$EndComp
Wire Wire Line
	2175 4225 2175 4050
Wire Wire Line
	2025 4225 2175 4225
Connection ~ 2175 4225
$Comp
L Device:C C6
U 1 1 5E9B527E
P 2550 4375
F 0 "C6" H 2550 4450 50  0000 L CNN
F 1 "10nF 50V" V 2550 4575 50  0000 L CNN
F 2 "Capacitor_SMD:C_0603_1608Metric" H 2588 4225 50  0001 C CNN
F 3 "~" H 2550 4375 50  0001 C CNN
	1    2550 4375
	-1   0    0    1   
$EndComp
$Comp
L Device:R R36
U 1 1 5E9B5284
P 2400 4375
F 0 "R36" H 2450 4450 50  0000 L CNN
F 1 "1MR" V 2400 4300 50  0000 L CNN
F 2 "Resistor_SMD:R_0603_1608Metric" V 2330 4375 50  0001 C CNN
F 3 "~" H 2400 4375 50  0001 C CNN
	1    2400 4375
	-1   0    0    1   
$EndComp
Wire Wire Line
	2400 4225 2550 4225
$Comp
L Device:C C7
U 1 1 5E9B5D3C
P 2925 4375
F 0 "C7" H 2925 4450 50  0000 L CNN
F 1 "10nF 50V" V 2925 4575 50  0000 L CNN
F 2 "Capacitor_SMD:C_0603_1608Metric" H 2963 4225 50  0001 C CNN
F 3 "~" H 2925 4375 50  0001 C CNN
	1    2925 4375
	-1   0    0    1   
$EndComp
$Comp
L Device:R R37
U 1 1 5E9B5D42
P 2775 4375
F 0 "R37" H 2825 4450 50  0000 L CNN
F 1 "1MR" V 2775 4300 50  0000 L CNN
F 2 "Resistor_SMD:R_0603_1608Metric" V 2705 4375 50  0001 C CNN
F 3 "~" H 2775 4375 50  0001 C CNN
	1    2775 4375
	-1   0    0    1   
$EndComp
Wire Wire Line
	2775 4225 2925 4225
$Comp
L Device:C C8
U 1 1 5E9BA6A7
P 3300 4375
F 0 "C8" H 3300 4450 50  0000 L CNN
F 1 "10nF 50V" V 3300 4575 50  0000 L CNN
F 2 "Capacitor_SMD:C_0603_1608Metric" H 3338 4225 50  0001 C CNN
F 3 "~" H 3300 4375 50  0001 C CNN
	1    3300 4375
	-1   0    0    1   
$EndComp
$Comp
L Device:R R38
U 1 1 5E9BA6AD
P 3150 4375
F 0 "R38" H 3200 4450 50  0000 L CNN
F 1 "1MR" V 3150 4300 50  0000 L CNN
F 2 "Resistor_SMD:R_0603_1608Metric" V 3080 4375 50  0001 C CNN
F 3 "~" H 3150 4375 50  0001 C CNN
	1    3150 4375
	-1   0    0    1   
$EndComp
Wire Wire Line
	3150 4225 3300 4225
Wire Wire Line
	2175 3850 2925 3850
Wire Wire Line
	3300 4525 3150 4525
Connection ~ 3150 4525
Wire Wire Line
	3150 4525 2925 4525
Connection ~ 2925 4525
Wire Wire Line
	2925 4525 2775 4525
Connection ~ 2775 4525
Wire Wire Line
	2775 4525 2550 4525
Connection ~ 2550 4525
Wire Wire Line
	2550 4525 2400 4525
Connection ~ 2400 4525
Wire Wire Line
	2400 4525 2175 4525
Connection ~ 2175 4525
Wire Wire Line
	2175 4525 2025 4525
Connection ~ 2025 4525
Wire Wire Line
	2025 4525 1650 4525
Wire Wire Line
	2550 4225 2550 3950
Connection ~ 2550 4225
Connection ~ 2550 3950
Wire Wire Line
	2550 3950 2175 3950
Wire Wire Line
	3300 4225 3300 3750
Connection ~ 3300 4225
Connection ~ 3300 3750
Wire Wire Line
	3300 3750 2175 3750
Wire Wire Line
	2925 4225 2925 3850
Connection ~ 2925 4225
Connection ~ 2925 3850
Wire Wire Line
	3300 3750 5125 3750
Wire Wire Line
	2925 3850 5125 3850
Wire Wire Line
	2550 3950 5125 3950
Wire Wire Line
	2175 4050 5125 4050
Text HLabel 4250 4150 0    39   Input ~ 0
SPI1_CS1
Text HLabel 4250 4250 0    39   Input ~ 0
SPI1_CS2
Text HLabel 7400 3850 2    39   Input ~ 0
SPI1_CS4
Text HLabel 7400 3750 2    39   Input ~ 0
SPI1_CS3
Text HLabel 7400 2550 2    39   Input ~ 0
SPI1_SCK
Text HLabel 7400 2650 2    39   Input ~ 0
SPI1_MISO
Text HLabel 7400 2750 2    39   Input ~ 0
SPI1_MOSI
Wire Wire Line
	6925 2850 6525 2850
Wire Wire Line
	7225 2850 7400 2850
Text HLabel 7400 2850 2    39   Input ~ 0
MOTOR_PWM
$Comp
L Device:R R54
U 1 1 5EA1B260
P 7075 3550
F 0 "R54" V 7050 3700 50  0000 C CNN
F 1 "330R" V 7075 3550 50  0000 C CNN
F 2 "Resistor_SMD:R_0603_1608Metric" V 7005 3550 50  0001 C CNN
F 3 "~" H 7075 3550 50  0001 C CNN
	1    7075 3550
	0    1    1    0   
$EndComp
Wire Wire Line
	6925 3550 6525 3550
Wire Wire Line
	7225 3550 7400 3550
Text HLabel 7400 3550 2    39   Input ~ 0
DCPWM
Text GLabel 6525 3350 2    39   Input ~ 0
SWDIO
Text GLabel 6525 3450 2    39   Input ~ 0
SWCLK
$Comp
L Device:R R47
U 1 1 5EA21390
P 7075 2250
F 0 "R47" V 7050 2400 50  0000 C CNN
F 1 "330R" V 7075 2250 50  0000 C CNN
F 2 "Resistor_SMD:R_0603_1608Metric" V 7005 2250 50  0001 C CNN
F 3 "~" H 7075 2250 50  0001 C CNN
	1    7075 2250
	0    1    1    0   
$EndComp
$Comp
L Device:R R48
U 1 1 5EA21396
P 7075 2350
F 0 "R48" V 7050 2500 50  0000 C CNN
F 1 "330R" V 7075 2350 50  0000 C CNN
F 2 "Resistor_SMD:R_0603_1608Metric" V 7005 2350 50  0001 C CNN
F 3 "~" H 7075 2350 50  0001 C CNN
	1    7075 2350
	0    1    1    0   
$EndComp
Wire Wire Line
	6925 2250 6525 2250
Wire Wire Line
	6525 2350 6925 2350
Wire Wire Line
	7225 2250 7400 2250
Wire Wire Line
	7225 2350 7400 2350
Text HLabel 7400 2250 2    39   Input ~ 0
USART2_TX
Text HLabel 7400 2350 2    39   Input ~ 0
USART2_RX
$Comp
L power:GNDA #PWR030
U 1 1 5EA2B520
P 6250 5450
F 0 "#PWR030" H 6250 5200 50  0001 C CNN
F 1 "GNDA" H 6255 5277 50  0000 C CNN
F 2 "" H 6250 5450 50  0001 C CNN
F 3 "" H 6250 5450 50  0001 C CNN
	1    6250 5450
	1    0    0    -1  
$EndComp
$Comp
L power:GND #PWR029
U 1 1 5EA2CC02
P 5375 5450
F 0 "#PWR029" H 5375 5200 50  0001 C CNN
F 1 "GND" H 5380 5277 50  0000 C CNN
F 2 "" H 5375 5450 50  0001 C CNN
F 3 "" H 5375 5450 50  0001 C CNN
	1    5375 5450
	1    0    0    -1  
$EndComp
Wire Wire Line
	5375 5450 5625 5450
Connection ~ 5625 5450
Wire Wire Line
	5625 5450 5725 5450
Connection ~ 5725 5450
Wire Wire Line
	5725 5450 5825 5450
Connection ~ 5825 5450
Wire Wire Line
	5825 5450 5925 5450
Wire Wire Line
	6025 5450 6250 5450
$Comp
L Device:Ferrite_Bead FB1
U 1 1 5EA335B4
P 5975 6025
F 0 "FB1" V 5701 6025 50  0000 C CNN
F 1 "BLM18HE152SZ1D" V 5792 6025 50  0000 C CNN
F 2 "Resistor_SMD:R_0603_1608Metric" V 5905 6025 50  0001 C CNN
F 3 "https://pl.mouser.com/ProductDetail/Murata-Electronics/BLM18HE152SZ1D?qs=sGAEpiMZZMtdyQheitOmRQALsn%2F4R2uW3jXUS%252btQ29blL7nUJtO8Gw%3D%3D" H 5975 6025 50  0001 C CNN
	1    5975 6025
	0    1    1    0   
$EndComp
Wire Wire Line
	6125 6025 6400 6025
Wire Wire Line
	6400 6025 6400 5450
Wire Wire Line
	6400 5450 6250 5450
Connection ~ 6250 5450
Wire Wire Line
	5825 6025 5200 6025
Wire Wire Line
	5200 6025 5200 5450
Wire Wire Line
	5200 5450 5375 5450
Connection ~ 5375 5450
Text GLabel 7400 4650 2    39   Input ~ 0
WATCHDOG_RESET
$Comp
L Device:R R56
U 1 1 5EA42C7E
P 7075 4050
F 0 "R56" V 7050 4200 50  0000 C CNN
F 1 "330R" V 7075 4050 50  0000 C CNN
F 2 "Resistor_SMD:R_0603_1608Metric" V 7005 4050 50  0001 C CNN
F 3 "~" H 7075 4050 50  0001 C CNN
	1    7075 4050
	0    1    1    0   
$EndComp
Wire Wire Line
	6925 4050 6525 4050
Wire Wire Line
	7225 4050 7400 4050
Text HLabel 7400 4050 2    39   Input ~ 0
EXTERNAL_ALARM
$Comp
L Device:R R50
U 1 1 5EA18EEB
P 7075 2850
F 0 "R50" V 7050 3000 50  0000 C CNN
F 1 "330R" V 7075 2850 50  0000 C CNN
F 2 "Resistor_SMD:R_0603_1608Metric" V 7005 2850 50  0001 C CNN
F 3 "~" H 7075 2850 50  0001 C CNN
	1    7075 2850
	0    1    1    0   
$EndComp
Wire Wire Line
	6525 2750 7400 2750
Wire Wire Line
	6525 2550 7400 2550
Wire Wire Line
	6525 2650 7400 2650
Wire Wire Line
	6525 3750 7400 3750
Wire Wire Line
	6525 3850 7400 3850
$Comp
L Device:R R45
U 1 1 5EA6350F
P 7075 2050
F 0 "R45" V 7050 2200 50  0000 C CNN
F 1 "330R" V 7075 2050 50  0000 C CNN
F 2 "Resistor_SMD:R_0603_1608Metric" V 7005 2050 50  0001 C CNN
F 3 "~" H 7075 2050 50  0001 C CNN
	1    7075 2050
	0    1    1    0   
$EndComp
$Comp
L Device:R R46
U 1 1 5EA63515
P 7075 2150
F 0 "R46" V 7050 2300 50  0000 C CNN
F 1 "330R" V 7075 2150 50  0000 C CNN
F 2 "Resistor_SMD:R_0603_1608Metric" V 7005 2150 50  0001 C CNN
F 3 "~" H 7075 2150 50  0001 C CNN
	1    7075 2150
	0    1    1    0   
$EndComp
Wire Wire Line
	6925 2050 6525 2050
Wire Wire Line
	6525 2150 6925 2150
Wire Wire Line
	7225 2050 7400 2050
Wire Wire Line
	7225 2150 7400 2150
Text HLabel 7400 2150 2    39   Input ~ 0
RASP_GPIO_2
Text HLabel 7400 2050 2    39   Input ~ 0
RASP_GPIO_1
$Comp
L Device:R R49
U 1 1 5EA67343
P 7075 2450
F 0 "R49" V 7050 2600 50  0000 C CNN
F 1 "330R" V 7075 2450 50  0000 C CNN
F 2 "Resistor_SMD:R_0603_1608Metric" V 7005 2450 50  0001 C CNN
F 3 "~" H 7075 2450 50  0001 C CNN
	1    7075 2450
	0    1    1    0   
$EndComp
Wire Wire Line
	6525 2450 6925 2450
Wire Wire Line
	7225 2450 7400 2450
Text HLabel 7400 2450 2    39   Input ~ 0
SPI1_EX_CS2
$Comp
L Device:R R51
U 1 1 5EA6C1DA
P 7075 2950
F 0 "R51" V 7050 3100 50  0000 C CNN
F 1 "330R" V 7075 2950 50  0000 C CNN
F 2 "Resistor_SMD:R_0603_1608Metric" V 7005 2950 50  0001 C CNN
F 3 "~" H 7075 2950 50  0001 C CNN
	1    7075 2950
	0    1    1    0   
$EndComp
Wire Wire Line
	6525 2950 6925 2950
Wire Wire Line
	7225 2950 7400 2950
Text HLabel 7400 2950 2    39   Input ~ 0
SERVO0_PWM
$Comp
L Device:R R52
U 1 1 5EA7BD7B
P 7075 3050
F 0 "R52" V 7050 3200 50  0000 C CNN
F 1 "330R" V 7075 3050 50  0000 C CNN
F 2 "Resistor_SMD:R_0603_1608Metric" V 7005 3050 50  0001 C CNN
F 3 "~" H 7075 3050 50  0001 C CNN
	1    7075 3050
	0    1    1    0   
$EndComp
Wire Wire Line
	6525 3050 6925 3050
Wire Wire Line
	7225 3050 7400 3050
Text HLabel 7400 3050 2    39   Input ~ 0
SERVO1_PWM
$Comp
L Device:R R55
U 1 1 5EA8C674
P 7075 3950
F 0 "R55" V 7050 4100 50  0000 C CNN
F 1 "330R" V 7075 3950 50  0000 C CNN
F 2 "Resistor_SMD:R_0603_1608Metric" V 7005 3950 50  0001 C CNN
F 3 "~" H 7075 3950 50  0001 C CNN
	1    7075 3950
	0    1    1    0   
$EndComp
Wire Wire Line
	6525 3950 6925 3950
Wire Wire Line
	7225 3950 7400 3950
Text HLabel 7400 3950 2    39   Input ~ 0
SPI1_EX_CS1
$Comp
L Device:R R57
U 1 1 5EA95DD3
P 7075 4150
F 0 "R57" V 7050 4300 50  0000 C CNN
F 1 "330R" V 7075 4150 50  0000 C CNN
F 2 "Resistor_SMD:R_0603_1608Metric" V 7005 4150 50  0001 C CNN
F 3 "~" H 7075 4150 50  0001 C CNN
	1    7075 4150
	0    1    1    0   
$EndComp
Wire Wire Line
	6525 4150 6925 4150
Wire Wire Line
	8500 3925 8675 3925
$Comp
L Device:R R58
U 1 1 5EA99F47
P 7075 4250
F 0 "R58" V 7050 4400 50  0000 C CNN
F 1 "330R" V 7075 4250 50  0000 C CNN
F 2 "Resistor_SMD:R_0603_1608Metric" V 7005 4250 50  0001 C CNN
F 3 "~" H 7075 4250 50  0001 C CNN
	1    7075 4250
	0    1    1    0   
$EndComp
Wire Wire Line
	6525 4250 6925 4250
Wire Wire Line
	8500 4025 8675 4025
$Comp
L Device:R R59
U 1 1 5EAA3A86
P 7075 4350
F 0 "R59" V 7050 4500 50  0000 C CNN
F 1 "0R" V 7075 4350 50  0000 C CNN
F 2 "Resistor_SMD:R_0603_1608Metric" V 7005 4350 50  0001 C CNN
F 3 "~" H 7075 4350 50  0001 C CNN
	1    7075 4350
	0    1    1    0   
$EndComp
Wire Wire Line
	6525 4350 6925 4350
Text HLabel 9450 4350 2    39   Input ~ 0
I2C_SCL
$Comp
L Device:R R60
U 1 1 5EAA3A8F
P 7075 4450
F 0 "R60" V 7050 4600 50  0000 C CNN
F 1 "0R" V 7075 4450 50  0000 C CNN
F 2 "Resistor_SMD:R_0603_1608Metric" V 7005 4450 50  0001 C CNN
F 3 "~" H 7075 4450 50  0001 C CNN
	1    7075 4450
	0    1    1    0   
$EndComp
Wire Wire Line
	6525 4450 6925 4450
Text HLabel 9450 4450 2    39   Input ~ 0
I2C_SDA
$Comp
L Device:R R70
U 1 1 5EAB58DA
P 9600 4550
F 0 "R70" V 9625 4725 50  0000 C CNN
F 1 "4k7R" V 9600 4550 50  0000 C CNN
F 2 "Resistor_SMD:R_0603_1608Metric" V 9530 4550 50  0001 C CNN
F 3 "~" H 9600 4550 50  0001 C CNN
	1    9600 4550
	0    -1   -1   0   
$EndComp
Wire Wire Line
	9450 4550 9350 4550
Wire Wire Line
	9350 4550 9350 4450
Connection ~ 9350 4450
Wire Wire Line
	9350 4450 9450 4450
$Comp
L power:+3V3 #PWR035
U 1 1 5EABC39F
P 10075 4400
F 0 "#PWR035" H 10075 4250 50  0001 C CNN
F 1 "+3V3" H 10090 4573 50  0000 C CNN
F 2 "" H 10075 4400 50  0001 C CNN
F 3 "" H 10075 4400 50  0001 C CNN
	1    10075 4400
	1    0    0    -1  
$EndComp
Wire Wire Line
	9900 4550 9750 4550
Wire Wire Line
	9900 4550 9900 4400
Wire Wire Line
	9900 4400 10075 4400
$Comp
L Device:R R69
U 1 1 5EAC69C2
P 9600 4250
F 0 "R69" V 9625 4425 50  0000 C CNN
F 1 "4k7R" V 9600 4250 50  0000 C CNN
F 2 "Resistor_SMD:R_0603_1608Metric" V 9530 4250 50  0001 C CNN
F 3 "~" H 9600 4250 50  0001 C CNN
	1    9600 4250
	0    -1   -1   0   
$EndComp
Wire Wire Line
	9450 4250 9350 4250
Wire Wire Line
	9350 4250 9350 4350
Connection ~ 9350 4350
Wire Wire Line
	9350 4350 9450 4350
Wire Wire Line
	9750 4250 9900 4250
Wire Wire Line
	9900 4250 9900 4400
Connection ~ 9900 4400
$Comp
L Device:R R62
U 1 1 5EAE17EE
P 7075 4750
F 0 "R62" V 7050 4900 50  0000 C CNN
F 1 "330R" V 7075 4750 50  0000 C CNN
F 2 "Resistor_SMD:R_0603_1608Metric" V 7005 4750 50  0001 C CNN
F 3 "~" H 7075 4750 50  0001 C CNN
	1    7075 4750
	0    1    1    0   
$EndComp
Wire Wire Line
	6525 4750 6925 4750
Wire Wire Line
	7225 4750 7400 4750
Text HLabel 7400 4750 2    39   Input ~ 0
USART3_TX
$Comp
L Device:R R63
U 1 1 5EAE17F7
P 7075 4850
F 0 "R63" V 7050 5000 50  0000 C CNN
F 1 "330R" V 7075 4850 50  0000 C CNN
F 2 "Resistor_SMD:R_0603_1608Metric" V 7005 4850 50  0001 C CNN
F 3 "~" H 7075 4850 50  0001 C CNN
	1    7075 4850
	0    1    1    0   
$EndComp
Wire Wire Line
	6525 4850 6925 4850
Wire Wire Line
	7225 4850 7400 4850
$Comp
L Device:R R44
U 1 1 5EAF3CCE
P 4575 4650
F 0 "R44" V 4550 4800 50  0000 C CNN
F 1 "330R" V 4575 4650 50  0000 C CNN
F 2 "Resistor_SMD:R_0603_1608Metric" V 4505 4650 50  0001 C CNN
F 3 "~" H 4575 4650 50  0001 C CNN
	1    4575 4650
	0    1    1    0   
$EndComp
Wire Wire Line
	4725 4650 5125 4650
Wire Wire Line
	4425 4650 4250 4650
Wire Wire Line
	7225 4350 9350 4350
Wire Wire Line
	7225 4450 9350 4450
$Comp
L Device:R R67
U 1 1 5EA42899
P 8825 4125
F 0 "R67" V 8850 4300 50  0000 C CNN
F 1 "10kR" V 8825 4125 50  0000 C CNN
F 2 "Resistor_SMD:R_0603_1608Metric" V 8755 4125 50  0001 C CNN
F 3 "~" H 8825 4125 50  0001 C CNN
	1    8825 4125
	0    -1   -1   0   
$EndComp
Wire Wire Line
	9125 4125 8975 4125
Wire Wire Line
	9125 4125 9125 3975
Wire Wire Line
	9125 3975 9300 3975
$Comp
L Device:R R66
U 1 1 5EA428A8
P 8825 3825
F 0 "R66" V 8850 4000 50  0000 C CNN
F 1 "10kR" V 8825 3825 50  0000 C CNN
F 2 "Resistor_SMD:R_0603_1608Metric" V 8755 3825 50  0001 C CNN
F 3 "~" H 8825 3825 50  0001 C CNN
	1    8825 3825
	0    -1   -1   0   
$EndComp
Wire Wire Line
	8975 3825 9125 3825
Wire Wire Line
	9125 3825 9125 3975
Connection ~ 9125 3975
$Comp
L power:GND #PWR033
U 1 1 5EA48366
P 9300 3975
F 0 "#PWR033" H 9300 3725 50  0001 C CNN
F 1 "GND" H 9305 3802 50  0000 C CNN
F 2 "" H 9300 3975 50  0001 C CNN
F 3 "" H 9300 3975 50  0001 C CNN
	1    9300 3975
	1    0    0    -1  
$EndComp
Wire Wire Line
	8675 3825 8500 3825
Wire Wire Line
	8500 3825 8500 3925
Wire Wire Line
	8500 4025 8500 4125
Wire Wire Line
	8500 4125 8675 4125
Wire Wire Line
	8500 4025 8300 4025
Wire Wire Line
	8300 4025 8300 4250
Wire Wire Line
	8300 4250 7225 4250
Connection ~ 8500 4025
Wire Wire Line
	7225 4150 8200 4150
Wire Wire Line
	8200 4150 8200 3925
Wire Wire Line
	8200 3925 8500 3925
Connection ~ 8500 3925
$Comp
L Device:Q_NMOS_GSD Q?
U 1 1 5EA6AE19
P 9275 3150
AR Path="/5E9D6032/5EA6AE19" Ref="Q?"  Part="1" 
AR Path="/5E997976/5EA6AE19" Ref="Q7"  Part="1" 
F 0 "Q7" H 9479 3196 50  0000 L CNN
F 1 "YJL2304A" H 9479 3105 50  0000 L CNN
F 2 "Package_TO_SOT_SMD:SOT-23" H 9475 3250 50  0001 C CNN
F 3 "~" H 9275 3150 50  0001 C CNN
	1    9275 3150
	1    0    0    -1  
$EndComp
$Comp
L power:+3V3 #PWR?
U 1 1 5EA6AE1F
P 8950 2750
AR Path="/5E9D6032/5EA6AE1F" Ref="#PWR?"  Part="1" 
AR Path="/5E997976/5EA6AE1F" Ref="#PWR032"  Part="1" 
F 0 "#PWR032" H 8950 2600 50  0001 C CNN
F 1 "+3V3" H 8965 2923 50  0000 C CNN
F 2 "" H 8950 2750 50  0001 C CNN
F 3 "" H 8950 2750 50  0001 C CNN
	1    8950 2750
	1    0    0    -1  
$EndComp
$Comp
L Device:Buzzer BZ?
U 1 1 5EA6AE25
P 9825 2850
AR Path="/5E9D6032/5EA6AE25" Ref="BZ?"  Part="1" 
AR Path="/5E997976/5EA6AE25" Ref="BZ1"  Part="1" 
F 0 "BZ1" H 9977 2879 50  0000 L CNN
F 1 "Buzzer" H 9977 2788 50  0000 L CNN
F 2 "moje_biblioteki:buzzer_D12mm_P7.6mm" V 9800 2950 50  0001 C CNN
F 3 "https://www.tme.eu/pl/details/ld-bzeg-1205/sygnalizatory-elektromag-z-generatorem/loudity/" V 9800 2950 50  0001 C CNN
	1    9825 2850
	1    0    0    -1  
$EndComp
$Comp
L Device:R R?
U 1 1 5EA6AE2B
P 8700 3150
AR Path="/5E9D6032/5EA6AE2B" Ref="R?"  Part="1" 
AR Path="/5E997976/5EA6AE2B" Ref="R65"  Part="1" 
F 0 "R65" V 8625 3150 50  0000 C CNN
F 1 "330R" V 8700 3150 50  0000 C CNN
F 2 "Resistor_SMD:R_0603_1608Metric" V 8630 3150 50  0001 C CNN
F 3 "~" H 8700 3150 50  0001 C CNN
	1    8700 3150
	0    1    1    0   
$EndComp
Wire Wire Line
	9075 3150 8850 3150
$Comp
L Device:R R?
U 1 1 5EA6AE32
P 8550 3300
AR Path="/5E9D6032/5EA6AE32" Ref="R?"  Part="1" 
AR Path="/5E997976/5EA6AE32" Ref="R64"  Part="1" 
F 0 "R64" V 8650 3250 50  0000 L CNN
F 1 "10kR" V 8550 3200 50  0000 L CNN
F 2 "Resistor_SMD:R_0603_1608Metric" V 8480 3300 50  0001 C CNN
F 3 "~" H 8550 3300 50  0001 C CNN
	1    8550 3300
	1    0    0    -1  
$EndComp
Connection ~ 8550 3150
$Comp
L power:GND #PWR?
U 1 1 5EA6AE3A
P 9375 3450
AR Path="/5E9D6032/5EA6AE3A" Ref="#PWR?"  Part="1" 
AR Path="/5E997976/5EA6AE3A" Ref="#PWR034"  Part="1" 
F 0 "#PWR034" H 9375 3200 50  0001 C CNN
F 1 "GND" H 9380 3277 50  0000 C CNN
F 2 "" H 9375 3450 50  0001 C CNN
F 3 "" H 9375 3450 50  0001 C CNN
	1    9375 3450
	1    0    0    -1  
$EndComp
Wire Wire Line
	9375 3350 9375 3450
Wire Wire Line
	9375 3450 8550 3450
Connection ~ 9375 3450
Wire Wire Line
	9375 2950 9725 2950
Wire Wire Line
	9725 2750 9375 2750
$Comp
L Device:R R?
U 1 1 5EA6AE45
P 9225 2750
AR Path="/5E9D6032/5EA6AE45" Ref="R?"  Part="1" 
AR Path="/5E997976/5EA6AE45" Ref="R68"  Part="1" 
F 0 "R68" V 9150 2750 50  0000 C CNN
F 1 "0R" V 9225 2750 50  0000 C CNN
F 2 "Resistor_SMD:R_0603_1608Metric" V 9155 2750 50  0001 C CNN
F 3 "~" H 9225 2750 50  0001 C CNN
	1    9225 2750
	0    1    1    0   
$EndComp
Wire Wire Line
	8950 2750 9075 2750
Wire Wire Line
	6525 3150 8550 3150
$Comp
L _moje:STM6822 U5
U 1 1 5EA7A3D6
P 2500 2150
F 0 "U5" H 2825 2000 50  0000 L CNN
F 1 "STM6822" H 2825 1925 50  0000 L CNN
F 2 "Package_TO_SOT_SMD:SOT-23-5" H 2500 2150 50  0001 C CNN
F 3 "" H 2500 2150 50  0001 C CNN
	1    2500 2150
	1    0    0    -1  
$EndComp
$Comp
L Device:R R40
U 1 1 5EA7BC08
P 4475 2050
F 0 "R40" V 4450 2200 50  0000 C CNN
F 1 "0R" V 4475 2050 50  0000 C CNN
F 2 "Resistor_SMD:R_0603_1608Metric" V 4405 2050 50  0001 C CNN
F 3 "~" H 4475 2050 50  0001 C CNN
	1    4475 2050
	0    1    1    0   
$EndComp
Wire Wire Line
	4625 2050 4950 2050
$Comp
L Device:R R41
U 1 1 5EA8BFEA
P 4475 2250
F 0 "R41" V 4450 2400 50  0000 C CNN
F 1 "0R" V 4475 2250 50  0000 C CNN
F 2 "Resistor_SMD:R_0603_1608Metric" V 4405 2250 50  0001 C CNN
F 3 "~" H 4475 2250 50  0001 C CNN
	1    4475 2250
	0    1    1    0   
$EndComp
Wire Wire Line
	4625 2250 5125 2250
$Comp
L power:GND #PWR028
U 1 1 5EA942A6
P 4325 2250
F 0 "#PWR028" H 4325 2000 50  0001 C CNN
F 1 "GND" H 4330 2077 50  0000 C CNN
F 2 "" H 4325 2250 50  0001 C CNN
F 3 "" H 4325 2250 50  0001 C CNN
	1    4325 2250
	1    0    0    -1  
$EndComp
$Comp
L power:GND #PWR022
U 1 1 5EA94BD3
P 2500 2500
F 0 "#PWR022" H 2500 2250 50  0001 C CNN
F 1 "GND" H 2505 2327 50  0000 C CNN
F 2 "" H 2500 2500 50  0001 C CNN
F 3 "" H 2500 2500 50  0001 C CNN
	1    2500 2500
	1    0    0    -1  
$EndComp
$Comp
L power:+3V3 #PWR021
U 1 1 5EA957D1
P 2500 1500
F 0 "#PWR021" H 2500 1350 50  0001 C CNN
F 1 "+3V3" H 2515 1673 50  0000 C CNN
F 2 "" H 2500 1500 50  0001 C CNN
F 3 "" H 2500 1500 50  0001 C CNN
	1    2500 1500
	1    0    0    -1  
$EndComp
$Comp
L Device:C C9
U 1 1 5EA96734
P 2975 1650
F 0 "C9" H 2975 1725 50  0000 L CNN
F 1 "100nF 50V" V 2975 1850 50  0000 L CNN
F 2 "Capacitor_SMD:C_0603_1608Metric" H 3013 1500 50  0001 C CNN
F 3 "~" H 2975 1650 50  0001 C CNN
	1    2975 1650
	1    0    0    -1  
$EndComp
Wire Wire Line
	2975 1500 2500 1500
Wire Wire Line
	2500 1500 2500 1800
Connection ~ 2500 1500
$Comp
L power:GND #PWR023
U 1 1 5EA9FC03
P 2975 1800
F 0 "#PWR023" H 2975 1550 50  0001 C CNN
F 1 "GND" H 2980 1627 50  0000 C CNN
F 2 "" H 2975 1800 50  0001 C CNN
F 3 "" H 2975 1800 50  0001 C CNN
	1    2975 1800
	1    0    0    -1  
$EndComp
$Comp
L Device:R R61
U 1 1 5EAA0ED3
P 7075 4650
F 0 "R61" V 7050 4800 50  0000 C CNN
F 1 "0R" V 7075 4650 50  0000 C CNN
F 2 "Resistor_SMD:R_0603_1608Metric" V 7005 4650 50  0001 C CNN
F 3 "~" H 7075 4650 50  0001 C CNN
	1    7075 4650
	0    1    1    0   
$EndComp
Wire Wire Line
	6525 4650 6925 4650
Wire Wire Line
	7225 4650 7400 4650
Text GLabel 2100 2050 0    39   Input ~ 0
WATCHDOG_RESET
$Comp
L Device:R R39
U 1 1 5EAB0EE2
P 3225 1900
F 0 "R39" V 3125 1900 50  0000 C CNN
F 1 "10kR DNP" V 3300 1850 50  0000 C CNN
F 2 "Resistor_SMD:R_0603_1608Metric" V 3155 1900 50  0001 C CNN
F 3 "~" H 3225 1900 50  0001 C CNN
	1    3225 1900
	-1   0    0    1   
$EndComp
Connection ~ 3225 2050
Wire Wire Line
	3225 2050 2900 2050
$Comp
L power:+3V3 #PWR024
U 1 1 5EAB1D8A
P 3225 1625
F 0 "#PWR024" H 3225 1475 50  0001 C CNN
F 1 "+3V3" H 3240 1798 50  0000 C CNN
F 2 "" H 3225 1625 50  0001 C CNN
F 3 "" H 3225 1625 50  0001 C CNN
	1    3225 1625
	1    0    0    -1  
$EndComp
Wire Wire Line
	3225 1625 3225 1750
$Comp
L Switch:SW_Push SW1
U 1 1 5EABBD7C
P 1250 2250
F 0 "SW1" H 1250 2535 50  0000 C CNN
F 1 "RESET" H 1250 2444 50  0000 C CNN
F 2 "moje_biblioteki:B3F-31XX" H 1250 2450 50  0001 C CNN
F 3 "~" H 1250 2450 50  0001 C CNN
	1    1250 2250
	1    0    0    -1  
$EndComp
Wire Wire Line
	1450 2250 1775 2250
$Comp
L power:GND #PWR020
U 1 1 5EAC6472
P 1050 2250
F 0 "#PWR020" H 1050 2000 50  0001 C CNN
F 1 "GND" H 1055 2077 50  0000 C CNN
F 2 "" H 1050 2250 50  0001 C CNN
F 3 "" H 1050 2250 50  0001 C CNN
	1    1050 2250
	1    0    0    -1  
$EndComp
$Comp
L Device:R R53
U 1 1 5EB7EF8D
P 7075 3250
F 0 "R53" V 7050 3400 50  0000 C CNN
F 1 "330R" V 7075 3250 50  0000 C CNN
F 2 "Resistor_SMD:R_0603_1608Metric" V 7005 3250 50  0001 C CNN
F 3 "~" H 7075 3250 50  0001 C CNN
	1    7075 3250
	0    1    1    0   
$EndComp
Wire Wire Line
	6525 3250 6925 3250
Wire Wire Line
	7225 3250 7400 3250
$Comp
L Connector_Generic:Conn_02x03_Odd_Even J16
U 1 1 5EA23C64
P 1550 7225
F 0 "J16" H 1600 7542 50  0000 C CNN
F 1 "PROG" H 1600 7451 50  0000 C CNN
F 2 "Connector_PinSocket_1.27mm:PinSocket_2x03_P1.27mm_Vertical_SMD" H 1550 7225 50  0001 C CNN
F 3 "~" H 1550 7225 50  0001 C CNN
	1    1550 7225
	1    0    0    -1  
$EndComp
Text GLabel 1350 7225 0    39   Input ~ 0
SWDIO
Text GLabel 1850 7225 2    39   Input ~ 0
SWCLK
$Comp
L power:GND #PWR080
U 1 1 5EA2E9FA
P 1850 7325
F 0 "#PWR080" H 1850 7075 50  0001 C CNN
F 1 "GND" H 1855 7152 50  0000 C CNN
F 2 "" H 1850 7325 50  0001 C CNN
F 3 "" H 1850 7325 50  0001 C CNN
	1    1850 7325
	1    0    0    -1  
$EndComp
$Comp
L power:GND #PWR078
U 1 1 5EA2F25F
P 1025 7125
F 0 "#PWR078" H 1025 6875 50  0001 C CNN
F 1 "GND" H 1030 6952 50  0000 C CNN
F 2 "" H 1025 7125 50  0001 C CNN
F 3 "" H 1025 7125 50  0001 C CNN
	1    1025 7125
	1    0    0    -1  
$EndComp
Wire Wire Line
	1025 7125 1350 7125
$Comp
L power:+3V3 #PWR079
U 1 1 5EA39122
P 1850 7125
F 0 "#PWR079" H 1850 6975 50  0001 C CNN
F 1 "+3V3" H 1865 7298 50  0000 C CNN
F 2 "" H 1850 7125 50  0001 C CNN
F 3 "" H 1850 7125 50  0001 C CNN
	1    1850 7125
	1    0    0    -1  
$EndComp
Text GLabel 1350 7325 0    39   Input ~ 0
RESET
Text GLabel 4950 1950 0    39   Input ~ 0
RESET
Wire Wire Line
	4950 1950 4950 2050
Connection ~ 4950 2050
Wire Wire Line
	4950 2050 5125 2050
$Comp
L Device:C C36
U 1 1 5EAE9BE2
P 4375 3150
F 0 "C36" V 4325 3250 50  0000 C CNN
F 1 "20pF" V 4325 3000 50  0000 C CNN
F 2 "Capacitor_SMD:C_0603_1608Metric" H 4413 3000 50  0001 C CNN
F 3 "~" H 4375 3150 50  0001 C CNN
	1    4375 3150
	0    1    1    0   
$EndComp
$Comp
L Device:C C37
U 1 1 5EAEAC56
P 4375 3625
F 0 "C37" V 4425 3725 50  0000 C CNN
F 1 "20pF" V 4425 3475 50  0000 C CNN
F 2 "Capacitor_SMD:C_0603_1608Metric" H 4413 3475 50  0001 C CNN
F 3 "~" H 4375 3625 50  0001 C CNN
	1    4375 3625
	0    1    1    0   
$EndComp
Wire Wire Line
	4375 3300 4525 3300
Wire Wire Line
	4525 3150 4525 3300
Connection ~ 4525 3300
Wire Wire Line
	4525 3300 5000 3300
Wire Wire Line
	4525 3625 4525 3500
Connection ~ 4525 3500
Wire Wire Line
	4525 3500 4375 3500
Wire Wire Line
	4225 3625 4225 3400
Wire Wire Line
	4025 3400 4225 3400
Connection ~ 4225 3400
Wire Wire Line
	4225 3400 4225 3150
Wire Wire Line
	4225 3400 4275 3400
Wire Wire Line
	4250 4150 5125 4150
Wire Wire Line
	4250 4250 5125 4250
Text HLabel 7400 5250 2    39   Input ~ 0
SPI2_MOSI
$Comp
L Device:R R17
U 1 1 5ED66091
P 7075 5250
F 0 "R17" V 7050 5400 50  0000 C CNN
F 1 "330R" V 7075 5250 50  0000 C CNN
F 2 "Resistor_SMD:R_0603_1608Metric" V 7005 5250 50  0001 C CNN
F 3 "~" H 7075 5250 50  0001 C CNN
	1    7075 5250
	0    1    1    0   
$EndComp
Wire Wire Line
	7225 5250 7400 5250
$Comp
L Device:R R26
U 1 1 5EB7893E
P 6825 5400
F 0 "R26" V 6750 5400 50  0000 C CNN
F 1 "10kR" V 6825 5400 50  0000 C CNN
F 2 "Resistor_SMD:R_0603_1608Metric" V 6755 5400 50  0001 C CNN
F 3 "~" H 6825 5400 50  0001 C CNN
	1    6825 5400
	1    0    0    -1  
$EndComp
$Comp
L power:GND #PWR045
U 1 1 5EB79784
P 6825 5550
F 0 "#PWR045" H 6825 5300 50  0001 C CNN
F 1 "GND" H 6830 5377 50  0000 C CNN
F 2 "" H 6825 5550 50  0001 C CNN
F 3 "" H 6825 5550 50  0001 C CNN
	1    6825 5550
	1    0    0    -1  
$EndComp
Wire Wire Line
	6525 5250 6825 5250
Connection ~ 6825 5250
Wire Wire Line
	6825 5250 6925 5250
Text Notes 5450 6275 0    39   ~ 0
In case of part inavailability \nit might be replaced with 0R resistor
Text Notes 5925 1800 1    39   ~ 0
In case of part inavailability \nit might be replaced with 0R resistor
$Comp
L Device:C C38
U 1 1 5F987423
P 3775 2500
F 0 "C38" H 3775 2575 50  0000 L CNN
F 1 "10nF 50V" V 3625 2225 50  0000 L CNN
F 2 "Capacitor_SMD:C_0603_1608Metric" H 3813 2350 50  0001 C CNN
F 3 "~" H 3775 2500 50  0001 C CNN
	1    3775 2500
	1    0    0    -1  
$EndComp
$Comp
L power:GND #PWR088
U 1 1 5F99EEDA
P 3775 2650
F 0 "#PWR088" H 3775 2400 50  0001 C CNN
F 1 "GND" H 3780 2477 50  0000 C CNN
F 2 "" H 3775 2650 50  0001 C CNN
F 3 "" H 3775 2650 50  0001 C CNN
	1    3775 2650
	1    0    0    -1  
$EndComp
$Comp
L Device:C C19
U 1 1 5F99FF01
P 1775 2400
F 0 "C19" H 1775 2475 50  0000 L CNN
F 1 "10nF 50V" V 1625 2125 50  0000 L CNN
F 2 "Capacitor_SMD:C_0603_1608Metric" H 1813 2250 50  0001 C CNN
F 3 "~" H 1775 2400 50  0001 C CNN
	1    1775 2400
	1    0    0    -1  
$EndComp
$Comp
L power:GND #PWR087
U 1 1 5F99FF07
P 1775 2550
F 0 "#PWR087" H 1775 2300 50  0001 C CNN
F 1 "GND" H 1780 2377 50  0000 C CNN
F 2 "" H 1775 2550 50  0001 C CNN
F 3 "" H 1775 2550 50  0001 C CNN
	1    1775 2550
	1    0    0    -1  
$EndComp
Connection ~ 1775 2250
Wire Wire Line
	1775 2250 2100 2250
Text HLabel 7400 4950 2    39   Input ~ 0
SPI1_CS6
Text HLabel 7400 4550 2    39   Input ~ 0
SPI1_CS5
Wire Wire Line
	6525 4550 7400 4550
Wire Wire Line
	6525 4950 7400 4950
$Comp
L Device:R R7
U 1 1 5FA0FF7E
P 4575 4350
F 0 "R7" V 4550 4500 50  0000 C CNN
F 1 "330R" V 4575 4350 50  0000 C CNN
F 2 "Resistor_SMD:R_0603_1608Metric" V 4505 4350 50  0001 C CNN
F 3 "~" H 4575 4350 50  0001 C CNN
	1    4575 4350
	0    1    1    0   
$EndComp
Wire Wire Line
	4725 4350 5125 4350
Wire Wire Line
	4425 4350 4250 4350
Text HLabel 4250 4350 0    39   Input ~ 0
RPM_MEASUREMENT
Text GLabel 3675 2225 0    39   Input ~ 0
RESET
Wire Wire Line
	3225 2050 4325 2050
Wire Wire Line
	3675 2225 3775 2225
Wire Wire Line
	3775 2225 3775 2350
Text HLabel 7400 4850 2    39   Input ~ 0
USART3_RX
Text HLabel 4250 4650 0    39   Input ~ 0
PC9
$Comp
L Device:R R6
U 1 1 5F9EF249
P 4575 4450
F 0 "R6" V 4550 4600 50  0000 C CNN
F 1 "330R" V 4575 4450 50  0000 C CNN
F 2 "Resistor_SMD:R_0603_1608Metric" V 4505 4450 50  0001 C CNN
F 3 "~" H 4575 4450 50  0001 C CNN
	1    4575 4450
	0    1    1    0   
$EndComp
Wire Wire Line
	4725 4450 5125 4450
Wire Wire Line
	4425 4450 4250 4450
Text HLabel 4250 4450 0    39   Input ~ 0
PC7
$Comp
L Device:R R8
U 1 1 5F9FA8E8
P 4575 4550
F 0 "R8" V 4550 4700 50  0000 C CNN
F 1 "330R" V 4575 4550 50  0000 C CNN
F 2 "Resistor_SMD:R_0603_1608Metric" V 4505 4550 50  0001 C CNN
F 3 "~" H 4575 4550 50  0001 C CNN
	1    4575 4550
	0    1    1    0   
$EndComp
Wire Wire Line
	4725 4550 5125 4550
Wire Wire Line
	4425 4550 4250 4550
Text HLabel 4250 4550 0    39   Input ~ 0
PC8
$Comp
L Device:R R9
U 1 1 5FA06682
P 4575 4750
F 0 "R9" V 4550 4900 50  0000 C CNN
F 1 "330R" V 4575 4750 50  0000 C CNN
F 2 "Resistor_SMD:R_0603_1608Metric" V 4505 4750 50  0001 C CNN
F 3 "~" H 4575 4750 50  0001 C CNN
	1    4575 4750
	0    1    1    0   
$EndComp
Wire Wire Line
	4725 4750 5125 4750
Wire Wire Line
	4425 4750 4250 4750
Text HLabel 4250 4750 0    39   Input ~ 0
PC10
$Comp
L Device:R R10
U 1 1 5FA129E8
P 4575 4850
F 0 "R10" V 4550 5000 50  0000 C CNN
F 1 "330R" V 4575 4850 50  0000 C CNN
F 2 "Resistor_SMD:R_0603_1608Metric" V 4505 4850 50  0001 C CNN
F 3 "~" H 4575 4850 50  0001 C CNN
	1    4575 4850
	0    1    1    0   
$EndComp
Wire Wire Line
	4725 4850 5125 4850
Wire Wire Line
	4425 4850 4250 4850
Text HLabel 4250 4850 0    39   Input ~ 0
PC11
$Comp
L Device:R R11
U 1 1 5FA1F381
P 4575 4950
F 0 "R11" V 4550 5100 50  0000 C CNN
F 1 "330R" V 4575 4950 50  0000 C CNN
F 2 "Resistor_SMD:R_0603_1608Metric" V 4505 4950 50  0001 C CNN
F 3 "~" H 4575 4950 50  0001 C CNN
	1    4575 4950
	0    1    1    0   
$EndComp
Wire Wire Line
	4725 4950 5125 4950
Wire Wire Line
	4425 4950 4250 4950
Text HLabel 4250 4950 0    39   Input ~ 0
PC12
$Comp
L Device:R R12
U 1 1 5FA2C444
P 4575 5050
F 0 "R12" V 4550 5200 50  0000 C CNN
F 1 "330R" V 4575 5050 50  0000 C CNN
F 2 "Resistor_SMD:R_0603_1608Metric" V 4505 5050 50  0001 C CNN
F 3 "~" H 4575 5050 50  0001 C CNN
	1    4575 5050
	0    1    1    0   
$EndComp
Wire Wire Line
	4725 5050 5125 5050
Wire Wire Line
	4425 5050 4250 5050
Text HLabel 4250 5050 0    39   Input ~ 0
PC13
$Comp
L Device:R R13
U 1 1 5FA39B40
P 4575 5150
F 0 "R13" V 4550 5300 50  0000 C CNN
F 1 "330R" V 4575 5150 50  0000 C CNN
F 2 "Resistor_SMD:R_0603_1608Metric" V 4505 5150 50  0001 C CNN
F 3 "~" H 4575 5150 50  0001 C CNN
	1    4575 5150
	0    1    1    0   
$EndComp
Wire Wire Line
	4725 5150 5125 5150
Wire Wire Line
	4425 5150 4250 5150
Text HLabel 4250 5150 0    39   Input ~ 0
PC14
$Comp
L Device:R R14
U 1 1 5FA4782C
P 4575 5250
F 0 "R14" V 4550 5400 50  0000 C CNN
F 1 "330R" V 4575 5250 50  0000 C CNN
F 2 "Resistor_SMD:R_0603_1608Metric" V 4505 5250 50  0001 C CNN
F 3 "~" H 4575 5250 50  0001 C CNN
	1    4575 5250
	0    1    1    0   
$EndComp
Wire Wire Line
	4725 5250 5125 5250
Wire Wire Line
	4425 5250 4250 5250
Text HLabel 4250 5250 0    39   Input ~ 0
PC15
$Comp
L Device:R R15
U 1 1 5FA64F1F
P 7075 5050
F 0 "R15" V 7050 5200 50  0000 C CNN
F 1 "330R" V 7075 5050 50  0000 C CNN
F 2 "Resistor_SMD:R_0603_1608Metric" V 7005 5050 50  0001 C CNN
F 3 "~" H 7075 5050 50  0001 C CNN
	1    7075 5050
	0    -1   -1   0   
$EndComp
Wire Wire Line
	6925 5050 6525 5050
Wire Wire Line
	7225 5050 7400 5050
$Comp
L Device:R R16
U 1 1 5FA735A6
P 7075 5150
F 0 "R16" V 7050 5300 50  0000 C CNN
F 1 "330R" V 7075 5150 50  0000 C CNN
F 2 "Resistor_SMD:R_0603_1608Metric" V 7005 5150 50  0001 C CNN
F 3 "~" H 7075 5150 50  0001 C CNN
	1    7075 5150
	0    -1   -1   0   
$EndComp
Wire Wire Line
	6925 5150 6525 5150
Wire Wire Line
	7225 5150 7400 5150
Text HLabel 7400 5050 2    39   Input ~ 0
PB13
Text HLabel 7400 5150 2    39   Input ~ 0
PB14
Text HLabel 7400 3250 2    39   Input ~ 0
PA12
Text HLabel 8675 4025 2    39   Input ~ 0
ENC2
Text HLabel 8675 3925 2    39   Input ~ 0
ENC1
$EndSCHEMATC
