EESchema Schematic File Version 4
EELAYER 30 0
EELAYER END
$Descr A4 11693 8268
encoding utf-8
Sheet 1 6
Title "Main Board for V3"
Date "2020-04-20"
Rev "1.0"
Comp "VentilAid"
Comment1 "Maciej Żarnowski"
Comment2 ""
Comment3 ""
Comment4 ""
$EndDescr
$Sheet
S 5525 2475 1375 1450
U 5E9D2B53
F0 "sensors" 50
F1 "sensors.sch" 50
F2 "MISO" I L 5525 2925 39 
F3 "SCLK" I L 5525 3000 39 
F4 "CS1" I L 5525 3075 39 
F5 "CS3" I L 5525 3225 39 
F6 "CS2" I L 5525 3150 39 
F7 "CS4" I L 5525 3300 39 
F8 "CS5" I L 5525 3375 39 
$EndSheet
Wire Wire Line
	4625 2925 5350 2925
Wire Wire Line
	5525 3000 5275 3000
Wire Wire Line
	4625 3075 5525 3075
Wire Wire Line
	5525 3150 4625 3150
Wire Wire Line
	4625 3225 5525 3225
Wire Wire Line
	5525 3300 4625 3300
$Sheet
S 3250 2325 1375 5325
U 5E997976
F0 "uC" 50
F1 "uC.sch" 50
F2 "ADC0" I L 3250 2400 39 
F3 "ADC1" I L 3250 2475 39 
F4 "ADC2" I L 3250 2550 39 
F5 "ADC3" I L 3250 2625 39 
F6 "SPI1_CS1" I R 4625 3075 39 
F7 "SPI1_CS2" I R 4625 3150 39 
F8 "SPI1_CS4" I R 4625 3300 39 
F9 "SPI1_CS3" I R 4625 3225 39 
F10 "SPI1_SCK" I R 4625 3000 39 
F11 "SPI1_MISO" I R 4625 2925 39 
F12 "DCPWM" I R 4625 6125 39 
F13 "USART2_TX" I R 4625 4200 39 
F14 "USART2_RX" I R 4625 4275 39 
F15 "EXTERNAL_ALARM" I L 3250 5975 39 
F16 "SPI1_MOSI" I R 4625 3950 39 
F17 "RASP_GPIO_2" I R 4625 4425 39 
F18 "RASP_GPIO_1" I R 4625 4350 39 
F19 "SPI1_EX_CS2" I R 4625 3875 39 
F20 "SPI1_EX_CS1" I R 4625 3800 39 
F21 "ENC1" I R 4625 6350 39 
F22 "ENC2" I R 4625 6425 39 
F23 "I2C_SCL" I R 4625 5500 39 
F24 "I2C_SDA" I R 4625 5575 39 
F25 "SPI2_MOSI" I R 4625 5175 39 
F26 "SPI1_CS6" I R 4625 4025 39 
F27 "SPI1_CS5" I R 4625 3375 39 
F28 "RPM_MEASUREMENT" I R 4625 5925 39 
F29 "MOTOR_PWM" I R 4625 5300 39 
F30 "SERVO0_PWM" I R 4625 5700 39 
F31 "SERVO1_PWM" I R 4625 5775 39 
F32 "USART3_TX" I R 4625 7400 39 
F33 "USART3_RX" I R 4625 5375 39 
F34 "PC9" I R 4625 6650 39 
F35 "PC7" I R 4625 6500 39 
F36 "PC8" I R 4625 6575 39 
F37 "PC10" I R 4625 6725 39 
F38 "PC11" I R 4625 6800 39 
F39 "PC12" I R 4625 6875 39 
F40 "PC13" I R 4625 6950 39 
F41 "PC14" I R 4625 7025 39 
F42 "PC15" I R 4625 7100 39 
F43 "PB13" I R 4625 7175 39 
F44 "PB14" I R 4625 7250 39 
F45 "PA12" I R 4625 7325 39 
$EndSheet
$Sheet
S 5525 4175 1375 3475
U 5EA35A8B
F0 "connectors" 39
F1 "connectors.sch" 39
F2 "SPI_MISO" I L 5525 4225 39 
F3 "SPI_MOSI" I L 5525 4525 39 
F4 "SPI_SCK" I L 5525 4300 39 
F5 "SPI_EX_CS1" I L 5525 4375 39 
F6 "SPI_EX_CS2" I L 5525 4450 39 
F7 "RASP_TX" I L 5525 4875 39 
F8 "RASP_RX" I L 5525 4950 39 
F9 "RASP_GPIO_1" I L 5525 5025 39 
F10 "RASP_GPIO_2" I L 5525 5100 39 
F11 "BLDC_TELEM" I L 5525 5375 39 
F12 "I2C_SCL" I L 5525 5500 39 
F13 "I2C_SDA" I L 5525 5575 39 
F14 "DC_PWM" I L 5525 6125 39 
F15 "ENC1" I L 5525 6350 39 
F16 "ENC2" I L 5525 6425 39 
F17 "LED_OUT" I L 5525 5175 39 
F18 "CS6" I L 5525 4600 39 
F19 "MOTOR_PWM" I L 5525 5300 39 
F20 "SERVO0_PWM" I L 5525 5700 39 
F21 "SERVO1_PWM" I L 5525 5775 39 
F22 "RPM_MEASUREMENT" I L 5525 5925 39 
F23 "ADC2" I L 5525 7600 39 
F24 "ADC3" I L 5525 7525 39 
F25 "PB13" I L 5525 7175 39 
F26 "PB14" I L 5525 7250 39 
F27 "PA12" I L 5525 7325 39 
F28 "PC9" I L 5525 6650 39 
F29 "PC7" I L 5525 6500 39 
F30 "PC8" I L 5525 6575 39 
F31 "PC10" I L 5525 6725 39 
F32 "PC11" I L 5525 6800 39 
F33 "PC12" I L 5525 6875 39 
F34 "PC13" I L 5525 6950 39 
F35 "PC14" I L 5525 7025 39 
F36 "PC15" I L 5525 7100 39 
F37 "USART3_TX" I L 5525 7400 39 
$EndSheet
Wire Wire Line
	5525 4225 5350 4225
Wire Wire Line
	5350 4225 5350 2925
Connection ~ 5350 2925
Wire Wire Line
	5350 2925 5525 2925
Wire Wire Line
	5525 4300 5275 4300
Wire Wire Line
	5275 4300 5275 3000
Connection ~ 5275 3000
Wire Wire Line
	5275 3000 4625 3000
Wire Wire Line
	5525 4375 5200 4375
Wire Wire Line
	5200 4375 5200 3800
Wire Wire Line
	5525 4450 5125 4450
Wire Wire Line
	5125 4450 5125 3875
Wire Wire Line
	5525 4525 5050 4525
Wire Wire Line
	5050 4525 5050 3950
Wire Wire Line
	4625 4200 4975 4200
Wire Wire Line
	4975 4200 4975 4875
Wire Wire Line
	4975 4875 5525 4875
Wire Wire Line
	4625 4275 4900 4275
Wire Wire Line
	4900 4275 4900 4950
Wire Wire Line
	4900 4950 5525 4950
Wire Wire Line
	4625 4350 4825 4350
Wire Wire Line
	4825 4350 4825 5025
Wire Wire Line
	4825 5025 5525 5025
Wire Wire Line
	4750 4425 4750 5100
Wire Wire Line
	4750 5100 5525 5100
Wire Wire Line
	4750 4425 4625 4425
Wire Wire Line
	5525 5375 4625 5375
Wire Wire Line
	4625 5300 5525 5300
Wire Wire Line
	4625 5500 5525 5500
Wire Wire Line
	5525 5575 4625 5575
Wire Wire Line
	4625 5700 5525 5700
Wire Wire Line
	5525 5775 4625 5775
$Sheet
S 1825 5350 1075 875 
U 5E9D6032
F0 "external_alarm" 50
F1 "external_alarm.sch" 50
F2 "ALARM_RESET" I R 2900 5975 50 
$EndSheet
Wire Wire Line
	2900 5975 3250 5975
Wire Wire Line
	5525 6125 4625 6125
$Sheet
S 1450 800  1375 1450
U 5EB48B18
F0 "power_supplies" 39
F1 "power_supplies.sch" 39
F2 "5V_MEAS" I R 2825 2025 39 
F3 "12V_MEAS" I R 2825 2100 39 
$EndSheet
Wire Wire Line
	2825 2025 3175 2025
Wire Wire Line
	3175 2025 3175 2400
Wire Wire Line
	3175 2400 3250 2400
Wire Wire Line
	3250 2475 3100 2475
Wire Wire Line
	3100 2475 3100 2100
Wire Wire Line
	3100 2100 2825 2100
Wire Wire Line
	1400 2550 3250 2550
Wire Wire Line
	5525 6350 4625 6350
Wire Wire Line
	4625 6425 5525 6425
$Comp
L Mechanical:MountingHole H1
U 1 1 5EA1E189
P 7050 6400
F 0 "H1" H 7150 6446 50  0000 L CNN
F 1 "hole" H 7150 6355 50  0000 L CNN
F 2 "moje_biblioteki:otwor_3_2mm_wiecej_miedzi" H 7050 6400 50  0001 C CNN
F 3 "~" H 7050 6400 50  0001 C CNN
	1    7050 6400
	1    0    0    -1  
$EndComp
$Comp
L Mechanical:MountingHole H2
U 1 1 5EA1FFCE
P 7450 6400
F 0 "H2" H 7550 6446 50  0000 L CNN
F 1 "hole" H 7550 6355 50  0000 L CNN
F 2 "moje_biblioteki:otwor_3_2mm_wiecej_miedzi" H 7450 6400 50  0001 C CNN
F 3 "~" H 7450 6400 50  0001 C CNN
	1    7450 6400
	1    0    0    -1  
$EndComp
$Comp
L Mechanical:MountingHole H3
U 1 1 5EA20451
P 7825 6400
F 0 "H3" H 7925 6446 50  0000 L CNN
F 1 "hole" H 7925 6355 50  0000 L CNN
F 2 "moje_biblioteki:otwor_3_2mm_wiecej_miedzi" H 7825 6400 50  0001 C CNN
F 3 "~" H 7825 6400 50  0001 C CNN
	1    7825 6400
	1    0    0    -1  
$EndComp
$Comp
L Mechanical:MountingHole H4
U 1 1 5EA2081F
P 8200 6400
F 0 "H4" H 8300 6446 50  0000 L CNN
F 1 "hole" H 8300 6355 50  0000 L CNN
F 2 "moje_biblioteki:otwor_3_2mm_wiecej_miedzi" H 8200 6400 50  0001 C CNN
F 3 "~" H 8200 6400 50  0001 C CNN
	1    8200 6400
	1    0    0    -1  
$EndComp
$Comp
L Mechanical:Fiducial FID1
U 1 1 5EA2142C
P 8600 6400
F 0 "FID1" H 8685 6446 50  0000 L CNN
F 1 "Fiducial" H 8685 6355 50  0000 L CNN
F 2 "Fiducial:Fiducial_1.5mm_Mask3mm" H 8600 6400 50  0001 C CNN
F 3 "~" H 8600 6400 50  0001 C CNN
	1    8600 6400
	1    0    0    -1  
$EndComp
$Comp
L Mechanical:Fiducial FID2
U 1 1 5EA21DFF
P 9050 6400
F 0 "FID2" H 9135 6446 50  0000 L CNN
F 1 "Fiducial" H 9135 6355 50  0000 L CNN
F 2 "Fiducial:Fiducial_1.5mm_Mask3mm" H 9050 6400 50  0001 C CNN
F 3 "~" H 9050 6400 50  0001 C CNN
	1    9050 6400
	1    0    0    -1  
$EndComp
$Comp
L Mechanical:Fiducial FID3
U 1 1 5EA22005
P 9500 6400
F 0 "FID3" H 9585 6446 50  0000 L CNN
F 1 "Fiducial" H 9585 6355 50  0000 L CNN
F 2 "Fiducial:Fiducial_1.5mm_Mask3mm" H 9500 6400 50  0001 C CNN
F 3 "~" H 9500 6400 50  0001 C CNN
	1    9500 6400
	1    0    0    -1  
$EndComp
Wire Wire Line
	4625 5175 5525 5175
$Comp
L Mechanical:MountingHole H6
U 1 1 5EA68D3B
P 8200 6150
F 0 "H6" H 8300 6196 50  0000 L CNN
F 1 "hole" H 8300 6105 50  0000 L CNN
F 2 "moje_biblioteki:otwor_3_2mm_wiecej_miedzi" H 8200 6150 50  0001 C CNN
F 3 "~" H 8200 6150 50  0001 C CNN
	1    8200 6150
	1    0    0    -1  
$EndComp
$Comp
L Mechanical:MountingHole H5
U 1 1 5EA68FC1
P 7825 6150
F 0 "H5" H 7925 6196 50  0000 L CNN
F 1 "hole" H 7925 6105 50  0000 L CNN
F 2 "moje_biblioteki:otwor_3_2mm_wiecej_miedzi" H 7825 6150 50  0001 C CNN
F 3 "~" H 7825 6150 50  0001 C CNN
	1    7825 6150
	1    0    0    -1  
$EndComp
Wire Wire Line
	4625 3950 5050 3950
Wire Wire Line
	4625 3875 5125 3875
Wire Wire Line
	4625 3800 5200 3800
Wire Wire Line
	5525 3375 4625 3375
Wire Wire Line
	5525 4600 5025 4600
Wire Wire Line
	4625 4025 5025 4025
Wire Wire Line
	5025 4025 5025 4600
Wire Wire Line
	4625 5925 5525 5925
Wire Wire Line
	1475 2625 3250 2625
Wire Wire Line
	5225 7775 1400 7775
Wire Wire Line
	1400 2550 1400 7775
Wire Wire Line
	5150 7750 1475 7750
Wire Wire Line
	1475 2625 1475 7750
Wire Wire Line
	5525 7600 5225 7600
Wire Wire Line
	5225 7600 5225 7775
Wire Wire Line
	5150 7750 5150 7525
Wire Wire Line
	5150 7525 5525 7525
Wire Wire Line
	5525 6500 4625 6500
Wire Wire Line
	4625 6575 5525 6575
Wire Wire Line
	5525 6650 4625 6650
Wire Wire Line
	4625 6725 5525 6725
Wire Wire Line
	5525 6800 4625 6800
Wire Wire Line
	4625 6875 5525 6875
Wire Wire Line
	5525 6950 4625 6950
Wire Wire Line
	4625 7025 5525 7025
Wire Wire Line
	5525 7100 4625 7100
Wire Wire Line
	4625 7175 5525 7175
Wire Wire Line
	5525 7250 4625 7250
Wire Wire Line
	4625 7325 5525 7325
Wire Wire Line
	5525 7400 4625 7400
Text Notes 2025 5900 0    197  ~ 39
DNP!
$EndSCHEMATC
