M48
; DRILL file {KiCad 5.1.8+dfsg1-1} date Thu Nov 19 11:54:36 2020
; FORMAT={-:-/ absolute / inch / decimal}
; #@! TF.CreationDate,2020-11-19T11:54:36+01:00
; #@! TF.GenerationSoftware,Kicad,Pcbnew,5.1.8+dfsg1-1
; #@! TF.FileFunction,Plated,1,4,PTH
FMAT,2
INCH
T1C0.0157
T2C0.0197
T3C0.0300
T4C0.0315
T5C0.0354
T6C0.0394
T7C0.0433
T8C0.0472
T9C0.0630
T10C0.1260
%
G90
G05
T1
X1.2205Y-5.6299
X1.2205Y-5.7874
X1.2205Y-5.9449
X1.2205Y-6.4173
X1.2205Y-6.8898
X1.2205Y-7.0472
X1.2205Y-7.2047
X1.2205Y-7.3622
X1.2795Y-7.4213
X1.2992Y-5.5512
X1.437Y-7.2047
X1.437Y-7.4213
X1.4567Y-5.5512
X1.4567Y-5.7874
X1.4961Y-6.4173
X1.5354Y-6.063
X1.5748Y-6.4173
X1.5945Y-7.4213
X1.666Y-7.259
X1.6929Y-6.063
X1.6929Y-6.2205
X1.7224Y-7.4213
X1.7323Y-6.2598
X1.7421Y-6.9587
X1.7441Y-6.5118
X1.808Y-7.076
X1.9094Y-7.4213
X1.9291Y-5.5807
X1.9291Y-5.7185
X2.0079Y-6.063
X2.0669Y-7.4213
X2.1654Y-6.063
X2.1752Y-5.7972
X2.2244Y-7.4213
X2.2638Y-5.7972
X2.3051Y-6.533
X2.3175Y-6.777
X2.3622Y-5.7874
X2.3646Y-6.533
X2.372Y-6.752
X2.3819Y-7.4213
X2.4183Y-6.5285
X2.4213Y-6.752
X2.474Y-7.1073
X2.493Y-5.817
X2.5394Y-7.4213
X2.5689Y-5.5709
X2.601Y-5.811
X2.6575Y-5.8071
X2.687Y-5.5906
X2.6969Y-7.4213
X2.7657Y-5.7579
X2.815Y-5.8071
X2.8543Y-7.4213
X2.8804Y-5.7515
X2.9232Y-6.5157
X2.9232Y-7.1358
X2.9724Y-6.5157
X2.9921Y-6.063
X3.0118Y-7.4213
X3.037Y-6.706
X3.0709Y-6.1417
X3.0709Y-6.2598
X3.1496Y-6.2205
X3.1693Y-7.4213
X3.2283Y-6.2992
X3.2283Y-6.4173
X3.2677Y-6.063
X3.3071Y-6.378
X3.3071Y-6.4961
X3.3268Y-7.4213
X3.3465Y-6.1417
X3.3858Y-6.4567
X3.3858Y-6.5748
X3.4252Y-6.2205
X3.4646Y-6.5354
X3.4646Y-6.6535
X3.4843Y-7.4213
X3.5039Y-6.2992
X3.5433Y-6.6142
X3.5433Y-6.7323
X3.622Y-6.1122
X3.6417Y-7.4213
X3.6614Y-6.4567
X3.6614Y-6.6535
X3.6614Y-6.7323
X3.7992Y-7.4213
X3.8189Y-6.6142
X3.8189Y-6.7323
X3.9567Y-7.4213
X3.9764Y-6.6142
X3.9764Y-6.7323
X3.999Y-7.064
X4.0152Y-7.284
X4.0157Y-6.8504
X4.1142Y-7.1752
X4.1142Y-7.4213
X4.1339Y-6.7323
X4.2126Y-6.8504
X4.2323Y-7.0669
X4.2717Y-7.4213
X4.2913Y-6.7323
X4.3307Y-6.9685
X4.3799Y-6.6142
X4.4291Y-7.0669
X4.4291Y-7.4213
X4.4488Y-6.7323
X4.5079Y-6.9488
X4.5866Y-7.4213
X4.6063Y-6.7323
X4.7244Y-6.6142
X4.7441Y-7.1063
X4.7441Y-7.4213
X4.7638Y-6.7323
X4.7638Y-6.9488
X4.9016Y-7.4213
X4.9213Y-6.7323
X4.9449Y-6.6693
X5.0591Y-6.7913
X5.0591Y-6.9488
X5.0591Y-7.1063
X5.0591Y-7.2638
X5.0591Y-7.4213
X5.0787Y-6.6654
T2
X4.4173Y-5.6693
X4.4438Y-5.6053
X4.4438Y-5.7333
X4.5079Y-5.5787
X4.5079Y-5.7598
X4.5719Y-5.6053
X4.5719Y-5.7333
X4.5984Y-5.6693
X4.8701Y-5.6693
X4.8966Y-5.6053
X4.8966Y-5.7333
X4.9606Y-5.5787
X4.9606Y-5.7598
X5.0247Y-5.6053
X5.0247Y-5.7333
X5.0512Y-5.6693
X4.8701Y-6.122
X4.8966Y-6.058
X4.8966Y-6.1861
X4.9606Y-6.0315
X4.9606Y-6.2126
X5.0247Y-6.058
X5.0247Y-6.1861
X5.0512Y-6.122
X1.6417Y-5.6693
X1.6683Y-5.6053
X1.6683Y-5.7333
X1.7323Y-5.5787
X1.7323Y-5.7598
X1.7963Y-5.6053
X1.7963Y-5.7333
X1.8228Y-5.6693
T4
X1.8406Y-6.0335
X1.9094Y-6.0335
X2.5394Y-6.5354
X2.5394Y-6.6929
T5
X3.738Y-5.7899
X3.738Y-6.223
X3.838Y-5.7899
X3.838Y-6.223
X3.938Y-5.7899
X3.938Y-6.223
X3.736Y-5.6085
X3.736Y-6.1235
X3.836Y-5.6085
X3.836Y-6.1235
X3.936Y-5.6085
X3.936Y-6.1235
X4.036Y-5.6085
X4.036Y-6.1235
T6
X4.804Y-6.589
X4.904Y-6.589
X5.004Y-6.589
X4.1125Y-6.589
X4.2125Y-6.589
X4.3125Y-6.589
X4.455Y-6.589
X4.555Y-6.589
X4.655Y-6.589
X1.324Y-6.1174
X1.324Y-6.2174
X1.324Y-6.3174
X1.324Y-6.4174
X1.324Y-6.5174
X1.324Y-6.6174
X1.324Y-6.7174
X1.324Y-6.8174
X1.424Y-6.1174
X1.424Y-6.2174
X1.424Y-6.3174
X1.424Y-6.4174
X1.424Y-6.5174
X1.424Y-6.6174
X1.424Y-6.7174
X1.424Y-6.8174
T7
X3.1496Y-6.4142
X3.1496Y-6.5142
X3.1496Y-6.6142
T8
X3.243Y-6.961
X3.243Y-7.2563
X1.934Y-6.941
X1.934Y-7.2363
X4.218Y-7.284
X4.418Y-7.284
X4.618Y-7.284
X4.818Y-7.284
T9
X1.634Y-6.618
X1.934Y-6.618
T10
X4.5079Y-5.6693
X4.9606Y-5.6693
X4.9606Y-6.122
X1.7323Y-5.6693
T3
G00X2.6571Y-7.0837
M15
G01X2.6871Y-7.0837
M16
G05
G00X2.6571Y-7.1624
M15
G01X2.6871Y-7.1624
M16
G05
T6
G00X2.6918Y-6.8475
M15
G01X2.7312Y-6.8475
M16
G05
G00X2.6918Y-7.2805
M15
G01X2.7312Y-7.2805
M16
G05
G00X3.7548Y-6.8475
M15
G01X3.7942Y-6.8475
M16
G05
G00X3.7548Y-7.064
M15
G01X3.7942Y-7.064
M16
G05
G00X3.7548Y-7.2805
M15
G01X3.7942Y-7.2805
M16
G05
T0
M30
