EESchema Schematic File Version 4
EELAYER 30 0
EELAYER END
$Descr A4 11693 8268
encoding utf-8
Sheet 3 3
Title ""
Date ""
Rev ""
Comp ""
Comment1 ""
Comment2 ""
Comment3 ""
Comment4 ""
$EndDescr
$Comp
L power:GND #PWR?
U 1 1 5FACCBFD
P 4725 6300
F 0 "#PWR?" H 4725 6050 50  0001 C CNN
F 1 "GND" H 4730 6127 50  0000 C CNN
F 2 "" H 4725 6300 50  0001 C CNN
F 3 "" H 4725 6300 50  0001 C CNN
	1    4725 6300
	1    0    0    -1  
$EndComp
$Comp
L power:+5V #PWR?
U 1 1 5FACCC03
P 5050 5400
F 0 "#PWR?" H 5050 5250 50  0001 C CNN
F 1 "+5V" H 5065 5573 50  0000 C CNN
F 2 "" H 5050 5400 50  0001 C CNN
F 3 "" H 5050 5400 50  0001 C CNN
	1    5050 5400
	-1   0    0    -1  
$EndComp
$Comp
L Device:R R?
U 1 1 5FACCC09
P 4725 6000
F 0 "R?" V 4675 6150 50  0000 C CNN
F 1 "10kR" V 4725 6000 50  0000 C CNN
F 2 "Resistor_SMD:R_0603_1608Metric" V 4655 6000 50  0001 C CNN
F 3 "~" H 4725 6000 50  0001 C CNN
	1    4725 6000
	-1   0    0    1   
$EndComp
Wire Wire Line
	4725 6300 4725 6150
$Comp
L Device:R R?
U 1 1 5FACCC10
P 4850 6000
F 0 "R?" V 4800 6150 50  0000 C CNN
F 1 "10kR" V 4850 6000 50  0000 C CNN
F 2 "Resistor_SMD:R_0603_1608Metric" V 4780 6000 50  0001 C CNN
F 3 "~" H 4850 6000 50  0001 C CNN
	1    4850 6000
	-1   0    0    1   
$EndComp
Wire Wire Line
	4850 6300 4725 6300
Connection ~ 4725 6300
Wire Wire Line
	4850 6150 4850 6300
Wire Wire Line
	4725 5850 4725 5800
Wire Wire Line
	4725 5800 4925 5800
Text HLabel 4925 5700 2    39   Input ~ 0
BLDC_TELEM
Text HLabel 4475 5500 2    39   Input ~ 0
CS6
Text HLabel 4925 5800 2    39   Input ~ 0
MOTOR_PWM
Text HLabel 3525 5800 0    39   Input ~ 0
SERVO0_PWM
Text HLabel 3525 5700 0    39   Input ~ 0
SERVO1_PWM
Text GLabel 4750 5100 2    39   Input ~ 0
+MOTOR
$Comp
L power:GND #PWR?
U 1 1 5FACCC21
P 3800 5100
F 0 "#PWR?" H 3800 4850 50  0001 C CNN
F 1 "GND" H 3805 4927 50  0000 C CNN
F 2 "" H 3800 5100 50  0001 C CNN
F 3 "" H 3800 5100 50  0001 C CNN
	1    3800 5100
	1    0    0    -1  
$EndComp
Text HLabel 3525 5600 0    39   Input ~ 0
SPI_MISO
Text HLabel 3525 5500 0    39   Input ~ 0
SPI_SCK
Text HLabel 4475 5600 2    39   Input ~ 0
RPM_MEASUREMENT
$Comp
L Connector_Generic:Conn_02x08_Odd_Even J?
U 1 1 5FACCC2A
P 4175 5500
F 0 "J?" H 4225 4875 50  0000 C CNN
F 1 "MOTOR" H 4225 4966 50  0000 C CNN
F 2 "Connector_IDC:IDC-Header_2x08_P2.54mm_Latch6.5mm_Vertical" H 4225 5925 50  0001 C CNN
F 3 "~" H 4175 5500 50  0001 C CNN
	1    4175 5500
	1    0    0    1   
$EndComp
Wire Wire Line
	4750 5100 4475 5100
Wire Wire Line
	4475 5100 4475 5200
Connection ~ 4475 5100
Connection ~ 4475 5200
Wire Wire Line
	4475 5200 4475 5300
Wire Wire Line
	3975 5100 3975 5200
Connection ~ 3975 5100
Connection ~ 3975 5200
Wire Wire Line
	3975 5200 3975 5300
Wire Wire Line
	5050 5400 4475 5400
Wire Wire Line
	4725 5800 4475 5800
Connection ~ 4725 5800
Wire Wire Line
	4475 5700 4850 5700
Wire Wire Line
	4850 5850 4850 5700
Connection ~ 4850 5700
Wire Wire Line
	4850 5700 4925 5700
$Comp
L power:GND #PWR?
U 1 1 5FACCC40
P 3775 6300
F 0 "#PWR?" H 3775 6050 50  0001 C CNN
F 1 "GND" H 3780 6127 50  0000 C CNN
F 2 "" H 3775 6300 50  0001 C CNN
F 3 "" H 3775 6300 50  0001 C CNN
	1    3775 6300
	1    0    0    -1  
$EndComp
$Comp
L Device:R R?
U 1 1 5FACCC46
P 3775 6000
F 0 "R?" V 3725 6150 50  0000 C CNN
F 1 "10kR" V 3775 6000 50  0000 C CNN
F 2 "Resistor_SMD:R_0603_1608Metric" V 3705 6000 50  0001 C CNN
F 3 "~" H 3775 6000 50  0001 C CNN
	1    3775 6000
	-1   0    0    1   
$EndComp
Wire Wire Line
	3775 6300 3775 6150
$Comp
L Device:R R?
U 1 1 5FACCC4D
P 3900 6000
F 0 "R?" V 3850 6150 50  0000 C CNN
F 1 "10kR" V 3900 6000 50  0000 C CNN
F 2 "Resistor_SMD:R_0603_1608Metric" V 3830 6000 50  0001 C CNN
F 3 "~" H 3900 6000 50  0001 C CNN
	1    3900 6000
	-1   0    0    1   
$EndComp
Wire Wire Line
	3900 6300 3775 6300
Connection ~ 3775 6300
Wire Wire Line
	3900 6150 3900 6300
Wire Wire Line
	3775 5850 3775 5800
Wire Wire Line
	3775 5800 3975 5800
Wire Wire Line
	3775 5800 3525 5800
Connection ~ 3775 5800
Wire Wire Line
	3525 5700 3900 5700
Wire Wire Line
	3900 5850 3900 5700
Connection ~ 3900 5700
Wire Wire Line
	3900 5700 3975 5700
Wire Wire Line
	3800 5100 3975 5100
Wire Wire Line
	3975 5300 3975 5400
Connection ~ 3975 5300
$Comp
L Device:R R?
U 1 1 5FACCC61
P 3675 5500
AR Path="/5E997976/5FACCC61" Ref="R?"  Part="1" 
AR Path="/5EA35A8B/5FACCC61" Ref="R?"  Part="1" 
F 0 "R?" V 3650 5650 50  0000 C CNN
F 1 "0R" V 3675 5500 50  0000 C CNN
F 2 "Resistor_SMD:R_0603_1608Metric" V 3605 5500 50  0001 C CNN
F 3 "~" H 3675 5500 50  0001 C CNN
	1    3675 5500
	0    1    1    0   
$EndComp
$Comp
L Device:R R?
U 1 1 5FACCC67
P 3675 5600
AR Path="/5E997976/5FACCC67" Ref="R?"  Part="1" 
AR Path="/5EA35A8B/5FACCC67" Ref="R?"  Part="1" 
F 0 "R?" V 3650 5750 50  0000 C CNN
F 1 "0R" V 3675 5600 50  0000 C CNN
F 2 "Resistor_SMD:R_0603_1608Metric" V 3605 5600 50  0001 C CNN
F 3 "~" H 3675 5600 50  0001 C CNN
	1    3675 5600
	0    1    1    0   
$EndComp
Wire Wire Line
	3825 5500 3975 5500
Wire Wire Line
	3975 5600 3825 5600
$EndSCHEMATC
