EESchema Schematic File Version 4
EELAYER 30 0
EELAYER END
$Descr A4 11693 8268
encoding utf-8
Sheet 1 1
Title ""
Date ""
Rev ""
Comp ""
Comment1 ""
Comment2 ""
Comment3 ""
Comment4 ""
$EndDescr
Wire Wire Line
	5175 2425 4950 2425
$Comp
L Device:C C21
U 1 1 5EA2014D
P 4950 2575
F 0 "C21" H 4975 2650 50  0000 L CNN
F 1 "100nF 50V" V 4950 2775 50  0000 L CNN
F 2 "Capacitor_SMD:C_0603_1608Metric" H 4988 2425 50  0001 C CNN
F 3 "~" H 4950 2575 50  0001 C CNN
	1    4950 2575
	1    0    0    -1  
$EndComp
Connection ~ 4950 2425
$Comp
L Device:CP C20
U 1 1 5EA2148C
P 4725 2575
F 0 "C20" H 4725 2650 50  0000 L CNN
F 1 "47uF 50V" V 4725 2750 50  0000 L CNN
F 2 "Capacitor_SMD:CP_Elec_6.3x7.7" H 4763 2425 50  0001 C CNN
F 3 "~" H 4725 2575 50  0001 C CNN
	1    4725 2575
	1    0    0    -1  
$EndComp
Wire Wire Line
	4950 2425 4725 2425
$Comp
L power:GND #PWR059
U 1 1 5EA22C53
P 4725 2725
F 0 "#PWR059" H 4725 2475 50  0001 C CNN
F 1 "GND" H 4730 2552 50  0000 C CNN
F 2 "" H 4725 2725 50  0001 C CNN
F 3 "" H 4725 2725 50  0001 C CNN
	1    4725 2725
	1    0    0    -1  
$EndComp
Wire Wire Line
	4725 2725 4950 2725
Connection ~ 4725 2725
Connection ~ 4725 2425
Wire Wire Line
	4550 2425 4725 2425
$Comp
L BLDC:BLDC_regulator U?
U 1 1 5FB061D3
P 8500 4050
F 0 "U?" H 8500 4781 50  0000 C CNN
F 1 "BLDC_regulator" H 8500 4690 50  0000 C CNN
F 2 "" H 8250 3650 50  0001 C CNN
F 3 "" H 8250 3650 50  0001 C CNN
	1    8500 4050
	1    0    0    -1  
$EndComp
$EndSCHEMATC
