Comment,Designator,Footprint,LCSC
"220uF 25V","C10,C19","Capacitor_SMD:CP_Elec_10x10",""
"1uF 16V","C13,C4","Capacitor_SMD:C_0603_1608Metric",""
"10uF 16V","C15,C2,C14","Capacitor_SMD:C_0805_2012Metric",""
"10uF 25V","C5,C12","Capacitor_SMD:C_0805_2012Metric",""
"100nF 50V","C6,C9,C8,C11,C18,C16,C1,C3,C17","Capacitor_SMD:C_0603_1608Metric",""
"4700uF 25V","C7,C20","Capacitor_THT:CP_Radial_D18.0mm_P7.50mm",""
"D_Schottky","D1","Diode_THT:D_P600_R-6_P7.62mm_Vertical_AnodeUp",""
"D_Zener 14.4","D2","Diode_SMD:D_SOD-123",""
"BLM18EG101TN1D","FB1","Resistor_SMD:R_0603_1608Metric",""
"Mechanical_MountingHole","H3,H2,H1,H4","moje_biblioteki:otwor_3_2mm_wiecej_miedzi",""
"MOTOR","J1","Connector_IDC:IDC-Header_2x08_P2.54mm_Latch6.5mm_Vertical",""
"Conn_01x03","J4,J2,J3","moje_biblioteki:KK_1x3_pin_angled",""
"Conn_01x04","J5","Connector_Phoenix_MC_HighVoltage:PhoenixContact_MCV_1,5_4-GF-5.08_1x04_P5.08mm_Vertical_ThreadedFlange",""
"12uH RLS-126","L1","moje_biblioteki:RLS-126",""
"Q_NPN_BCE","Q1","Package_TO_SOT_THT:TO-220-3_Horizontal_TabUp",""
"0R","R1,R2","Resistor_SMD:R_0603_1608Metric",""
"10kR","R7,R5,R6,R3,R4","Resistor_SMD:R_0603_1608Metric",""
"100kR","R8","Resistor_SMD:R_0603_1608Metric",""
"1R 1W","R9,R10","Resistor_SMD:R_2512_6332Metric",""
"AZ1117-3.3","U1","Package_TO_SOT_SMD:SOT-223-3_TabPin2",""
"ABPMRRN060MDSA3","U2","moje_biblioteki:ABPMRRN060MDSA3",""
"HSCDRRV001PGSA3","U3","moje_biblioteki:HSCDRRV001PGSA3",""
"BLDC_regulator","U4","moje_biblioteki:bldc_generic",""