(export (version D)
  (design
    (source /home/bacher/VA_repos/ventilaidcpapcontroldevicehardware/Motor_kicad/VentilAidMotorBoard.sch)
    (date "Tue 17 Nov 2020 04:03:32 PM CET")
    (tool "Eeschema 5.1.8+dfsg1-1")
    (sheet (number 1) (name /) (tstamps /)
      (title_block
        (title)
        (company)
        (rev)
        (date)
        (source VentilAidMotorBoard.sch)
        (comment (number 1) (value ""))
        (comment (number 2) (value ""))
        (comment (number 3) (value ""))
        (comment (number 4) (value "")))))
  (components
    (comp (ref C6)
      (value "100nF 50V")
      (footprint Capacitor_SMD:C_0603_1608Metric)
      (datasheet ~)
      (libsource (lib Device) (part C) (description "Unpolarized capacitor"))
      (sheetpath (names /) (tstamps /))
      (tstamp 5FA81B13))
    (comp (ref R7)
      (value 10kR)
      (footprint Resistor_SMD:R_0603_1608Metric)
      (datasheet ~)
      (libsource (lib Device) (part R) (description Resistor))
      (sheetpath (names /) (tstamps /))
      (tstamp 5FA81B32))
    (comp (ref C9)
      (value "100nF 50V")
      (footprint Capacitor_SMD:C_0603_1608Metric)
      (datasheet ~)
      (libsource (lib Device) (part C) (description "Unpolarized capacitor"))
      (sheetpath (names /) (tstamps /))
      (tstamp 5FB5FDB4))
    (comp (ref R5)
      (value 10kR)
      (footprint Resistor_SMD:R_0603_1608Metric)
      (datasheet ~)
      (libsource (lib Device) (part R) (description Resistor))
      (sheetpath (names /) (tstamps /))
      (tstamp 5FAD4589))
    (comp (ref R6)
      (value 10kR)
      (footprint Resistor_SMD:R_0603_1608Metric)
      (datasheet ~)
      (libsource (lib Device) (part R) (description Resistor))
      (sheetpath (names /) (tstamps /))
      (tstamp 5FAD4590))
    (comp (ref J1)
      (value MOTOR)
      (footprint Connector_IDC:IDC-Header_2x08_P2.54mm_Latch6.5mm_Vertical)
      (datasheet ~)
      (libsource (lib Connector_Generic) (part Conn_02x08_Odd_Even) (description "Generic connector, double row, 02x08, odd/even pin numbering scheme (row 1 odd numbers, row 2 even numbers), script generated (kicad-library-utils/schlib/autogen/connector/)"))
      (sheetpath (names /) (tstamps /))
      (tstamp 5FAD45AA))
    (comp (ref R3)
      (value 10kR)
      (footprint Resistor_SMD:R_0603_1608Metric)
      (datasheet ~)
      (libsource (lib Device) (part R) (description Resistor))
      (sheetpath (names /) (tstamps /))
      (tstamp 5FAD45C6))
    (comp (ref R4)
      (value 10kR)
      (footprint Resistor_SMD:R_0603_1608Metric)
      (datasheet ~)
      (libsource (lib Device) (part R) (description Resistor))
      (sheetpath (names /) (tstamps /))
      (tstamp 5FAD45CD))
    (comp (ref R1)
      (value 0R)
      (footprint Resistor_SMD:R_0603_1608Metric)
      (datasheet ~)
      (libsource (lib Device) (part R) (description Resistor))
      (sheetpath (names /) (tstamps /))
      (tstamp 5FAD45E1))
    (comp (ref R2)
      (value 0R)
      (footprint Resistor_SMD:R_0603_1608Metric)
      (datasheet ~)
      (libsource (lib Device) (part R) (description Resistor))
      (sheetpath (names /) (tstamps /))
      (tstamp 5FAD45E7))
    (comp (ref Q1)
      (value Q_NPN_BCE)
      (footprint Package_TO_SOT_THT:TO-220-3_Horizontal_TabUp)
      (datasheet https://www.tme.eu/Document/c8cfe83008b05ae4fe58a4d39302e317/d44h8.pdf)
      (libsource (lib Device) (part Q_NPN_BCE) (description "NPN transistor, base/collector/emitter"))
      (sheetpath (names /) (tstamps /))
      (tstamp 5FADEED9))
    (comp (ref D2)
      (value "D_Zener 14.4")
      (footprint Diode_SMD:D_SOD-123)
      (datasheet ~)
      (libsource (lib Device) (part D_Zener) (description "Zener diode"))
      (sheetpath (names /) (tstamps /))
      (tstamp 5FADF77B))
    (comp (ref D1)
      (value D_Schottky)
      (footprint Diode_THT:D_P600_R-6_P7.62mm_Vertical_AnodeUp)
      (datasheet ~)
      (libsource (lib Device) (part D_Schottky) (description "Schottky diode"))
      (sheetpath (names /) (tstamps /))
      (tstamp 5FADFDA5))
    (comp (ref R8)
      (value 100kR)
      (footprint Resistor_SMD:R_0603_1608Metric)
      (datasheet ~)
      (libsource (lib Device) (part R) (description Resistor))
      (sheetpath (names /) (tstamps /))
      (tstamp 5FAE4773))
    (comp (ref R9)
      (value "1R 1W")
      (footprint Resistor_SMD:R_2512_6332Metric)
      (datasheet ~)
      (libsource (lib Device) (part R) (description Resistor))
      (sheetpath (names /) (tstamps /))
      (tstamp 5FAE477A))
    (comp (ref C8)
      (value "100nF 50V")
      (footprint Capacitor_SMD:C_0603_1608Metric)
      (datasheet ~)
      (libsource (lib Device) (part C) (description "Unpolarized capacitor"))
      (sheetpath (names /) (tstamps /))
      (tstamp 5FB0FE99))
    (comp (ref C7)
      (value "4700uF 25V")
      (footprint Capacitor_THT:CP_Radial_D18.0mm_P7.50mm)
      (datasheet ~)
      (libsource (lib Device) (part CP) (description "Polarized capacitor"))
      (sheetpath (names /) (tstamps /))
      (tstamp 5FB0FEA0))
    (comp (ref C10)
      (value "220uF 25V")
      (footprint Capacitor_SMD:CP_Elec_10x10)
      (datasheet ~)
      (libsource (lib Device) (part CP) (description "Polarized capacitor"))
      (sheetpath (names /) (tstamps /))
      (tstamp 5FAD4566))
    (comp (ref C11)
      (value "100nF 50V")
      (footprint Capacitor_SMD:C_0603_1608Metric)
      (datasheet ~)
      (libsource (lib Device) (part C) (description "Unpolarized capacitor"))
      (sheetpath (names /) (tstamps /))
      (tstamp 5FAD455F))
    (comp (ref U2)
      (value ABPMRRN060MDSA3)
      (footprint moje_biblioteki:ABPMRRN060MDSA3)
      (datasheet https://www.tme.eu/pl/details/abpmrrn060mdsa3/czujniki-cisnienia/honeywell/)
      (libsource (lib VA) (part _moje_ABPMRRN060MDSA3) (description ""))
      (sheetpath (names /) (tstamps /))
      (tstamp 5FA81AB4))
    (comp (ref U3)
      (value HSCDRRV001PGSA3)
      (footprint moje_biblioteki:HSCDRRV001PGSA3)
      (datasheet https://www.tme.eu/pl/details/hscdrrv001pgsa3/czujniki-cisnienia/honeywell/)
      (libsource (lib VA) (part _moje_HSCDRRV001PGSA3) (description ""))
      (sheetpath (names /) (tstamps /))
      (tstamp 5FA81ABA))
    (comp (ref U4)
      (value BLDC_regulator)
      (footprint moje_biblioteki:bldc_generic)
      (libsource (lib VA) (part BLDC_regulator) (description ""))
      (sheetpath (names /) (tstamps /))
      (tstamp 5FAD4577))
    (comp (ref J4)
      (value Conn_01x03)
      (footprint moje_biblioteki:KK_1x3_pin_angled)
      (datasheet ~)
      (libsource (lib Connector_Generic) (part Conn_01x03) (description "Generic connector, single row, 01x03, script generated (kicad-library-utils/schlib/autogen/connector/)"))
      (sheetpath (names /) (tstamps /))
      (tstamp 5FB95B2B))
    (comp (ref C15)
      (value "10uF 16V")
      (footprint Capacitor_SMD:C_0805_2012Metric)
      (datasheet ~)
      (libsource (lib Device) (part C) (description "Unpolarized capacitor"))
      (sheetpath (names /) (tstamps /))
      (tstamp 5FB95B37))
    (comp (ref C18)
      (value "100nF 50V")
      (footprint Capacitor_SMD:C_0603_1608Metric)
      (datasheet ~)
      (libsource (lib Device) (part C) (description "Unpolarized capacitor"))
      (sheetpath (names /) (tstamps /))
      (tstamp 5FB95B3E))
    (comp (ref J2)
      (value Conn_01x03)
      (footprint moje_biblioteki:KK_1x3_pin_angled)
      (datasheet ~)
      (libsource (lib Connector_Generic) (part Conn_01x03) (description "Generic connector, single row, 01x03, script generated (kicad-library-utils/schlib/autogen/connector/)"))
      (sheetpath (names /) (tstamps /))
      (tstamp 5FBAEB6D))
    (comp (ref C13)
      (value "1uF 16V")
      (footprint Capacitor_SMD:C_0603_1608Metric)
      (datasheet ~)
      (libsource (lib Device) (part C) (description "Unpolarized capacitor"))
      (sheetpath (names /) (tstamps /))
      (tstamp 5FBAEB79))
    (comp (ref C16)
      (value "100nF 50V")
      (footprint Capacitor_SMD:C_0603_1608Metric)
      (datasheet ~)
      (libsource (lib Device) (part C) (description "Unpolarized capacitor"))
      (sheetpath (names /) (tstamps /))
      (tstamp 5FBAEB80))
    (comp (ref U1)
      (value AZ1117-3.3)
      (footprint Package_TO_SOT_SMD:SOT-223-3_TabPin2)
      (datasheet https://www.diodes.com/assets/Datasheets/AZ1117.pdf)
      (libsource (lib Regulator_Linear) (part AZ1117-3.3) (description "1A 20V Fixed LDO Linear Regulator, 3.3V, SOT-89/SOT-223/TO-220/TO-252/TO-263"))
      (sheetpath (names /) (tstamps /))
      (tstamp 5EB5F625))
    (comp (ref FB1)
      (value BLM18EG101TN1D)
      (footprint Resistor_SMD:R_0603_1608Metric)
      (datasheet ~)
      (libsource (lib Device) (part Ferrite_Bead) (description "Ferrite bead"))
      (sheetpath (names /) (tstamps /))
      (tstamp 5EB61D2E))
    (comp (ref C1)
      (value "100nF 50V")
      (footprint Capacitor_SMD:C_0603_1608Metric)
      (datasheet ~)
      (libsource (lib Device) (part C) (description "Unpolarized capacitor"))
      (sheetpath (names /) (tstamps /))
      (tstamp 5EB639A0))
    (comp (ref C2)
      (value "10uF 16V")
      (footprint Capacitor_SMD:C_0805_2012Metric)
      (datasheet ~)
      (libsource (lib Device) (part C) (description "Unpolarized capacitor"))
      (sheetpath (names /) (tstamps /))
      (tstamp 5FCC608D))
    (comp (ref C3)
      (value "100nF 50V")
      (footprint Capacitor_SMD:C_0603_1608Metric)
      (datasheet ~)
      (libsource (lib Device) (part C) (description "Unpolarized capacitor"))
      (sheetpath (names /) (tstamps /))
      (tstamp 5EB67777))
    (comp (ref C4)
      (value "1uF 16V")
      (footprint Capacitor_SMD:C_0603_1608Metric)
      (datasheet ~)
      (libsource (lib Device) (part C) (description "Unpolarized capacitor"))
      (sheetpath (names /) (tstamps /))
      (tstamp 5EB6777D))
    (comp (ref C5)
      (value "10uF 25V")
      (footprint Capacitor_SMD:C_0805_2012Metric)
      (datasheet ~)
      (libsource (lib Device) (part C) (description "Unpolarized capacitor"))
      (sheetpath (names /) (tstamps /))
      (tstamp 5FC88919))
    (comp (ref C12)
      (value "10uF 25V")
      (footprint Capacitor_SMD:C_0805_2012Metric)
      (datasheet ~)
      (libsource (lib Device) (part C) (description "Unpolarized capacitor"))
      (sheetpath (names /) (tstamps /))
      (tstamp 5FC8D52A))
    (comp (ref L1)
      (value "12uH RLS-126")
      (footprint moje_biblioteki:RLS-126)
      (datasheet https://pl.mouser.com/ProductDetail/RECOM-Power/RLS-126?qs=gZXFycFWdAMcIZPu0z1CRg%3D%3D)
      (libsource (lib Device) (part L) (description Inductor))
      (sheetpath (names /) (tstamps /))
      (tstamp 5EB53250))
    (comp (ref C14)
      (value "10uF 16V")
      (footprint Capacitor_SMD:C_0805_2012Metric)
      (datasheet ~)
      (libsource (lib Device) (part C) (description "Unpolarized capacitor"))
      (sheetpath (names /) (tstamps /))
      (tstamp 5FD5BE91))
    (comp (ref C17)
      (value "100nF 50V")
      (footprint Capacitor_SMD:C_0603_1608Metric)
      (datasheet ~)
      (libsource (lib Device) (part C) (description "Unpolarized capacitor"))
      (sheetpath (names /) (tstamps /))
      (tstamp 5FD5BE98))
    (comp (ref J5)
      (value Conn_01x04)
      (footprint Connector_Phoenix_MC_HighVoltage:PhoenixContact_MCV_1,5_4-GF-5.08_1x04_P5.08mm_Vertical_ThreadedFlange)
      (datasheet ~)
      (libsource (lib Connector_Generic) (part Conn_01x04) (description "Generic connector, single row, 01x04, script generated (kicad-library-utils/schlib/autogen/connector/)"))
      (sheetpath (names /) (tstamps /))
      (tstamp 5FB36FE9))
    (comp (ref C20)
      (value "4700uF 25V")
      (footprint Capacitor_THT:CP_Radial_D18.0mm_P7.50mm)
      (datasheet ~)
      (libsource (lib Device) (part CP) (description "Polarized capacitor"))
      (sheetpath (names /) (tstamps /))
      (tstamp 5FB555B4))
    (comp (ref C19)
      (value "220uF 25V")
      (footprint Capacitor_SMD:CP_Elec_10x10)
      (datasheet ~)
      (libsource (lib Device) (part CP) (description "Polarized capacitor"))
      (sheetpath (names /) (tstamps /))
      (tstamp 5FB72406))
    (comp (ref R10)
      (value "1R 1W")
      (footprint Resistor_SMD:R_2512_6332Metric)
      (datasheet ~)
      (libsource (lib Device) (part R) (description Resistor))
      (sheetpath (names /) (tstamps /))
      (tstamp 5FB8EB73))
    (comp (ref J3)
      (value Conn_01x03)
      (footprint moje_biblioteki:KK_1x3_pin_angled)
      (datasheet ~)
      (libsource (lib Connector_Generic) (part Conn_01x03) (description "Generic connector, single row, 01x03, script generated (kicad-library-utils/schlib/autogen/connector/)"))
      (sheetpath (names /) (tstamps /))
      (tstamp 5FD5BE85))
    (comp (ref H3)
      (value Mechanical_MountingHole)
      (footprint moje_biblioteki:otwor_3_2mm_wiecej_miedzi)
      (libsource (lib VA) (part Mechanical_MountingHole) (description ""))
      (sheetpath (names /) (tstamps /))
      (tstamp 5FD00FA2))
    (comp (ref H2)
      (value Mechanical_MountingHole)
      (footprint moje_biblioteki:otwor_3_2mm_wiecej_miedzi)
      (libsource (lib VA) (part Mechanical_MountingHole) (description ""))
      (sheetpath (names /) (tstamps /))
      (tstamp 5FD0FB5C))
    (comp (ref H1)
      (value Mechanical_MountingHole)
      (footprint moje_biblioteki:otwor_3_2mm_wiecej_miedzi)
      (libsource (lib VA) (part Mechanical_MountingHole) (description ""))
      (sheetpath (names /) (tstamps /))
      (tstamp 5FD22308))
    (comp (ref H4)
      (value Mechanical_MountingHole)
      (footprint moje_biblioteki:otwor_3_2mm_wiecej_miedzi)
      (libsource (lib VA) (part Mechanical_MountingHole) (description ""))
      (sheetpath (names /) (tstamps /))
      (tstamp 5FD6BB1A)))
  (libparts
    (libpart (lib Connector_Generic) (part Conn_01x03)
      (description "Generic connector, single row, 01x03, script generated (kicad-library-utils/schlib/autogen/connector/)")
      (docs ~)
      (footprints
        (fp Connector*:*_1x??_*))
      (fields
        (field (name Reference) J)
        (field (name Value) Conn_01x03))
      (pins
        (pin (num 1) (name Pin_1) (type passive))
        (pin (num 2) (name Pin_2) (type passive))
        (pin (num 3) (name Pin_3) (type passive))))
    (libpart (lib Connector_Generic) (part Conn_01x04)
      (description "Generic connector, single row, 01x04, script generated (kicad-library-utils/schlib/autogen/connector/)")
      (docs ~)
      (footprints
        (fp Connector*:*_1x??_*))
      (fields
        (field (name Reference) J)
        (field (name Value) Conn_01x04))
      (pins
        (pin (num 1) (name Pin_1) (type passive))
        (pin (num 2) (name Pin_2) (type passive))
        (pin (num 3) (name Pin_3) (type passive))
        (pin (num 4) (name Pin_4) (type passive))))
    (libpart (lib Connector_Generic) (part Conn_02x08_Odd_Even)
      (description "Generic connector, double row, 02x08, odd/even pin numbering scheme (row 1 odd numbers, row 2 even numbers), script generated (kicad-library-utils/schlib/autogen/connector/)")
      (docs ~)
      (footprints
        (fp Connector*:*_2x??_*))
      (fields
        (field (name Reference) J)
        (field (name Value) Conn_02x08_Odd_Even))
      (pins
        (pin (num 1) (name Pin_1) (type passive))
        (pin (num 2) (name Pin_2) (type passive))
        (pin (num 3) (name Pin_3) (type passive))
        (pin (num 4) (name Pin_4) (type passive))
        (pin (num 5) (name Pin_5) (type passive))
        (pin (num 6) (name Pin_6) (type passive))
        (pin (num 7) (name Pin_7) (type passive))
        (pin (num 8) (name Pin_8) (type passive))
        (pin (num 9) (name Pin_9) (type passive))
        (pin (num 10) (name Pin_10) (type passive))
        (pin (num 11) (name Pin_11) (type passive))
        (pin (num 12) (name Pin_12) (type passive))
        (pin (num 13) (name Pin_13) (type passive))
        (pin (num 14) (name Pin_14) (type passive))
        (pin (num 15) (name Pin_15) (type passive))
        (pin (num 16) (name Pin_16) (type passive))))
    (libpart (lib Device) (part C)
      (description "Unpolarized capacitor")
      (docs ~)
      (footprints
        (fp C_*))
      (fields
        (field (name Reference) C)
        (field (name Value) C))
      (pins
        (pin (num 1) (name ~) (type passive))
        (pin (num 2) (name ~) (type passive))))
    (libpart (lib Device) (part CP)
      (description "Polarized capacitor")
      (docs ~)
      (footprints
        (fp CP_*))
      (fields
        (field (name Reference) C)
        (field (name Value) CP))
      (pins
        (pin (num 1) (name ~) (type passive))
        (pin (num 2) (name ~) (type passive))))
    (libpart (lib Device) (part D_Schottky)
      (description "Schottky diode")
      (docs ~)
      (footprints
        (fp TO-???*)
        (fp *_Diode_*)
        (fp *SingleDiode*)
        (fp D_*))
      (fields
        (field (name Reference) D)
        (field (name Value) D_Schottky))
      (pins
        (pin (num 1) (name K) (type passive))
        (pin (num 2) (name A) (type passive))))
    (libpart (lib Device) (part D_Zener)
      (description "Zener diode")
      (docs ~)
      (footprints
        (fp TO-???*)
        (fp *_Diode_*)
        (fp *SingleDiode*)
        (fp D_*))
      (fields
        (field (name Reference) D)
        (field (name Value) D_Zener))
      (pins
        (pin (num 1) (name K) (type passive))
        (pin (num 2) (name A) (type passive))))
    (libpart (lib Device) (part Ferrite_Bead)
      (description "Ferrite bead")
      (docs ~)
      (footprints
        (fp Inductor_*)
        (fp L_*)
        (fp *Ferrite*))
      (fields
        (field (name Reference) FB)
        (field (name Value) Ferrite_Bead))
      (pins
        (pin (num 1) (name ~) (type passive))
        (pin (num 2) (name ~) (type passive))))
    (libpart (lib Device) (part L)
      (description Inductor)
      (docs ~)
      (footprints
        (fp Choke_*)
        (fp *Coil*)
        (fp Inductor_*)
        (fp L_*))
      (fields
        (field (name Reference) L)
        (field (name Value) L))
      (pins
        (pin (num 1) (name 1) (type passive))
        (pin (num 2) (name 2) (type passive))))
    (libpart (lib Device) (part Q_NPN_BCE)
      (description "NPN transistor, base/collector/emitter")
      (docs ~)
      (fields
        (field (name Reference) Q)
        (field (name Value) Q_NPN_BCE))
      (pins
        (pin (num 1) (name B) (type input))
        (pin (num 2) (name C) (type passive))
        (pin (num 3) (name E) (type passive))))
    (libpart (lib Device) (part R)
      (description Resistor)
      (docs ~)
      (footprints
        (fp R_*))
      (fields
        (field (name Reference) R)
        (field (name Value) R))
      (pins
        (pin (num 1) (name ~) (type passive))
        (pin (num 2) (name ~) (type passive))))
    (libpart (lib Regulator_Linear) (part AZ1117-1.2)
      (aliases
        (alias AZ1117-1.5)
        (alias AZ1117-1.8)
        (alias AZ1117-2.5)
        (alias AZ1117-2.85)
        (alias AZ1117-3.3)
        (alias AZ1117-5.0))
      (description "1A 20V Fixed LDO Linear Regulator, 1.2V, SOT-89/SOT-223/TO-220/TO-252/TO-263")
      (docs https://www.diodes.com/assets/Datasheets/AZ1117.pdf)
      (footprints
        (fp SOT?223*)
        (fp SOT?89*)
        (fp TO?220*)
        (fp TO?252*)
        (fp TO?263*))
      (fields
        (field (name Reference) U)
        (field (name Value) AZ1117-1.2))
      (pins
        (pin (num 1) (name GND) (type power_in))
        (pin (num 2) (name VO) (type power_out))
        (pin (num 3) (name VI) (type power_in))))
    (libpart (lib VA) (part BLDC_regulator)
      (fields
        (field (name Reference) U)
        (field (name Value) BLDC_regulator))
      (pins
        (pin (num 1) (name Vin+) (type power_in))
        (pin (num 2) (name Gnd) (type power_in))
        (pin (num 3) (name Sig) (type input))
        (pin (num 4) (name Telem) (type output))
        (pin (num 5) (name P0) (type power_out))
        (pin (num 6) (name P1) (type power_out))
        (pin (num 7) (name P2) (type power_out))))
    (libpart (lib VA) (part Mechanical_MountingHole)
      (footprints
        (fp MountingHole*))
      (fields
        (field (name Reference) H)
        (field (name Value) Mechanical_MountingHole)))
    (libpart (lib VA) (part _moje_ABPMRRN060MDSA3)
      (fields
        (field (name Reference) U)
        (field (name Value) _moje_ABPMRRN060MDSA3)
        (field (name Footprint) moje_biblioteki:ABPMRRN060MDSA3))
      (pins
        (pin (num 1) (name GND) (type input))
        (pin (num 2) (name VCC) (type input))
        (pin (num 3) (name SS) (type input))
        (pin (num 4) (name NC) (type input))
        (pin (num 5) (name MISO) (type input))
        (pin (num 6) (name SCLK) (type input))))
    (libpart (lib VA) (part _moje_HSCDRRV001PGSA3)
      (fields
        (field (name Reference) U)
        (field (name Value) _moje_HSCDRRV001PGSA3)
        (field (name Footprint) moje_biblioteki:HSCDRRV001PGSA3))
      (pins
        (pin (num 1) (name GND) (type input))
        (pin (num 2) (name VCC) (type input))
        (pin (num 3) (name MISO) (type input))
        (pin (num 4) (name SCLK) (type input))
        (pin (num 5) (name SS) (type input))
        (pin (num 6) (name NC) (type input))
        (pin (num 7) (name NC) (type input))
        (pin (num 8) (name NC) (type input)))))
  (libraries
    (library (logical Connector_Generic)
      (uri /usr/share/kicad/library/Connector_Generic.lib))
    (library (logical Device)
      (uri /usr/share/kicad/library/Device.lib))
    (library (logical Regulator_Linear)
      (uri /usr/share/kicad/library/Regulator_Linear.lib))
    (library (logical VA)
      (uri /home/bacher/VA_repos/ventilaidcpapcontroldevicehardware/Motor_kicad/../va_lib_sch/VA.lib)))
  (nets
    (net (code 1) (name RPM_Hall)
      (node (ref J2) (pin 1))
      (node (ref J1) (pin 6)))
    (net (code 2) (name SERVO0_PWM)
      (node (ref J3) (pin 1))
      (node (ref J1) (pin 3))
      (node (ref R4) (pin 2)))
    (net (code 3) (name +5V)
      (node (ref C17) (pin 1))
      (node (ref J1) (pin 10))
      (node (ref C15) (pin 1))
      (node (ref J4) (pin 2))
      (node (ref C18) (pin 1))
      (node (ref C16) (pin 1))
      (node (ref C13) (pin 1))
      (node (ref FB1) (pin 2))
      (node (ref J2) (pin 2))
      (node (ref C14) (pin 1))
      (node (ref J3) (pin 2)))
    (net (code 4) (name GND)
      (node (ref R6) (pin 1))
      (node (ref C3) (pin 2))
      (node (ref C4) (pin 2))
      (node (ref R5) (pin 1))
      (node (ref R3) (pin 1))
      (node (ref C14) (pin 2))
      (node (ref C12) (pin 2))
      (node (ref C1) (pin 2))
      (node (ref C2) (pin 2))
      (node (ref C5) (pin 2))
      (node (ref J1) (pin 15))
      (node (ref J1) (pin 13))
      (node (ref J1) (pin 11))
      (node (ref C10) (pin 2))
      (node (ref U3) (pin 1))
      (node (ref U2) (pin 1))
      (node (ref C11) (pin 2))
      (node (ref C7) (pin 2))
      (node (ref C8) (pin 2))
      (node (ref R8) (pin 1))
      (node (ref Q1) (pin 3))
      (node (ref J1) (pin 9))
      (node (ref C6) (pin 2))
      (node (ref C9) (pin 2))
      (node (ref R4) (pin 1))
      (node (ref J3) (pin 3))
      (node (ref U1) (pin 1))
      (node (ref C17) (pin 2))
      (node (ref C16) (pin 2))
      (node (ref J5) (pin 1))
      (node (ref C20) (pin 2))
      (node (ref U4) (pin 2))
      (node (ref J4) (pin 3))
      (node (ref C15) (pin 2))
      (node (ref C18) (pin 2))
      (node (ref C19) (pin 2))
      (node (ref J2) (pin 3))
      (node (ref C13) (pin 2)))
    (net (code 5) (name "Net-(C1-Pad1)")
      (node (ref U1) (pin 3))
      (node (ref C1) (pin 1))
      (node (ref C2) (pin 1))
      (node (ref FB1) (pin 1)))
    (net (code 6) (name SPI_CS)
      (node (ref R7) (pin 2))
      (node (ref U2) (pin 3))
      (node (ref J1) (pin 8))
      (node (ref U3) (pin 5)))
    (net (code 7) (name SPI_MISO)
      (node (ref U2) (pin 5))
      (node (ref R2) (pin 2))
      (node (ref U3) (pin 3)))
    (net (code 8) (name SPI_SCK)
      (node (ref U2) (pin 6))
      (node (ref U3) (pin 4))
      (node (ref R1) (pin 2)))
    (net (code 9) (name "Net-(J5-Pad4)")
      (node (ref U4) (pin 7))
      (node (ref J5) (pin 4)))
    (net (code 10) (name "Net-(J5-Pad2)")
      (node (ref J5) (pin 2))
      (node (ref U4) (pin 5)))
    (net (code 11) (name MOTOR_PWM)
      (node (ref U4) (pin 3))
      (node (ref R5) (pin 2))
      (node (ref J1) (pin 2)))
    (net (code 12) (name "Net-(U3-Pad8)")
      (node (ref U3) (pin 8)))
    (net (code 13) (name "Net-(U3-Pad7)")
      (node (ref U3) (pin 7)))
    (net (code 14) (name "Net-(U3-Pad6)")
      (node (ref U3) (pin 6)))
    (net (code 15) (name SERVO1_PWM)
      (node (ref J4) (pin 1))
      (node (ref J1) (pin 1))
      (node (ref R3) (pin 2)))
    (net (code 16) (name "Net-(J5-Pad3)")
      (node (ref J5) (pin 3))
      (node (ref U4) (pin 6)))
    (net (code 17) (name "Net-(Q1-Pad2)")
      (node (ref Q1) (pin 2))
      (node (ref R10) (pin 1))
      (node (ref R9) (pin 1)))
    (net (code 18) (name +3V3)
      (node (ref R7) (pin 1))
      (node (ref C3) (pin 1))
      (node (ref U2) (pin 2))
      (node (ref C4) (pin 1))
      (node (ref U3) (pin 2))
      (node (ref U1) (pin 2))
      (node (ref C9) (pin 1))
      (node (ref C6) (pin 1)))
    (net (code 19) (name "Net-(J1-Pad5)")
      (node (ref J1) (pin 5))
      (node (ref R2) (pin 1)))
    (net (code 20) (name BLDC_TELEM)
      (node (ref U4) (pin 4))
      (node (ref J1) (pin 4))
      (node (ref R6) (pin 2)))
    (net (code 21) (name "Net-(J1-Pad7)")
      (node (ref R1) (pin 1))
      (node (ref J1) (pin 7)))
    (net (code 22) (name "Net-(U2-Pad4)")
      (node (ref U2) (pin 4)))
    (net (code 23) (name "Net-(D2-Pad2)")
      (node (ref Q1) (pin 1))
      (node (ref R8) (pin 2))
      (node (ref D2) (pin 2)))
    (net (code 24) (name "Net-(C19-Pad1)")
      (node (ref C5) (pin 1))
      (node (ref D1) (pin 1))
      (node (ref C19) (pin 1))
      (node (ref L1) (pin 1))
      (node (ref C7) (pin 1))
      (node (ref C8) (pin 1)))
    (net (code 25) (name "Net-(C10-Pad1)")
      (node (ref R10) (pin 2))
      (node (ref U4) (pin 1))
      (node (ref R9) (pin 2))
      (node (ref D2) (pin 1))
      (node (ref C20) (pin 1))
      (node (ref C11) (pin 1))
      (node (ref C10) (pin 1))
      (node (ref C12) (pin 1))
      (node (ref L1) (pin 2)))
    (net (code 26) (name +12V)
      (node (ref J1) (pin 14))
      (node (ref D1) (pin 2))
      (node (ref J1) (pin 12))
      (node (ref J1) (pin 16)))))