EESchema Schematic File Version 4
EELAYER 30 0
EELAYER END
$Descr A4 11693 8268
encoding utf-8
Sheet 1 1
Title ""
Date ""
Rev ""
Comp ""
Comment1 ""
Comment2 ""
Comment3 ""
Comment4 ""
$EndDescr
Wire Wire Line
	5600 3300 5725 3300
Wire Wire Line
	5600 3400 5725 3400
NoConn ~ 6425 3200
NoConn ~ 6425 3300
NoConn ~ 6425 3400
$Comp
L power:GND #PWR011
U 1 1 5FA81ADB
P 5425 2750
F 0 "#PWR011" H 5425 2500 50  0001 C CNN
F 1 "GND" H 5430 2577 50  0000 C CNN
F 2 "" H 5425 2750 50  0001 C CNN
F 3 "" H 5425 2750 50  0001 C CNN
	1    5425 2750
	1    0    0    -1  
$EndComp
$Comp
L power:+3V3 #PWR012
U 1 1 5FA81AE1
P 5425 3200
F 0 "#PWR012" H 5425 3050 50  0001 C CNN
F 1 "+3V3" H 5440 3373 50  0000 C CNN
F 2 "" H 5425 3200 50  0001 C CNN
F 3 "" H 5425 3200 50  0001 C CNN
	1    5425 3200
	1    0    0    -1  
$EndComp
Wire Wire Line
	5625 3100 5725 3100
Wire Wire Line
	6550 2325 6425 2325
Wire Wire Line
	6550 2225 6425 2225
NoConn ~ 6425 2425
$Comp
L power:GND #PWR013
U 1 1 5FA81B0D
P 5750 1775
F 0 "#PWR013" H 5750 1525 50  0001 C CNN
F 1 "GND" H 5755 1602 50  0000 C CNN
F 2 "" H 5750 1775 50  0001 C CNN
F 3 "" H 5750 1775 50  0001 C CNN
	1    5750 1775
	1    0    0    -1  
$EndComp
$Comp
L Device:C C6
U 1 1 5FA81B13
P 5750 1625
F 0 "C6" V 5850 1800 50  0000 L CNN
F 1 "100nF 50V" V 5925 1825 50  0000 L CNN
F 2 "Capacitor_SMD:C_0603_1608Metric" H 5788 1475 50  0001 C CNN
F 3 "~" H 5750 1625 50  0001 C CNN
	1    5750 1625
	1    0    0    -1  
$EndComp
Wire Wire Line
	5750 1775 5625 1775
Wire Wire Line
	5625 1775 5625 2225
Wire Wire Line
	5625 2225 5725 2225
Wire Wire Line
	5725 2325 5525 2325
Wire Wire Line
	5525 2325 5525 1475
Wire Wire Line
	5750 1475 5525 1475
$Comp
L power:+3V3 #PWR010
U 1 1 5FA81B1F
P 5325 1475
F 0 "#PWR010" H 5325 1325 50  0001 C CNN
F 1 "+3V3" H 5340 1648 50  0000 C CNN
F 2 "" H 5325 1475 50  0001 C CNN
F 3 "" H 5325 1475 50  0001 C CNN
	1    5325 1475
	1    0    0    -1  
$EndComp
Connection ~ 5750 1475
Connection ~ 5750 1775
$Comp
L Device:R R7
U 1 1 5FA81B32
P 5325 2125
F 0 "R7" V 5275 1950 50  0000 C CNN
F 1 "10kR" V 5325 2125 50  0000 C CNN
F 2 "Resistor_SMD:R_0603_1608Metric" V 5255 2125 50  0001 C CNN
F 3 "~" H 5325 2125 50  0001 C CNN
	1    5325 2125
	1    0    0    -1  
$EndComp
Wire Wire Line
	5325 2275 5325 2425
Wire Wire Line
	5325 1475 5525 1475
Wire Wire Line
	5325 1475 5325 1975
Connection ~ 5525 1475
Connection ~ 5325 2425
Wire Wire Line
	5250 2425 5325 2425
Wire Wire Line
	5425 3200 5725 3200
Wire Wire Line
	5425 2750 5625 2750
Wire Wire Line
	5625 2750 5625 3100
Wire Wire Line
	5325 2425 5725 2425
$Comp
L Device:C C9
U 1 1 5FB5FDB4
P 6100 1625
F 0 "C9" V 6200 1700 50  0000 L CNN
F 1 "100nF 50V" V 6275 1700 50  0000 L CNN
F 2 "Capacitor_SMD:C_0603_1608Metric" H 6138 1475 50  0001 C CNN
F 3 "~" H 6100 1625 50  0001 C CNN
	1    6100 1625
	1    0    0    -1  
$EndComp
Wire Wire Line
	5750 1475 6100 1475
Wire Wire Line
	5750 1775 6100 1775
Connection ~ 5325 1475
$Comp
L power:GND #PWR05
U 1 1 5FAD457D
P 2950 5200
F 0 "#PWR05" H 2950 4950 50  0001 C CNN
F 1 "GND" H 2955 5027 50  0000 C CNN
F 2 "" H 2950 5200 50  0001 C CNN
F 3 "" H 2950 5200 50  0001 C CNN
	1    2950 5200
	1    0    0    -1  
$EndComp
$Comp
L power:+5V #PWR?
U 1 1 5FAD4583
P 3275 4300
AR Path="/5FAC558F/5FAD4583" Ref="#PWR?"  Part="1" 
AR Path="/5FAD4583" Ref="#PWR07"  Part="1" 
F 0 "#PWR07" H 3275 4150 50  0001 C CNN
F 1 "+5V" H 3290 4473 50  0000 C CNN
F 2 "" H 3275 4300 50  0001 C CNN
F 3 "" H 3275 4300 50  0001 C CNN
	1    3275 4300
	-1   0    0    -1  
$EndComp
$Comp
L Device:R R5
U 1 1 5FAD4589
P 2950 4900
F 0 "R5" V 2900 5050 50  0000 C CNN
F 1 "10kR" V 2950 4900 50  0000 C CNN
F 2 "Resistor_SMD:R_0603_1608Metric" V 2880 4900 50  0001 C CNN
F 3 "~" H 2950 4900 50  0001 C CNN
	1    2950 4900
	-1   0    0    1   
$EndComp
Wire Wire Line
	2950 5200 2950 5050
$Comp
L Device:R R6
U 1 1 5FAD4590
P 3075 4900
F 0 "R6" V 3025 5050 50  0000 C CNN
F 1 "10kR" V 3075 4900 50  0000 C CNN
F 2 "Resistor_SMD:R_0603_1608Metric" V 3005 4900 50  0001 C CNN
F 3 "~" H 3075 4900 50  0001 C CNN
	1    3075 4900
	-1   0    0    1   
$EndComp
Wire Wire Line
	3075 5200 2950 5200
Connection ~ 2950 5200
Wire Wire Line
	3075 5050 3075 5200
Wire Wire Line
	2950 4750 2950 4700
$Comp
L power:GND #PWR03
U 1 1 5FAD45A1
P 2025 4000
F 0 "#PWR03" H 2025 3750 50  0001 C CNN
F 1 "GND" H 2030 3827 50  0000 C CNN
F 2 "" H 2025 4000 50  0001 C CNN
F 3 "" H 2025 4000 50  0001 C CNN
	1    2025 4000
	1    0    0    -1  
$EndComp
$Comp
L Connector_Generic:Conn_02x08_Odd_Even J1
U 1 1 5FAD45AA
P 2400 4400
F 0 "J1" H 2450 3775 50  0000 C CNN
F 1 "MOTOR" H 2450 3866 50  0000 C CNN
F 2 "Connector_IDC:IDC-Header_2x08_P2.54mm_Latch6.5mm_Vertical" H 2450 4825 50  0001 C CNN
F 3 "~" H 2400 4400 50  0001 C CNN
	1    2400 4400
	1    0    0    1   
$EndComp
Wire Wire Line
	2700 4000 2700 4100
Connection ~ 2700 4000
Connection ~ 2700 4100
Wire Wire Line
	2700 4100 2700 4200
Wire Wire Line
	2200 4000 2200 4100
Connection ~ 2200 4000
Connection ~ 2200 4100
Wire Wire Line
	2200 4100 2200 4200
Wire Wire Line
	3275 4300 2700 4300
Wire Wire Line
	2950 4700 2700 4700
Connection ~ 2950 4700
Wire Wire Line
	2700 4600 3075 4600
Wire Wire Line
	3075 4750 3075 4600
Connection ~ 3075 4600
$Comp
L power:GND #PWR02
U 1 1 5FAD45C0
P 2000 5200
F 0 "#PWR02" H 2000 4950 50  0001 C CNN
F 1 "GND" H 2005 5027 50  0000 C CNN
F 2 "" H 2000 5200 50  0001 C CNN
F 3 "" H 2000 5200 50  0001 C CNN
	1    2000 5200
	1    0    0    -1  
$EndComp
$Comp
L Device:R R3
U 1 1 5FAD45C6
P 2000 4900
F 0 "R3" V 1950 5050 50  0000 C CNN
F 1 "10kR" V 2000 4900 50  0000 C CNN
F 2 "Resistor_SMD:R_0603_1608Metric" V 1930 4900 50  0001 C CNN
F 3 "~" H 2000 4900 50  0001 C CNN
	1    2000 4900
	-1   0    0    1   
$EndComp
Wire Wire Line
	2000 5200 2000 5050
$Comp
L Device:R R4
U 1 1 5FAD45CD
P 2125 4900
F 0 "R4" V 2075 5050 50  0000 C CNN
F 1 "10kR" V 2125 4900 50  0000 C CNN
F 2 "Resistor_SMD:R_0603_1608Metric" V 2055 4900 50  0001 C CNN
F 3 "~" H 2125 4900 50  0001 C CNN
	1    2125 4900
	-1   0    0    1   
$EndComp
Wire Wire Line
	2125 5200 2000 5200
Connection ~ 2000 5200
Wire Wire Line
	2125 5050 2125 5200
Wire Wire Line
	2000 4750 2000 4700
Wire Wire Line
	2000 4700 2200 4700
Connection ~ 2000 4700
Wire Wire Line
	2125 4750 2125 4600
Connection ~ 2125 4600
Wire Wire Line
	2125 4600 2200 4600
Wire Wire Line
	2025 4000 2200 4000
Wire Wire Line
	2200 4200 2200 4300
Connection ~ 2200 4200
$Comp
L Device:R R?
U 1 1 5FAD45E1
P 1900 4400
AR Path="/5E997976/5FAD45E1" Ref="R?"  Part="1" 
AR Path="/5EA35A8B/5FAD45E1" Ref="R?"  Part="1" 
AR Path="/5FAC558F/5FAD45E1" Ref="R?"  Part="1" 
AR Path="/5FAD45E1" Ref="R1"  Part="1" 
F 0 "R1" V 1875 4550 50  0000 C CNN
F 1 "0R" V 1900 4400 50  0000 C CNN
F 2 "Resistor_SMD:R_0603_1608Metric" V 1830 4400 50  0001 C CNN
F 3 "~" H 1900 4400 50  0001 C CNN
	1    1900 4400
	0    1    1    0   
$EndComp
$Comp
L Device:R R?
U 1 1 5FAD45E7
P 1900 4500
AR Path="/5E997976/5FAD45E7" Ref="R?"  Part="1" 
AR Path="/5EA35A8B/5FAD45E7" Ref="R?"  Part="1" 
AR Path="/5FAC558F/5FAD45E7" Ref="R?"  Part="1" 
AR Path="/5FAD45E7" Ref="R2"  Part="1" 
F 0 "R2" V 1875 4650 50  0000 C CNN
F 1 "0R" V 1900 4500 50  0000 C CNN
F 2 "Resistor_SMD:R_0603_1608Metric" V 1830 4500 50  0001 C CNN
F 3 "~" H 1900 4500 50  0001 C CNN
	1    1900 4500
	0    1    1    0   
$EndComp
Wire Wire Line
	2050 4400 2200 4400
Wire Wire Line
	2200 4500 2050 4500
$Comp
L power:+12V #PWR06
U 1 1 5FB8C98A
P 3050 4000
F 0 "#PWR06" H 3050 3850 50  0001 C CNN
F 1 "+12V" H 3065 4173 50  0000 C CNN
F 2 "" H 3050 4000 50  0001 C CNN
F 3 "" H 3050 4000 50  0001 C CNN
	1    3050 4000
	1    0    0    -1  
$EndComp
Wire Wire Line
	2700 4000 3050 4000
$Comp
L power:GND #PWR021
U 1 1 5FB6F258
P 9250 6225
F 0 "#PWR021" H 9250 5975 50  0001 C CNN
F 1 "GND" H 9255 6052 50  0000 C CNN
F 2 "" H 9250 6225 50  0001 C CNN
F 3 "" H 9250 6225 50  0001 C CNN
	1    9250 6225
	1    0    0    -1  
$EndComp
Wire Wire Line
	9250 6125 9250 6225
$Comp
L Device:Q_NPN_BCE Q1
U 1 1 5FADEED9
P 7125 5800
F 0 "Q1" H 7316 5846 50  0000 L CNN
F 1 "Q_NPN_BCE" H 7316 5755 50  0000 L CNN
F 2 "Package_TO_SOT_THT:TO-220-3_Horizontal_TabUp" H 7325 5900 50  0001 C CNN
F 3 "https://www.tme.eu/Document/c8cfe83008b05ae4fe58a4d39302e317/d44h8.pdf" H 7125 5800 50  0001 C CNN
	1    7125 5800
	1    0    0    -1  
$EndComp
$Comp
L Device:D_Zener D2
U 1 1 5FADF77B
P 6700 5300
F 0 "D2" H 6700 5517 50  0000 C CNN
F 1 "D_Zener 14.4" H 6700 5426 50  0000 C CNN
F 2 "Diode_SMD:D_SOD-123" H 6700 5300 50  0001 C CNN
F 3 "~" H 6700 5300 50  0001 C CNN
	1    6700 5300
	0    1    1    0   
$EndComp
$Comp
L Device:D_Schottky D1
U 1 1 5FADFDA5
P 4800 5000
F 0 "D1" H 4800 5217 50  0000 C CNN
F 1 "D_Schottky" H 4800 5126 50  0000 C CNN
F 2 "Diode_THT:D_P600_R-6_P7.62mm_Vertical_AnodeUp" H 4800 5000 50  0001 C CNN
F 3 "~" H 4800 5000 50  0001 C CNN
	1    4800 5000
	-1   0    0    1   
$EndComp
$Comp
L Device:R R8
U 1 1 5FAE4773
P 6700 5825
F 0 "R8" V 6650 5975 50  0000 C CNN
F 1 "100kR" V 6700 5825 50  0000 C CNN
F 2 "Resistor_SMD:R_0603_1608Metric" V 6630 5825 50  0001 C CNN
F 3 "~" H 6700 5825 50  0001 C CNN
	1    6700 5825
	-1   0    0    1   
$EndComp
Wire Wire Line
	6700 5150 6700 5000
Wire Wire Line
	6700 5975 6700 6125
Wire Wire Line
	7225 6125 7225 6000
Wire Wire Line
	6925 5525 6925 5800
$Comp
L Device:R R?
U 1 1 5FAE477A
P 7225 5325
AR Path="/5FAC558F/5FAE477A" Ref="R?"  Part="1" 
AR Path="/5FAE477A" Ref="R9"  Part="1" 
F 0 "R9" V 7175 5475 50  0000 C CNN
F 1 "1R 1W" V 7225 5325 50  0000 C CNN
F 2 "Resistor_SMD:R_2512_6332Metric" V 7155 5325 50  0001 C CNN
F 3 "~" H 7225 5325 50  0001 C CNN
	1    7225 5325
	-1   0    0    1   
$EndComp
Wire Wire Line
	7225 5475 7225 5600
Wire Wire Line
	7225 5175 7225 5000
$Comp
L Device:C C8
U 1 1 5FB0FE99
P 6025 5150
F 0 "C8" H 6050 5225 50  0000 L CNN
F 1 "100nF 50V" V 6025 5350 50  0000 L CNN
F 2 "Capacitor_SMD:C_0603_1608Metric" H 6063 5000 50  0001 C CNN
F 3 "~" H 6025 5150 50  0001 C CNN
	1    6025 5150
	1    0    0    -1  
$EndComp
$Comp
L Device:CP C7
U 1 1 5FB0FEA0
P 5800 5150
F 0 "C7" H 5800 5225 50  0000 L CNN
F 1 "4700uF 25V" V 5800 5325 50  0000 L CNN
F 2 "Capacitor_THT:CP_Radial_D18.0mm_P7.50mm" H 5838 5000 50  0001 C CNN
F 3 "~" H 5800 5150 50  0001 C CNN
	1    5800 5150
	1    0    0    -1  
$EndComp
Wire Wire Line
	6025 5000 5800 5000
Connection ~ 7775 5000
Wire Wire Line
	7775 5000 7550 5000
$Comp
L Device:CP C10
U 1 1 5FAD4566
P 7550 5150
F 0 "C10" H 7550 5225 50  0000 L CNN
F 1 "220uF 25V" V 7550 5325 50  0000 L CNN
F 2 "Capacitor_SMD:CP_Elec_10x10" H 7588 5000 50  0001 C CNN
F 3 "~" H 7550 5150 50  0001 C CNN
	1    7550 5150
	1    0    0    -1  
$EndComp
$Comp
L Device:C C11
U 1 1 5FAD455F
P 7775 5150
F 0 "C11" H 7800 5225 50  0000 L CNN
F 1 "100nF 50V" V 7775 5350 50  0000 L CNN
F 2 "Capacitor_SMD:C_0603_1608Metric" H 7813 5000 50  0001 C CNN
F 3 "~" H 7775 5150 50  0001 C CNN
	1    7775 5150
	1    0    0    -1  
$EndComp
Wire Wire Line
	5800 5300 6025 5300
Wire Wire Line
	7550 5300 7775 5300
Wire Wire Line
	7775 5300 7775 6125
Connection ~ 7775 5300
Wire Wire Line
	5800 6125 5800 5300
Connection ~ 5800 5300
Wire Wire Line
	6700 5450 6700 5525
Wire Wire Line
	7550 5000 7225 5000
Connection ~ 7550 5000
Connection ~ 7225 5000
Wire Wire Line
	6700 5000 7100 5000
Wire Wire Line
	6700 5000 6550 5000
Connection ~ 6700 5000
Wire Wire Line
	6250 5000 6025 5000
Connection ~ 6025 5000
Connection ~ 5800 5000
Wire Wire Line
	6925 5525 6700 5525
Connection ~ 6700 5525
Wire Wire Line
	6700 5525 6700 5675
Wire Wire Line
	7775 6125 7225 6125
Wire Wire Line
	7225 6125 6700 6125
Connection ~ 7225 6125
Wire Wire Line
	6700 6125 5800 6125
Connection ~ 6700 6125
$Comp
L power:GND #PWR014
U 1 1 5FB7007C
P 7775 6300
F 0 "#PWR014" H 7775 6050 50  0001 C CNN
F 1 "GND" H 7780 6127 50  0000 C CNN
F 2 "" H 7775 6300 50  0001 C CNN
F 3 "" H 7775 6300 50  0001 C CNN
	1    7775 6300
	1    0    0    -1  
$EndComp
Wire Wire Line
	7775 6125 7775 6300
Connection ~ 7775 6125
$Comp
L power:+12V #PWR09
U 1 1 5FB8FD1E
P 4525 4950
F 0 "#PWR09" H 4525 4800 50  0001 C CNN
F 1 "+12V" H 4540 5123 50  0000 C CNN
F 2 "" H 4525 4950 50  0001 C CNN
F 3 "" H 4525 4950 50  0001 C CNN
	1    4525 4950
	1    0    0    -1  
$EndComp
Wire Wire Line
	4650 5000 4525 5000
Wire Wire Line
	4525 5000 4525 4950
Wire Wire Line
	9250 5000 9250 5025
$Comp
L VA:_moje_ABPMRRN060MDSA3 U2
U 1 1 5FA81AB4
P 6075 2325
F 0 "U2" H 6075 2690 50  0000 C CNN
F 1 "ABPMRRN060MDSA3" H 6075 2599 50  0000 C CNN
F 2 "moje_biblioteki:ABPMRRN060MDSA3" H 6075 2325 50  0001 C CNN
F 3 "https://www.tme.eu/pl/details/abpmrrn060mdsa3/czujniki-cisnienia/honeywell/" H 6075 2325 50  0001 C CNN
	1    6075 2325
	1    0    0    -1  
$EndComp
$Comp
L VA:_moje_HSCDRRV001PGSA3 U3
U 1 1 5FA81ABA
P 6075 3250
F 0 "U3" H 6075 3665 50  0000 C CNN
F 1 "HSCDRRV001PGSA3" H 6075 3574 50  0000 C CNN
F 2 "moje_biblioteki:HSCDRRV001PGSA3" H 6075 3250 50  0001 C CNN
F 3 "https://www.tme.eu/pl/details/hscdrrv001pgsa3/czujniki-cisnienia/honeywell/" H 6075 3250 50  0001 C CNN
	1    6075 3250
	1    0    0    -1  
$EndComp
$Comp
L VA:BLDC_regulator U4
U 1 1 5FAD4577
P 9250 5575
F 0 "U4" H 9250 6306 50  0000 C CNN
F 1 "BLDC_regulator" H 9250 6215 50  0000 C CNN
F 2 "moje_biblioteki:bldc_generic" H 9000 5175 50  0001 C CNN
F 3 "" H 9000 5175 50  0001 C CNN
	1    9250 5575
	1    0    0    -1  
$EndComp
Text GLabel 8625 5675 0    39   Input ~ 0
BLDC_TELEM
Text GLabel 3250 4600 2    39   Input ~ 0
BLDC_TELEM
Text GLabel 3250 4700 2    39   Input ~ 0
MOTOR_PWM
Text GLabel 8625 5475 0    39   Input ~ 0
MOTOR_PWM
Text GLabel 1575 4600 0    39   Input ~ 0
SERVO0_PWM
Text GLabel 1575 4700 0    39   Input ~ 0
SERVO1_PWM
Text GLabel 1575 4400 0    39   Input ~ 0
SPI_SCK
Text GLabel 1575 4500 0    39   Input ~ 0
SPI_MISO
Text GLabel 3250 4400 2    39   Input ~ 0
SPI_CS
Text GLabel 3250 4500 2    39   Input ~ 0
RPM_Hall
Wire Wire Line
	2700 4400 3250 4400
Wire Wire Line
	2700 4500 3250 4500
Wire Wire Line
	3075 4600 3250 4600
Wire Wire Line
	2950 4700 3250 4700
Wire Wire Line
	1575 4400 1750 4400
Wire Wire Line
	1575 4500 1750 4500
Wire Wire Line
	1575 4700 2000 4700
Text GLabel 5600 3400 0    39   Input ~ 0
SPI_SCK
Text GLabel 5600 3300 0    39   Input ~ 0
SPI_MISO
Text GLabel 6550 2225 2    39   Input ~ 0
SPI_SCK
Text GLabel 6550 2325 2    39   Input ~ 0
SPI_MISO
Text GLabel 6575 3100 2    39   Input ~ 0
SPI_CS
Text GLabel 5250 2425 0    39   Input ~ 0
SPI_CS
Wire Wire Line
	6425 3100 6575 3100
Wire Wire Line
	8625 5475 8750 5475
Wire Wire Line
	8750 5675 8625 5675
$Comp
L Connector_Generic:Conn_01x03 J4
U 1 1 5FB95B2B
P 9875 2625
F 0 "J4" H 9955 2667 50  0000 L CNN
F 1 "Conn_01x03" H 9955 2576 50  0000 L CNN
F 2 "moje_biblioteki:KK_1x3_pin_angled" H 9875 2625 50  0001 C CNN
F 3 "~" H 9875 2625 50  0001 C CNN
	1    9875 2625
	1    0    0    -1  
$EndComp
$Comp
L power:GND #PWR020
U 1 1 5FB95B31
P 8850 2925
F 0 "#PWR020" H 8850 2675 50  0001 C CNN
F 1 "GND" H 8855 2752 50  0000 C CNN
F 2 "" H 8850 2925 50  0001 C CNN
F 3 "" H 8850 2925 50  0001 C CNN
	1    8850 2925
	1    0    0    -1  
$EndComp
$Comp
L Device:C C15
U 1 1 5FB95B37
P 8850 2775
F 0 "C15" V 8950 2950 50  0000 L CNN
F 1 "10uF 16V" V 9025 2975 50  0000 L CNN
F 2 "Capacitor_SMD:C_0805_2012Metric" H 8888 2625 50  0001 C CNN
F 3 "~" H 8850 2775 50  0001 C CNN
	1    8850 2775
	1    0    0    -1  
$EndComp
Connection ~ 8850 2925
$Comp
L Device:C C18
U 1 1 5FB95B3E
P 9200 2775
F 0 "C18" V 9300 2850 50  0000 L CNN
F 1 "100nF 50V" V 9375 2850 50  0000 L CNN
F 2 "Capacitor_SMD:C_0603_1608Metric" H 9238 2625 50  0001 C CNN
F 3 "~" H 9200 2775 50  0001 C CNN
	1    9200 2775
	1    0    0    -1  
$EndComp
Wire Wire Line
	8850 2625 9200 2625
Wire Wire Line
	8850 2925 9200 2925
$Comp
L power:+5V #PWR?
U 1 1 5FB95B46
P 8850 2625
AR Path="/5FAC558F/5FB95B46" Ref="#PWR?"  Part="1" 
AR Path="/5FB95B46" Ref="#PWR019"  Part="1" 
F 0 "#PWR019" H 8850 2475 50  0001 C CNN
F 1 "+5V" H 8865 2798 50  0000 C CNN
F 2 "" H 8850 2625 50  0001 C CNN
F 3 "" H 8850 2625 50  0001 C CNN
	1    8850 2625
	-1   0    0    -1  
$EndComp
Connection ~ 8850 2625
Wire Wire Line
	9675 2625 9200 2625
Connection ~ 9200 2625
Wire Wire Line
	9675 2725 9425 2725
Wire Wire Line
	9425 2725 9425 2925
Wire Wire Line
	9425 2925 9200 2925
Connection ~ 9200 2925
Text GLabel 9575 1375 0    39   Input ~ 0
SERVO0_PWM
Text GLabel 9675 2525 0    39   Input ~ 0
SERVO1_PWM
$Comp
L Connector_Generic:Conn_01x03 J2
U 1 1 5FBAEB6D
P 9850 3725
F 0 "J2" H 9930 3767 50  0000 L CNN
F 1 "Conn_01x03" H 9930 3676 50  0000 L CNN
F 2 "moje_biblioteki:KK_1x3_pin_angled" H 9850 3725 50  0001 C CNN
F 3 "~" H 9850 3725 50  0001 C CNN
	1    9850 3725
	1    0    0    -1  
$EndComp
$Comp
L power:GND #PWR016
U 1 1 5FBAEB73
P 8825 4025
F 0 "#PWR016" H 8825 3775 50  0001 C CNN
F 1 "GND" H 8830 3852 50  0000 C CNN
F 2 "" H 8825 4025 50  0001 C CNN
F 3 "" H 8825 4025 50  0001 C CNN
	1    8825 4025
	1    0    0    -1  
$EndComp
$Comp
L Device:C C13
U 1 1 5FBAEB79
P 8825 3875
F 0 "C13" V 8925 4050 50  0000 L CNN
F 1 "1uF 16V" V 9000 4075 50  0000 L CNN
F 2 "Capacitor_SMD:C_0603_1608Metric" H 8863 3725 50  0001 C CNN
F 3 "~" H 8825 3875 50  0001 C CNN
	1    8825 3875
	1    0    0    -1  
$EndComp
Connection ~ 8825 4025
$Comp
L Device:C C16
U 1 1 5FBAEB80
P 9175 3875
F 0 "C16" V 9275 3950 50  0000 L CNN
F 1 "100nF 50V" V 9350 3950 50  0000 L CNN
F 2 "Capacitor_SMD:C_0603_1608Metric" H 9213 3725 50  0001 C CNN
F 3 "~" H 9175 3875 50  0001 C CNN
	1    9175 3875
	1    0    0    -1  
$EndComp
Wire Wire Line
	8825 3725 9175 3725
Wire Wire Line
	8825 4025 9175 4025
$Comp
L power:+5V #PWR?
U 1 1 5FBAEB88
P 8825 3725
AR Path="/5FAC558F/5FBAEB88" Ref="#PWR?"  Part="1" 
AR Path="/5FBAEB88" Ref="#PWR015"  Part="1" 
F 0 "#PWR015" H 8825 3575 50  0001 C CNN
F 1 "+5V" H 8840 3898 50  0000 C CNN
F 2 "" H 8825 3725 50  0001 C CNN
F 3 "" H 8825 3725 50  0001 C CNN
	1    8825 3725
	-1   0    0    -1  
$EndComp
Connection ~ 8825 3725
Wire Wire Line
	9650 3725 9175 3725
Connection ~ 9175 3725
Wire Wire Line
	9650 3825 9400 3825
Wire Wire Line
	9400 3825 9400 4025
Wire Wire Line
	9400 4025 9175 4025
Connection ~ 9175 4025
Text GLabel 9650 3625 0    39   Input ~ 0
RPM_Hall
$Comp
L power:+3V3 #PWR08
U 1 1 5FCC6088
P 3575 1525
F 0 "#PWR08" H 3575 1375 50  0001 C CNN
F 1 "+3V3" H 3590 1698 50  0000 C CNN
F 2 "" H 3575 1525 50  0001 C CNN
F 3 "" H 3575 1525 50  0001 C CNN
	1    3575 1525
	1    0    0    -1  
$EndComp
$Comp
L Regulator_Linear:AZ1117-3.3 U1
U 1 1 5EB5F625
P 2625 1525
F 0 "U1" H 2625 1767 50  0000 C CNN
F 1 "AZ1117-3.3" H 2625 1676 50  0000 C CNN
F 2 "Package_TO_SOT_SMD:SOT-223-3_TabPin2" H 2625 1775 50  0001 C CIN
F 3 "https://www.diodes.com/assets/Datasheets/AZ1117.pdf" H 2625 1525 50  0001 C CNN
	1    2625 1525
	1    0    0    -1  
$EndComp
$Comp
L power:GND #PWR04
U 1 1 5EB60F2B
P 2625 1825
F 0 "#PWR04" H 2625 1575 50  0001 C CNN
F 1 "GND" H 2630 1652 50  0000 C CNN
F 2 "" H 2625 1825 50  0001 C CNN
F 3 "" H 2625 1825 50  0001 C CNN
	1    2625 1825
	1    0    0    -1  
$EndComp
$Comp
L Device:Ferrite_Bead FB1
U 1 1 5EB61D2E
P 1525 1525
F 0 "FB1" V 1251 1525 50  0000 C CNN
F 1 "BLM18EG101TN1D" V 1342 1525 50  0000 C CNN
F 2 "Resistor_SMD:R_0603_1608Metric" V 1455 1525 50  0001 C CNN
F 3 "~" H 1525 1525 50  0001 C CNN
	1    1525 1525
	0    1    1    0   
$EndComp
Wire Wire Line
	1675 1525 1700 1525
$Comp
L Device:C C1
U 1 1 5EB639A0
P 1700 1675
F 0 "C1" H 1700 1750 50  0000 L CNN
F 1 "100nF 50V" V 1700 1075 50  0000 L CNN
F 2 "Capacitor_SMD:C_0603_1608Metric" H 1738 1525 50  0001 C CNN
F 3 "~" H 1700 1675 50  0001 C CNN
	1    1700 1675
	1    0    0    -1  
$EndComp
Connection ~ 1700 1525
$Comp
L Device:C C2
U 1 1 5FCC608D
P 2000 1675
F 0 "C2" H 2000 1750 50  0000 L CNN
F 1 "10uF 16V" V 2000 1150 50  0000 L CNN
F 2 "Capacitor_SMD:C_0805_2012Metric" H 2038 1525 50  0001 C CNN
F 3 "~" H 2000 1675 50  0001 C CNN
	1    2000 1675
	1    0    0    -1  
$EndComp
Wire Wire Line
	1700 1525 2000 1525
Connection ~ 2000 1525
Wire Wire Line
	2000 1525 2325 1525
Wire Wire Line
	1700 1825 2000 1825
Connection ~ 2625 1825
Connection ~ 2000 1825
Wire Wire Line
	2000 1825 2625 1825
$Comp
L Device:C C3
U 1 1 5EB67777
P 2975 1675
F 0 "C3" H 2975 1750 50  0000 L CNN
F 1 "100nF 50V" V 2975 1075 50  0000 L CNN
F 2 "Capacitor_SMD:C_0603_1608Metric" H 3013 1525 50  0001 C CNN
F 3 "~" H 2975 1675 50  0001 C CNN
	1    2975 1675
	1    0    0    -1  
$EndComp
$Comp
L Device:C C4
U 1 1 5EB6777D
P 3275 1675
F 0 "C4" H 3275 1750 50  0000 L CNN
F 1 "1uF 16V" V 3275 1150 50  0000 L CNN
F 2 "Capacitor_SMD:C_0603_1608Metric" H 3313 1525 50  0001 C CNN
F 3 "~" H 3275 1675 50  0001 C CNN
	1    3275 1675
	1    0    0    -1  
$EndComp
Wire Wire Line
	2625 1825 2975 1825
Connection ~ 2975 1825
Wire Wire Line
	2975 1825 3275 1825
Text Notes 3325 1500 0    39   ~ 0
1A@3V
Wire Wire Line
	2925 1525 2975 1525
Connection ~ 3275 1525
Wire Wire Line
	3275 1525 3575 1525
Connection ~ 2975 1525
Wire Wire Line
	2975 1525 3275 1525
Wire Wire Line
	1100 1525 1375 1525
$Comp
L power:+5V #PWR?
U 1 1 5FC20D28
P 1100 1525
AR Path="/5FAC558F/5FC20D28" Ref="#PWR?"  Part="1" 
AR Path="/5FC20D28" Ref="#PWR01"  Part="1" 
F 0 "#PWR01" H 1100 1375 50  0001 C CNN
F 1 "+5V" H 1115 1698 50  0000 C CNN
F 2 "" H 1100 1525 50  0001 C CNN
F 3 "" H 1100 1525 50  0001 C CNN
	1    1100 1525
	-1   0    0    -1  
$EndComp
Wire Wire Line
	9750 5575 10200 5575
Wire Wire Line
	10200 5475 9750 5475
Wire Wire Line
	9750 5475 9750 5375
Wire Wire Line
	10200 5675 9750 5675
Wire Wire Line
	9750 5675 9750 5775
$Comp
L Device:C C5
U 1 1 5FC88919
P 5550 5150
F 0 "C5" H 5550 5225 50  0000 L CNN
F 1 "10uF 25V" V 5550 4625 50  0000 L CNN
F 2 "Capacitor_SMD:C_0805_2012Metric" H 5588 5000 50  0001 C CNN
F 3 "~" H 5550 5150 50  0001 C CNN
	1    5550 5150
	1    0    0    -1  
$EndComp
$Comp
L Device:C C12
U 1 1 5FC8D52A
P 7975 5150
F 0 "C12" H 7975 5225 50  0000 L CNN
F 1 "10uF 25V" V 7975 4625 50  0000 L CNN
F 2 "Capacitor_SMD:C_0805_2012Metric" H 8013 5000 50  0001 C CNN
F 3 "~" H 7975 5150 50  0001 C CNN
	1    7975 5150
	1    0    0    -1  
$EndComp
Wire Wire Line
	5800 5300 5550 5300
Wire Wire Line
	7775 5300 7975 5300
Wire Wire Line
	7775 5000 7975 5000
Connection ~ 5550 5000
Wire Wire Line
	5550 5000 5800 5000
$Comp
L Device:L L1
U 1 1 5EB53250
P 6400 5000
F 0 "L1" V 6590 5000 50  0000 C CNN
F 1 "12uH RLS-126" V 6499 5000 50  0000 C CNN
F 2 "moje_biblioteki:RLS-126" H 6400 5000 50  0001 C CNN
F 3 "https://pl.mouser.com/ProductDetail/RECOM-Power/RLS-126?qs=gZXFycFWdAMcIZPu0z1CRg%3D%3D" H 6400 5000 50  0001 C CNN
	1    6400 5000
	0    -1   -1   0   
$EndComp
$Comp
L power:GND #PWR018
U 1 1 5FD5BE8B
P 8850 1775
F 0 "#PWR018" H 8850 1525 50  0001 C CNN
F 1 "GND" H 8855 1602 50  0000 C CNN
F 2 "" H 8850 1775 50  0001 C CNN
F 3 "" H 8850 1775 50  0001 C CNN
	1    8850 1775
	1    0    0    -1  
$EndComp
$Comp
L Device:C C14
U 1 1 5FD5BE91
P 8850 1625
F 0 "C14" V 8950 1800 50  0000 L CNN
F 1 "10uF 16V" V 9025 1825 50  0000 L CNN
F 2 "Capacitor_SMD:C_0805_2012Metric" H 8888 1475 50  0001 C CNN
F 3 "~" H 8850 1625 50  0001 C CNN
	1    8850 1625
	1    0    0    -1  
$EndComp
Connection ~ 8850 1775
$Comp
L Device:C C17
U 1 1 5FD5BE98
P 9200 1625
F 0 "C17" V 9300 1700 50  0000 L CNN
F 1 "100nF 50V" V 9375 1700 50  0000 L CNN
F 2 "Capacitor_SMD:C_0603_1608Metric" H 9238 1475 50  0001 C CNN
F 3 "~" H 9200 1625 50  0001 C CNN
	1    9200 1625
	1    0    0    -1  
$EndComp
Wire Wire Line
	8850 1475 9200 1475
Wire Wire Line
	8850 1775 9200 1775
$Comp
L power:+5V #PWR?
U 1 1 5FD5BEA0
P 8850 1475
AR Path="/5FAC558F/5FD5BEA0" Ref="#PWR?"  Part="1" 
AR Path="/5FD5BEA0" Ref="#PWR017"  Part="1" 
F 0 "#PWR017" H 8850 1325 50  0001 C CNN
F 1 "+5V" H 8865 1648 50  0000 C CNN
F 2 "" H 8850 1475 50  0001 C CNN
F 3 "" H 8850 1475 50  0001 C CNN
	1    8850 1475
	-1   0    0    -1  
$EndComp
Connection ~ 8850 1475
Wire Wire Line
	9675 1475 9200 1475
Connection ~ 9200 1475
Wire Wire Line
	9675 1575 9425 1575
Wire Wire Line
	9425 1575 9425 1775
Wire Wire Line
	9425 1775 9200 1775
Connection ~ 9200 1775
$Comp
L Connector_Generic:Conn_01x04 J5
U 1 1 5FB36FE9
P 10400 5475
F 0 "J5" H 10480 5467 50  0000 L CNN
F 1 "Conn_01x04" H 10480 5376 50  0000 L CNN
F 2 "Connector_Phoenix_MC_HighVoltage:PhoenixContact_MCV_1,5_4-GF-5.08_1x04_P5.08mm_Vertical_ThreadedFlange" H 10400 5475 50  0001 C CNN
F 3 "~" H 10400 5475 50  0001 C CNN
	1    10400 5475
	1    0    0    -1  
$EndComp
$Comp
L power:GND #PWR022
U 1 1 5FB43526
P 10200 5275
F 0 "#PWR022" H 10200 5025 50  0001 C CNN
F 1 "GND" H 10205 5102 50  0000 C CNN
F 2 "" H 10200 5275 50  0001 C CNN
F 3 "" H 10200 5275 50  0001 C CNN
	1    10200 5275
	-1   0    0    1   
$EndComp
Wire Wire Line
	10200 5375 10200 5275
$Comp
L Device:CP C20
U 1 1 5FB555B4
P 8225 5150
F 0 "C20" H 8225 5225 50  0000 L CNN
F 1 "4700uF 25V" V 8225 5325 50  0000 L CNN
F 2 "Capacitor_THT:CP_Radial_D18.0mm_P7.50mm" H 8263 5000 50  0001 C CNN
F 3 "~" H 8225 5150 50  0001 C CNN
	1    8225 5150
	1    0    0    -1  
$EndComp
Connection ~ 8225 5000
Wire Wire Line
	7975 5000 8225 5000
Wire Wire Line
	8225 5000 9250 5000
Wire Wire Line
	8225 5300 7975 5300
Connection ~ 7975 5300
$Comp
L Device:CP C19
U 1 1 5FB72406
P 5275 5150
F 0 "C19" H 5275 5225 50  0000 L CNN
F 1 "220uF 25V" V 5275 5325 50  0000 L CNN
F 2 "Capacitor_SMD:CP_Elec_10x10" H 5313 5000 50  0001 C CNN
F 3 "~" H 5275 5150 50  0001 C CNN
	1    5275 5150
	1    0    0    -1  
$EndComp
Wire Wire Line
	5275 5000 4950 5000
Connection ~ 5275 5000
Wire Wire Line
	5275 5000 5550 5000
Wire Wire Line
	5275 5300 5550 5300
Connection ~ 5550 5300
$Comp
L Device:R R?
U 1 1 5FB8EB73
P 7100 5325
AR Path="/5FAC558F/5FB8EB73" Ref="R?"  Part="1" 
AR Path="/5FB8EB73" Ref="R10"  Part="1" 
F 0 "R10" V 7050 5475 50  0000 C CNN
F 1 "1R 1W" V 7100 5325 50  0000 C CNN
F 2 "Resistor_SMD:R_2512_6332Metric" V 7030 5325 50  0001 C CNN
F 3 "~" H 7100 5325 50  0001 C CNN
	1    7100 5325
	-1   0    0    1   
$EndComp
Wire Wire Line
	7100 5175 7100 5000
Wire Wire Line
	7100 5000 7225 5000
Connection ~ 7100 5000
Wire Wire Line
	7100 5475 7225 5475
Connection ~ 7225 5475
$Comp
L Connector_Generic:Conn_01x03 J3
U 1 1 5FD5BE85
P 9875 1475
F 0 "J3" H 9955 1517 50  0000 L CNN
F 1 "Conn_01x03" H 9955 1426 50  0000 L CNN
F 2 "moje_biblioteki:KK_1x3_pin_angled" H 9875 1475 50  0001 C CNN
F 3 "~" H 9875 1475 50  0001 C CNN
	1    9875 1475
	1    0    0    -1  
$EndComp
Wire Wire Line
	1575 4600 2125 4600
Wire Wire Line
	9675 1375 9575 1375
$Comp
L VA:Mechanical_MountingHole H3
U 1 1 5FD00FA2
P 2050 7050
F 0 "H3" H 2150 7096 50  0000 L CNN
F 1 "Mechanical_MountingHole" H 2150 7005 50  0000 L CNN
F 2 "moje_biblioteki:otwor_3_2mm_wiecej_miedzi" H 2050 7050 50  0001 C CNN
F 3 "" H 2050 7050 50  0001 C CNN
	1    2050 7050
	1    0    0    -1  
$EndComp
$Comp
L VA:Mechanical_MountingHole H2
U 1 1 5FD0FB5C
P 2050 6800
F 0 "H2" H 2150 6846 50  0000 L CNN
F 1 "Mechanical_MountingHole" H 2150 6755 50  0000 L CNN
F 2 "moje_biblioteki:otwor_3_2mm_wiecej_miedzi" H 2050 6800 50  0001 C CNN
F 3 "" H 2050 6800 50  0001 C CNN
	1    2050 6800
	1    0    0    -1  
$EndComp
$Comp
L VA:Mechanical_MountingHole H1
U 1 1 5FD22308
P 2050 6550
F 0 "H1" H 2150 6596 50  0000 L CNN
F 1 "Mechanical_MountingHole" H 2150 6505 50  0000 L CNN
F 2 "moje_biblioteki:otwor_3_2mm_wiecej_miedzi" H 2050 6550 50  0001 C CNN
F 3 "" H 2050 6550 50  0001 C CNN
	1    2050 6550
	1    0    0    -1  
$EndComp
$Comp
L VA:Mechanical_MountingHole H4
U 1 1 5FD6BB1A
P 2050 7300
F 0 "H4" H 2150 7346 50  0000 L CNN
F 1 "Mechanical_MountingHole" H 2150 7255 50  0000 L CNN
F 2 "moje_biblioteki:otwor_3_2mm_wiecej_miedzi" H 2050 7300 50  0001 C CNN
F 3 "" H 2050 7300 50  0001 C CNN
	1    2050 7300
	1    0    0    -1  
$EndComp
$EndSCHEMATC
